ISO-10303-21;
HEADER;
/* Generated by software containing ST-Developer
 * from STEP Tools, Inc. (www.steptools.com) 
 */

FILE_DESCRIPTION(
/* description */ (''),
/* implementation_level */ '2;1');

FILE_NAME(
/* name */ 
'C:/Users/Samuel/Desktop/spacemanic_sosa/Amos/Receiver Dongle/CAD/v1.1
/case_bottom.step',
/* time_stamp */ '2021-01-27T18:54:16+01:00',
/* author */ (''),
/* organization */ (''),
/* preprocessor_version */ 'ST-DEVELOPER v18.1',
/* originating_system */ 'Autodesk Translation Framework v9.7.1.1290',
/* authorisation */ '');

FILE_SCHEMA (('AUTOMOTIVE_DESIGN { 1 0 10303 214 3 1 1 }'));
ENDSEC;

DATA;
#10=MECHANICAL_DESIGN_GEOMETRIC_PRESENTATION_REPRESENTATION('',(#13),#1713);
#11=SHAPE_REPRESENTATION_RELATIONSHIP('SRR','None',#1720,#12);
#12=ADVANCED_BREP_SHAPE_REPRESENTATION('',(#14),#1712);
#13=STYLED_ITEM('',(#1729),#14);
#14=MANIFOLD_SOLID_BREP('Body1',#1017);
#15=FACE_BOUND('',#135,.T.);
#16=FACE_BOUND('',#142,.T.);
#17=FACE_BOUND('',#149,.T.);
#18=FACE_BOUND('',#156,.T.);
#19=PLANE('',#1034);
#20=PLANE('',#1035);
#21=PLANE('',#1040);
#22=PLANE('',#1041);
#23=PLANE('',#1042);
#24=PLANE('',#1043);
#25=PLANE('',#1044);
#26=PLANE('',#1048);
#27=PLANE('',#1052);
#28=PLANE('',#1053);
#29=PLANE('',#1054);
#30=PLANE('',#1059);
#31=PLANE('',#1063);
#32=PLANE('',#1067);
#33=PLANE('',#1071);
#34=PLANE('',#1075);
#35=PLANE('',#1076);
#36=PLANE('',#1077);
#37=PLANE('',#1081);
#38=PLANE('',#1083);
#39=PLANE('',#1085);
#40=PLANE('',#1086);
#41=PLANE('',#1090);
#42=PLANE('',#1093);
#43=PLANE('',#1094);
#44=PLANE('',#1095);
#45=PLANE('',#1099);
#46=PLANE('',#1101);
#47=PLANE('',#1106);
#48=PLANE('',#1107);
#49=PLANE('',#1108);
#50=PLANE('',#1110);
#51=PLANE('',#1114);
#52=PLANE('',#1121);
#53=PLANE('',#1122);
#54=FACE_OUTER_BOUND('',#108,.T.);
#55=FACE_OUTER_BOUND('',#109,.T.);
#56=FACE_OUTER_BOUND('',#110,.T.);
#57=FACE_OUTER_BOUND('',#111,.T.);
#58=FACE_OUTER_BOUND('',#112,.T.);
#59=FACE_OUTER_BOUND('',#113,.T.);
#60=FACE_OUTER_BOUND('',#114,.T.);
#61=FACE_OUTER_BOUND('',#115,.T.);
#62=FACE_OUTER_BOUND('',#116,.T.);
#63=FACE_OUTER_BOUND('',#117,.T.);
#64=FACE_OUTER_BOUND('',#118,.T.);
#65=FACE_OUTER_BOUND('',#119,.T.);
#66=FACE_OUTER_BOUND('',#120,.T.);
#67=FACE_OUTER_BOUND('',#121,.T.);
#68=FACE_OUTER_BOUND('',#122,.T.);
#69=FACE_OUTER_BOUND('',#123,.T.);
#70=FACE_OUTER_BOUND('',#124,.T.);
#71=FACE_OUTER_BOUND('',#125,.T.);
#72=FACE_OUTER_BOUND('',#126,.T.);
#73=FACE_OUTER_BOUND('',#127,.T.);
#74=FACE_OUTER_BOUND('',#128,.T.);
#75=FACE_OUTER_BOUND('',#129,.T.);
#76=FACE_OUTER_BOUND('',#130,.T.);
#77=FACE_OUTER_BOUND('',#131,.T.);
#78=FACE_OUTER_BOUND('',#132,.T.);
#79=FACE_OUTER_BOUND('',#133,.T.);
#80=FACE_OUTER_BOUND('',#134,.T.);
#81=FACE_OUTER_BOUND('',#136,.T.);
#82=FACE_OUTER_BOUND('',#137,.T.);
#83=FACE_OUTER_BOUND('',#138,.T.);
#84=FACE_OUTER_BOUND('',#139,.T.);
#85=FACE_OUTER_BOUND('',#140,.T.);
#86=FACE_OUTER_BOUND('',#141,.T.);
#87=FACE_OUTER_BOUND('',#143,.T.);
#88=FACE_OUTER_BOUND('',#144,.T.);
#89=FACE_OUTER_BOUND('',#145,.T.);
#90=FACE_OUTER_BOUND('',#146,.T.);
#91=FACE_OUTER_BOUND('',#147,.T.);
#92=FACE_OUTER_BOUND('',#148,.T.);
#93=FACE_OUTER_BOUND('',#150,.T.);
#94=FACE_OUTER_BOUND('',#151,.T.);
#95=FACE_OUTER_BOUND('',#152,.T.);
#96=FACE_OUTER_BOUND('',#153,.T.);
#97=FACE_OUTER_BOUND('',#154,.T.);
#98=FACE_OUTER_BOUND('',#155,.T.);
#99=FACE_OUTER_BOUND('',#157,.T.);
#100=FACE_OUTER_BOUND('',#158,.T.);
#101=FACE_OUTER_BOUND('',#159,.T.);
#102=FACE_OUTER_BOUND('',#160,.T.);
#103=FACE_OUTER_BOUND('',#161,.T.);
#104=FACE_OUTER_BOUND('',#162,.T.);
#105=FACE_OUTER_BOUND('',#163,.T.);
#106=FACE_OUTER_BOUND('',#164,.T.);
#107=FACE_OUTER_BOUND('',#165,.T.);
#108=EDGE_LOOP('',(#656,#657,#658,#659));
#109=EDGE_LOOP('',(#660,#661,#662,#663,#664,#665));
#110=EDGE_LOOP('',(#666,#667,#668,#669,#670,#671,#672,#673,#674,#675,#676,
#677,#678,#679));
#111=EDGE_LOOP('',(#680,#681,#682,#683,#684,#685));
#112=EDGE_LOOP('',(#686,#687,#688,#689));
#113=EDGE_LOOP('',(#690,#691,#692,#693));
#114=EDGE_LOOP('',(#694,#695,#696,#697));
#115=EDGE_LOOP('',(#698,#699,#700,#701,#702,#703,#704,#705,#706,#707,#708,
#709));
#116=EDGE_LOOP('',(#710,#711,#712,#713));
#117=EDGE_LOOP('',(#714,#715,#716,#717));
#118=EDGE_LOOP('',(#718,#719,#720,#721));
#119=EDGE_LOOP('',(#722,#723,#724,#725));
#120=EDGE_LOOP('',(#726,#727,#728,#729));
#121=EDGE_LOOP('',(#730,#731,#732,#733,#734,#735,#736,#737,#738,#739,#740,
#741,#742,#743));
#122=EDGE_LOOP('',(#744,#745,#746,#747,#748,#749,#750,#751,#752,#753));
#123=EDGE_LOOP('',(#754,#755,#756,#757));
#124=EDGE_LOOP('',(#758));
#125=EDGE_LOOP('',(#759,#760,#761,#762));
#126=EDGE_LOOP('',(#763));
#127=EDGE_LOOP('',(#764,#765,#766,#767));
#128=EDGE_LOOP('',(#768));
#129=EDGE_LOOP('',(#769,#770,#771,#772));
#130=EDGE_LOOP('',(#773));
#131=EDGE_LOOP('',(#774,#775,#776,#777));
#132=EDGE_LOOP('',(#778,#779,#780,#781));
#133=EDGE_LOOP('',(#782,#783,#784,#785));
#134=EDGE_LOOP('',(#786,#787,#788,#789,#790,#791));
#135=EDGE_LOOP('',(#792));
#136=EDGE_LOOP('',(#793,#794,#795,#796,#797,#798,#799,#800));
#137=EDGE_LOOP('',(#801,#802,#803,#804));
#138=EDGE_LOOP('',(#805,#806,#807,#808));
#139=EDGE_LOOP('',(#809,#810,#811,#812));
#140=EDGE_LOOP('',(#813,#814,#815,#816));
#141=EDGE_LOOP('',(#817,#818,#819,#820,#821,#822));
#142=EDGE_LOOP('',(#823));
#143=EDGE_LOOP('',(#824,#825,#826,#827));
#144=EDGE_LOOP('',(#828,#829,#830,#831,#832,#833,#834,#835));
#145=EDGE_LOOP('',(#836,#837,#838,#839));
#146=EDGE_LOOP('',(#840,#841,#842,#843));
#147=EDGE_LOOP('',(#844,#845,#846,#847));
#148=EDGE_LOOP('',(#848,#849,#850,#851,#852,#853));
#149=EDGE_LOOP('',(#854));
#150=EDGE_LOOP('',(#855,#856,#857,#858,#859,#860,#861,#862,#863,#864,#865,
#866,#867,#868));
#151=EDGE_LOOP('',(#869,#870,#871,#872));
#152=EDGE_LOOP('',(#873,#874,#875,#876));
#153=EDGE_LOOP('',(#877,#878,#879,#880));
#154=EDGE_LOOP('',(#881,#882,#883,#884));
#155=EDGE_LOOP('',(#885,#886,#887,#888,#889,#890));
#156=EDGE_LOOP('',(#891));
#157=EDGE_LOOP('',(#892,#893,#894,#895,#896,#897,#898,#899,#900,#901,#902,
#903,#904,#905,#906,#907));
#158=EDGE_LOOP('',(#908,#909,#910,#911));
#159=EDGE_LOOP('',(#912,#913,#914,#915));
#160=EDGE_LOOP('',(#916,#917,#918,#919,#920,#921,#922,#923));
#161=EDGE_LOOP('',(#924,#925,#926,#927));
#162=EDGE_LOOP('',(#928,#929,#930,#931));
#163=EDGE_LOOP('',(#932,#933,#934,#935));
#164=EDGE_LOOP('',(#936,#937,#938,#939));
#165=EDGE_LOOP('',(#940,#941,#942,#943));
#166=CIRCLE('',#1032,3.4);
#167=CIRCLE('',#1033,3.4);
#168=CIRCLE('',#1036,1.);
#169=CIRCLE('',#1037,1.);
#170=CIRCLE('',#1038,2.);
#171=CIRCLE('',#1039,2.);
#172=CIRCLE('',#1046,0.8);
#173=CIRCLE('',#1047,0.8);
#174=CIRCLE('',#1050,0.8);
#175=CIRCLE('',#1051,0.8);
#176=CIRCLE('',#1055,2.);
#177=CIRCLE('',#1056,2.);
#178=CIRCLE('',#1057,1.);
#179=CIRCLE('',#1058,1.);
#180=CIRCLE('',#1061,1.65);
#181=CIRCLE('',#1062,1.65);
#182=CIRCLE('',#1065,1.65);
#183=CIRCLE('',#1066,1.65);
#184=CIRCLE('',#1069,1.65);
#185=CIRCLE('',#1070,1.65);
#186=CIRCLE('',#1073,1.65);
#187=CIRCLE('',#1074,1.65);
#188=CIRCLE('',#1079,3.);
#189=CIRCLE('',#1080,3.);
#190=CIRCLE('',#1082,1.);
#191=CIRCLE('',#1088,3.);
#192=CIRCLE('',#1089,3.);
#193=CIRCLE('',#1091,1.);
#194=CIRCLE('',#1097,3.);
#195=CIRCLE('',#1098,3.);
#196=CIRCLE('',#1100,1.);
#197=CIRCLE('',#1104,3.);
#198=CIRCLE('',#1105,3.);
#199=CIRCLE('',#1109,1.);
#200=CIRCLE('',#1113,2.);
#201=CIRCLE('',#1115,2.);
#202=CIRCLE('',#1116,2.);
#203=CIRCLE('',#1117,2.);
#204=LINE('',#1419,#310);
#205=LINE('',#1423,#311);
#206=LINE('',#1427,#312);
#207=LINE('',#1429,#313);
#208=LINE('',#1431,#314);
#209=LINE('',#1433,#315);
#210=LINE('',#1434,#316);
#211=LINE('',#1437,#317);
#212=LINE('',#1439,#318);
#213=LINE('',#1441,#319);
#214=LINE('',#1445,#320);
#215=LINE('',#1449,#321);
#216=LINE('',#1451,#322);
#217=LINE('',#1453,#323);
#218=LINE('',#1457,#324);
#219=LINE('',#1461,#325);
#220=LINE('',#1463,#326);
#221=LINE('',#1465,#327);
#222=LINE('',#1466,#328);
#223=LINE('',#1469,#329);
#224=LINE('',#1471,#330);
#225=LINE('',#1472,#331);
#226=LINE('',#1475,#332);
#227=LINE('',#1476,#333);
#228=LINE('',#1478,#334);
#229=LINE('',#1481,#335);
#230=LINE('',#1483,#336);
#231=LINE('',#1485,#337);
#232=LINE('',#1487,#338);
#233=LINE('',#1489,#339);
#234=LINE('',#1491,#340);
#235=LINE('',#1493,#341);
#236=LINE('',#1494,#342);
#237=LINE('',#1500,#343);
#238=LINE('',#1503,#344);
#239=LINE('',#1506,#345);
#240=LINE('',#1508,#346);
#241=LINE('',#1509,#347);
#242=LINE('',#1515,#348);
#243=LINE('',#1518,#349);
#244=LINE('',#1520,#350);
#245=LINE('',#1521,#351);
#246=LINE('',#1523,#352);
#247=LINE('',#1524,#353);
#248=LINE('',#1529,#354);
#249=LINE('',#1532,#355);
#250=LINE('',#1534,#356);
#251=LINE('',#1538,#357);
#252=LINE('',#1542,#358);
#253=LINE('',#1544,#359);
#254=LINE('',#1545,#360);
#255=LINE('',#1550,#361);
#256=LINE('',#1557,#362);
#257=LINE('',#1564,#363);
#258=LINE('',#1571,#364);
#259=LINE('',#1577,#365);
#260=LINE('',#1579,#366);
#261=LINE('',#1581,#367);
#262=LINE('',#1582,#368);
#263=LINE('',#1585,#369);
#264=LINE('',#1587,#370);
#265=LINE('',#1588,#371);
#266=LINE('',#1594,#372);
#267=LINE('',#1597,#373);
#268=LINE('',#1599,#374);
#269=LINE('',#1601,#375);
#270=LINE('',#1603,#376);
#271=LINE('',#1604,#377);
#272=LINE('',#1608,#378);
#273=LINE('',#1610,#379);
#274=LINE('',#1611,#380);
#275=LINE('',#1615,#381);
#276=LINE('',#1617,#382);
#277=LINE('',#1619,#383);
#278=LINE('',#1620,#384);
#279=LINE('',#1626,#385);
#280=LINE('',#1629,#386);
#281=LINE('',#1632,#387);
#282=LINE('',#1634,#388);
#283=LINE('',#1636,#389);
#284=LINE('',#1637,#390);
#285=LINE('',#1641,#391);
#286=LINE('',#1643,#392);
#287=LINE('',#1645,#393);
#288=LINE('',#1646,#394);
#289=LINE('',#1649,#395);
#290=LINE('',#1651,#396);
#291=LINE('',#1652,#397);
#292=LINE('',#1659,#398);
#293=LINE('',#1662,#399);
#294=LINE('',#1664,#400);
#295=LINE('',#1666,#401);
#296=LINE('',#1667,#402);
#297=LINE('',#1668,#403);
#298=LINE('',#1675,#404);
#299=LINE('',#1678,#405);
#300=LINE('',#1680,#406);
#301=LINE('',#1681,#407);
#302=LINE('',#1683,#408);
#303=LINE('',#1684,#409);
#304=LINE('',#1691,#410);
#305=LINE('',#1695,#411);
#306=LINE('',#1700,#412);
#307=LINE('',#1703,#413);
#308=LINE('',#1705,#414);
#309=LINE('',#1707,#415);
#310=VECTOR('',#1127,10.);
#311=VECTOR('',#1130,10.);
#312=VECTOR('',#1135,10.);
#313=VECTOR('',#1136,10.);
#314=VECTOR('',#1137,10.);
#315=VECTOR('',#1138,10.);
#316=VECTOR('',#1139,10.);
#317=VECTOR('',#1142,10.);
#318=VECTOR('',#1143,10.);
#319=VECTOR('',#1144,10.);
#320=VECTOR('',#1147,10.);
#321=VECTOR('',#1150,10.);
#322=VECTOR('',#1151,10.);
#323=VECTOR('',#1152,10.);
#324=VECTOR('',#1155,10.);
#325=VECTOR('',#1160,10.);
#326=VECTOR('',#1161,10.);
#327=VECTOR('',#1162,10.);
#328=VECTOR('',#1163,10.);
#329=VECTOR('',#1166,10.);
#330=VECTOR('',#1167,10.);
#331=VECTOR('',#1168,10.);
#332=VECTOR('',#1171,10.);
#333=VECTOR('',#1172,10.);
#334=VECTOR('',#1175,10.);
#335=VECTOR('',#1178,10.);
#336=VECTOR('',#1179,10.);
#337=VECTOR('',#1180,10.);
#338=VECTOR('',#1181,10.);
#339=VECTOR('',#1182,10.);
#340=VECTOR('',#1183,10.);
#341=VECTOR('',#1184,10.);
#342=VECTOR('',#1185,10.);
#343=VECTOR('',#1190,10.);
#344=VECTOR('',#1193,10.);
#345=VECTOR('',#1196,10.);
#346=VECTOR('',#1197,10.);
#347=VECTOR('',#1198,10.);
#348=VECTOR('',#1205,10.);
#349=VECTOR('',#1208,10.);
#350=VECTOR('',#1209,10.);
#351=VECTOR('',#1210,10.);
#352=VECTOR('',#1213,10.);
#353=VECTOR('',#1214,10.);
#354=VECTOR('',#1219,10.);
#355=VECTOR('',#1222,10.);
#356=VECTOR('',#1223,10.);
#357=VECTOR('',#1226,10.);
#358=VECTOR('',#1231,10.);
#359=VECTOR('',#1232,10.);
#360=VECTOR('',#1233,10.);
#361=VECTOR('',#1238,1.65);
#362=VECTOR('',#1247,1.65);
#363=VECTOR('',#1256,1.65);
#364=VECTOR('',#1265,1.65);
#365=VECTOR('',#1272,10.);
#366=VECTOR('',#1273,10.);
#367=VECTOR('',#1274,10.);
#368=VECTOR('',#1275,10.);
#369=VECTOR('',#1278,10.);
#370=VECTOR('',#1279,10.);
#371=VECTOR('',#1280,10.);
#372=VECTOR('',#1289,10.);
#373=VECTOR('',#1294,10.);
#374=VECTOR('',#1295,10.);
#375=VECTOR('',#1296,10.);
#376=VECTOR('',#1297,10.);
#377=VECTOR('',#1298,10.);
#378=VECTOR('',#1303,10.);
#379=VECTOR('',#1304,10.);
#380=VECTOR('',#1305,10.);
#381=VECTOR('',#1308,10.);
#382=VECTOR('',#1309,10.);
#383=VECTOR('',#1310,10.);
#384=VECTOR('',#1311,10.);
#385=VECTOR('',#1320,10.);
#386=VECTOR('',#1325,10.);
#387=VECTOR('',#1328,10.);
#388=VECTOR('',#1329,10.);
#389=VECTOR('',#1330,10.);
#390=VECTOR('',#1331,10.);
#391=VECTOR('',#1334,10.);
#392=VECTOR('',#1335,10.);
#393=VECTOR('',#1336,10.);
#394=VECTOR('',#1337,10.);
#395=VECTOR('',#1340,10.);
#396=VECTOR('',#1341,10.);
#397=VECTOR('',#1342,10.);
#398=VECTOR('',#1353,10.);
#399=VECTOR('',#1356,10.);
#400=VECTOR('',#1357,10.);
#401=VECTOR('',#1358,10.);
#402=VECTOR('',#1359,10.);
#403=VECTOR('',#1360,10.);
#404=VECTOR('',#1367,10.);
#405=VECTOR('',#1370,10.);
#406=VECTOR('',#1373,10.);
#407=VECTOR('',#1374,10.);
#408=VECTOR('',#1377,10.);
#409=VECTOR('',#1378,10.);
#410=VECTOR('',#1389,10.);
#411=VECTOR('',#1394,10.);
#412=VECTOR('',#1399,10.);
#413=VECTOR('',#1404,10.);
#414=VECTOR('',#1407,10.);
#415=VECTOR('',#1410,10.);
#416=VERTEX_POINT('',#1417);
#417=VERTEX_POINT('',#1418);
#418=VERTEX_POINT('',#1420);
#419=VERTEX_POINT('',#1422);
#420=VERTEX_POINT('',#1426);
#421=VERTEX_POINT('',#1428);
#422=VERTEX_POINT('',#1430);
#423=VERTEX_POINT('',#1432);
#424=VERTEX_POINT('',#1436);
#425=VERTEX_POINT('',#1438);
#426=VERTEX_POINT('',#1440);
#427=VERTEX_POINT('',#1442);
#428=VERTEX_POINT('',#1444);
#429=VERTEX_POINT('',#1446);
#430=VERTEX_POINT('',#1448);
#431=VERTEX_POINT('',#1450);
#432=VERTEX_POINT('',#1452);
#433=VERTEX_POINT('',#1454);
#434=VERTEX_POINT('',#1456);
#435=VERTEX_POINT('',#1460);
#436=VERTEX_POINT('',#1462);
#437=VERTEX_POINT('',#1464);
#438=VERTEX_POINT('',#1468);
#439=VERTEX_POINT('',#1470);
#440=VERTEX_POINT('',#1474);
#441=VERTEX_POINT('',#1480);
#442=VERTEX_POINT('',#1482);
#443=VERTEX_POINT('',#1484);
#444=VERTEX_POINT('',#1486);
#445=VERTEX_POINT('',#1488);
#446=VERTEX_POINT('',#1490);
#447=VERTEX_POINT('',#1492);
#448=VERTEX_POINT('',#1496);
#449=VERTEX_POINT('',#1497);
#450=VERTEX_POINT('',#1499);
#451=VERTEX_POINT('',#1501);
#452=VERTEX_POINT('',#1505);
#453=VERTEX_POINT('',#1507);
#454=VERTEX_POINT('',#1511);
#455=VERTEX_POINT('',#1513);
#456=VERTEX_POINT('',#1517);
#457=VERTEX_POINT('',#1519);
#458=VERTEX_POINT('',#1526);
#459=VERTEX_POINT('',#1528);
#460=VERTEX_POINT('',#1530);
#461=VERTEX_POINT('',#1533);
#462=VERTEX_POINT('',#1535);
#463=VERTEX_POINT('',#1537);
#464=VERTEX_POINT('',#1541);
#465=VERTEX_POINT('',#1543);
#466=VERTEX_POINT('',#1547);
#467=VERTEX_POINT('',#1549);
#468=VERTEX_POINT('',#1554);
#469=VERTEX_POINT('',#1556);
#470=VERTEX_POINT('',#1561);
#471=VERTEX_POINT('',#1563);
#472=VERTEX_POINT('',#1568);
#473=VERTEX_POINT('',#1570);
#474=VERTEX_POINT('',#1575);
#475=VERTEX_POINT('',#1576);
#476=VERTEX_POINT('',#1578);
#477=VERTEX_POINT('',#1580);
#478=VERTEX_POINT('',#1584);
#479=VERTEX_POINT('',#1586);
#480=VERTEX_POINT('',#1593);
#481=VERTEX_POINT('',#1598);
#482=VERTEX_POINT('',#1600);
#483=VERTEX_POINT('',#1602);
#484=VERTEX_POINT('',#1607);
#485=VERTEX_POINT('',#1609);
#486=VERTEX_POINT('',#1613);
#487=VERTEX_POINT('',#1614);
#488=VERTEX_POINT('',#1616);
#489=VERTEX_POINT('',#1618);
#490=VERTEX_POINT('',#1625);
#491=VERTEX_POINT('',#1631);
#492=VERTEX_POINT('',#1633);
#493=VERTEX_POINT('',#1635);
#494=VERTEX_POINT('',#1639);
#495=VERTEX_POINT('',#1640);
#496=VERTEX_POINT('',#1642);
#497=VERTEX_POINT('',#1644);
#498=VERTEX_POINT('',#1648);
#499=VERTEX_POINT('',#1650);
#500=VERTEX_POINT('',#1657);
#501=VERTEX_POINT('',#1661);
#502=VERTEX_POINT('',#1663);
#503=VERTEX_POINT('',#1665);
#504=VERTEX_POINT('',#1671);
#505=VERTEX_POINT('',#1672);
#506=VERTEX_POINT('',#1674);
#507=VERTEX_POINT('',#1676);
#508=VERTEX_POINT('',#1690);
#509=VERTEX_POINT('',#1694);
#510=VERTEX_POINT('',#1697);
#511=VERTEX_POINT('',#1699);
#512=EDGE_CURVE('',#416,#417,#204,.T.);
#513=EDGE_CURVE('',#418,#416,#166,.T.);
#514=EDGE_CURVE('',#419,#418,#205,.T.);
#515=EDGE_CURVE('',#417,#419,#167,.T.);
#516=EDGE_CURVE('',#420,#419,#206,.T.);
#517=EDGE_CURVE('',#421,#420,#207,.T.);
#518=EDGE_CURVE('',#421,#422,#208,.T.);
#519=EDGE_CURVE('',#423,#422,#209,.T.);
#520=EDGE_CURVE('',#417,#423,#210,.T.);
#521=EDGE_CURVE('',#418,#424,#211,.T.);
#522=EDGE_CURVE('',#424,#425,#212,.T.);
#523=EDGE_CURVE('',#426,#425,#213,.T.);
#524=EDGE_CURVE('',#427,#426,#168,.T.);
#525=EDGE_CURVE('',#427,#428,#214,.T.);
#526=EDGE_CURVE('',#429,#428,#169,.T.);
#527=EDGE_CURVE('',#429,#430,#215,.T.);
#528=EDGE_CURVE('',#430,#431,#216,.T.);
#529=EDGE_CURVE('',#431,#432,#217,.T.);
#530=EDGE_CURVE('',#433,#432,#170,.T.);
#531=EDGE_CURVE('',#433,#434,#218,.T.);
#532=EDGE_CURVE('',#420,#434,#171,.T.);
#533=EDGE_CURVE('',#435,#416,#219,.T.);
#534=EDGE_CURVE('',#435,#436,#220,.T.);
#535=EDGE_CURVE('',#436,#437,#221,.T.);
#536=EDGE_CURVE('',#424,#437,#222,.T.);
#537=EDGE_CURVE('',#438,#435,#223,.T.);
#538=EDGE_CURVE('',#439,#438,#224,.T.);
#539=EDGE_CURVE('',#439,#436,#225,.T.);
#540=EDGE_CURVE('',#437,#440,#226,.T.);
#541=EDGE_CURVE('',#425,#440,#227,.T.);
#542=EDGE_CURVE('',#440,#439,#228,.T.);
#543=EDGE_CURVE('',#438,#441,#229,.T.);
#544=EDGE_CURVE('',#442,#441,#230,.T.);
#545=EDGE_CURVE('',#442,#443,#231,.T.);
#546=EDGE_CURVE('',#443,#444,#232,.T.);
#547=EDGE_CURVE('',#445,#444,#233,.T.);
#548=EDGE_CURVE('',#445,#446,#234,.T.);
#549=EDGE_CURVE('',#446,#447,#235,.T.);
#550=EDGE_CURVE('',#426,#447,#236,.T.);
#551=EDGE_CURVE('',#448,#449,#172,.T.);
#552=EDGE_CURVE('',#449,#450,#237,.T.);
#553=EDGE_CURVE('',#450,#451,#173,.T.);
#554=EDGE_CURVE('',#451,#448,#238,.T.);
#555=EDGE_CURVE('',#452,#449,#239,.T.);
#556=EDGE_CURVE('',#453,#452,#240,.T.);
#557=EDGE_CURVE('',#450,#453,#241,.T.);
#558=EDGE_CURVE('',#454,#453,#174,.T.);
#559=EDGE_CURVE('',#452,#455,#175,.T.);
#560=EDGE_CURVE('',#455,#454,#242,.T.);
#561=EDGE_CURVE('',#456,#451,#243,.T.);
#562=EDGE_CURVE('',#457,#456,#244,.T.);
#563=EDGE_CURVE('',#448,#457,#245,.T.);
#564=EDGE_CURVE('',#431,#455,#246,.T.);
#565=EDGE_CURVE('',#454,#430,#247,.T.);
#566=EDGE_CURVE('',#458,#423,#176,.T.);
#567=EDGE_CURVE('',#458,#459,#248,.T.);
#568=EDGE_CURVE('',#460,#459,#177,.T.);
#569=EDGE_CURVE('',#460,#457,#249,.T.);
#570=EDGE_CURVE('',#456,#461,#250,.T.);
#571=EDGE_CURVE('',#462,#461,#178,.T.);
#572=EDGE_CURVE('',#462,#463,#251,.T.);
#573=EDGE_CURVE('',#441,#463,#179,.T.);
#574=EDGE_CURVE('',#464,#460,#252,.T.);
#575=EDGE_CURVE('',#464,#465,#253,.T.);
#576=EDGE_CURVE('',#432,#465,#254,.T.);
#577=EDGE_CURVE('',#466,#466,#180,.T.);
#578=EDGE_CURVE('',#466,#467,#255,.T.);
#579=EDGE_CURVE('',#467,#467,#181,.T.);
#580=EDGE_CURVE('',#468,#468,#182,.T.);
#581=EDGE_CURVE('',#468,#469,#256,.T.);
#582=EDGE_CURVE('',#469,#469,#183,.T.);
#583=EDGE_CURVE('',#470,#470,#184,.T.);
#584=EDGE_CURVE('',#470,#471,#257,.T.);
#585=EDGE_CURVE('',#471,#471,#185,.T.);
#586=EDGE_CURVE('',#472,#472,#186,.T.);
#587=EDGE_CURVE('',#472,#473,#258,.T.);
#588=EDGE_CURVE('',#473,#473,#187,.T.);
#589=EDGE_CURVE('',#474,#475,#259,.T.);
#590=EDGE_CURVE('',#474,#476,#260,.T.);
#591=EDGE_CURVE('',#477,#476,#261,.T.);
#592=EDGE_CURVE('',#475,#477,#262,.T.);
#593=EDGE_CURVE('',#444,#478,#263,.T.);
#594=EDGE_CURVE('',#479,#443,#264,.T.);
#595=EDGE_CURVE('',#478,#479,#265,.T.);
#596=EDGE_CURVE('',#478,#474,#188,.T.);
#597=EDGE_CURVE('',#476,#479,#189,.T.);
#598=EDGE_CURVE('',#477,#480,#266,.T.);
#599=EDGE_CURVE('',#480,#442,#190,.T.);
#600=EDGE_CURVE('',#463,#480,#267,.T.);
#601=EDGE_CURVE('',#481,#462,#268,.T.);
#602=EDGE_CURVE('',#481,#482,#269,.T.);
#603=EDGE_CURVE('',#482,#483,#270,.T.);
#604=EDGE_CURVE('',#475,#483,#271,.F.);
#605=EDGE_CURVE('',#484,#445,#272,.T.);
#606=EDGE_CURVE('',#484,#485,#273,.T.);
#607=EDGE_CURVE('',#446,#485,#274,.T.);
#608=EDGE_CURVE('',#486,#487,#275,.T.);
#609=EDGE_CURVE('',#488,#486,#276,.T.);
#610=EDGE_CURVE('',#489,#488,#277,.T.);
#611=EDGE_CURVE('',#487,#489,#278,.T.);
#612=EDGE_CURVE('',#487,#484,#191,.T.);
#613=EDGE_CURVE('',#485,#489,#192,.T.);
#614=EDGE_CURVE('',#490,#488,#279,.T.);
#615=EDGE_CURVE('',#447,#490,#193,.T.);
#616=EDGE_CURVE('',#490,#427,#280,.T.);
#617=EDGE_CURVE('',#491,#486,#281,.F.);
#618=EDGE_CURVE('',#491,#492,#282,.T.);
#619=EDGE_CURVE('',#492,#493,#283,.T.);
#620=EDGE_CURVE('',#428,#493,#284,.T.);
#621=EDGE_CURVE('',#494,#495,#285,.T.);
#622=EDGE_CURVE('',#494,#496,#286,.T.);
#623=EDGE_CURVE('',#497,#496,#287,.T.);
#624=EDGE_CURVE('',#495,#497,#288,.T.);
#625=EDGE_CURVE('',#483,#498,#289,.T.);
#626=EDGE_CURVE('',#499,#482,#290,.T.);
#627=EDGE_CURVE('',#498,#499,#291,.T.);
#628=EDGE_CURVE('',#498,#494,#194,.T.);
#629=EDGE_CURVE('',#496,#499,#195,.T.);
#630=EDGE_CURVE('',#500,#481,#196,.T.);
#631=EDGE_CURVE('',#497,#500,#292,.T.);
#632=EDGE_CURVE('',#501,#429,#293,.T.);
#633=EDGE_CURVE('',#501,#502,#294,.T.);
#634=EDGE_CURVE('',#502,#503,#295,.T.);
#635=EDGE_CURVE('',#495,#503,#296,.F.);
#636=EDGE_CURVE('',#461,#500,#297,.T.);
#637=EDGE_CURVE('',#504,#505,#197,.T.);
#638=EDGE_CURVE('',#504,#506,#298,.T.);
#639=EDGE_CURVE('',#507,#506,#198,.T.);
#640=EDGE_CURVE('',#505,#507,#299,.T.);
#641=EDGE_CURVE('',#505,#491,#300,.T.);
#642=EDGE_CURVE('',#492,#507,#301,.T.);
#643=EDGE_CURVE('',#503,#504,#302,.T.);
#644=EDGE_CURVE('',#506,#502,#303,.T.);
#645=EDGE_CURVE('',#493,#501,#199,.T.);
#646=EDGE_CURVE('',#459,#508,#304,.T.);
#647=EDGE_CURVE('',#508,#464,#200,.T.);
#648=EDGE_CURVE('',#509,#508,#305,.T.);
#649=EDGE_CURVE('',#422,#509,#201,.T.);
#650=EDGE_CURVE('',#510,#421,#202,.T.);
#651=EDGE_CURVE('',#511,#510,#306,.T.);
#652=EDGE_CURVE('',#465,#511,#203,.T.);
#653=EDGE_CURVE('',#509,#458,#307,.T.);
#654=EDGE_CURVE('',#434,#510,#308,.T.);
#655=EDGE_CURVE('',#511,#433,#309,.T.);
#656=ORIENTED_EDGE('',*,*,#512,.F.);
#657=ORIENTED_EDGE('',*,*,#513,.F.);
#658=ORIENTED_EDGE('',*,*,#514,.F.);
#659=ORIENTED_EDGE('',*,*,#515,.F.);
#660=ORIENTED_EDGE('',*,*,#515,.T.);
#661=ORIENTED_EDGE('',*,*,#516,.F.);
#662=ORIENTED_EDGE('',*,*,#517,.F.);
#663=ORIENTED_EDGE('',*,*,#518,.T.);
#664=ORIENTED_EDGE('',*,*,#519,.F.);
#665=ORIENTED_EDGE('',*,*,#520,.F.);
#666=ORIENTED_EDGE('',*,*,#514,.T.);
#667=ORIENTED_EDGE('',*,*,#521,.T.);
#668=ORIENTED_EDGE('',*,*,#522,.T.);
#669=ORIENTED_EDGE('',*,*,#523,.F.);
#670=ORIENTED_EDGE('',*,*,#524,.F.);
#671=ORIENTED_EDGE('',*,*,#525,.T.);
#672=ORIENTED_EDGE('',*,*,#526,.F.);
#673=ORIENTED_EDGE('',*,*,#527,.T.);
#674=ORIENTED_EDGE('',*,*,#528,.T.);
#675=ORIENTED_EDGE('',*,*,#529,.T.);
#676=ORIENTED_EDGE('',*,*,#530,.F.);
#677=ORIENTED_EDGE('',*,*,#531,.T.);
#678=ORIENTED_EDGE('',*,*,#532,.F.);
#679=ORIENTED_EDGE('',*,*,#516,.T.);
#680=ORIENTED_EDGE('',*,*,#513,.T.);
#681=ORIENTED_EDGE('',*,*,#533,.F.);
#682=ORIENTED_EDGE('',*,*,#534,.T.);
#683=ORIENTED_EDGE('',*,*,#535,.T.);
#684=ORIENTED_EDGE('',*,*,#536,.F.);
#685=ORIENTED_EDGE('',*,*,#521,.F.);
#686=ORIENTED_EDGE('',*,*,#537,.F.);
#687=ORIENTED_EDGE('',*,*,#538,.F.);
#688=ORIENTED_EDGE('',*,*,#539,.T.);
#689=ORIENTED_EDGE('',*,*,#534,.F.);
#690=ORIENTED_EDGE('',*,*,#522,.F.);
#691=ORIENTED_EDGE('',*,*,#536,.T.);
#692=ORIENTED_EDGE('',*,*,#540,.T.);
#693=ORIENTED_EDGE('',*,*,#541,.F.);
#694=ORIENTED_EDGE('',*,*,#540,.F.);
#695=ORIENTED_EDGE('',*,*,#535,.F.);
#696=ORIENTED_EDGE('',*,*,#539,.F.);
#697=ORIENTED_EDGE('',*,*,#542,.F.);
#698=ORIENTED_EDGE('',*,*,#541,.T.);
#699=ORIENTED_EDGE('',*,*,#542,.T.);
#700=ORIENTED_EDGE('',*,*,#538,.T.);
#701=ORIENTED_EDGE('',*,*,#543,.T.);
#702=ORIENTED_EDGE('',*,*,#544,.F.);
#703=ORIENTED_EDGE('',*,*,#545,.T.);
#704=ORIENTED_EDGE('',*,*,#546,.T.);
#705=ORIENTED_EDGE('',*,*,#547,.F.);
#706=ORIENTED_EDGE('',*,*,#548,.T.);
#707=ORIENTED_EDGE('',*,*,#549,.T.);
#708=ORIENTED_EDGE('',*,*,#550,.F.);
#709=ORIENTED_EDGE('',*,*,#523,.T.);
#710=ORIENTED_EDGE('',*,*,#551,.T.);
#711=ORIENTED_EDGE('',*,*,#552,.T.);
#712=ORIENTED_EDGE('',*,*,#553,.T.);
#713=ORIENTED_EDGE('',*,*,#554,.T.);
#714=ORIENTED_EDGE('',*,*,#552,.F.);
#715=ORIENTED_EDGE('',*,*,#555,.F.);
#716=ORIENTED_EDGE('',*,*,#556,.F.);
#717=ORIENTED_EDGE('',*,*,#557,.F.);
#718=ORIENTED_EDGE('',*,*,#558,.T.);
#719=ORIENTED_EDGE('',*,*,#556,.T.);
#720=ORIENTED_EDGE('',*,*,#559,.T.);
#721=ORIENTED_EDGE('',*,*,#560,.T.);
#722=ORIENTED_EDGE('',*,*,#554,.F.);
#723=ORIENTED_EDGE('',*,*,#561,.F.);
#724=ORIENTED_EDGE('',*,*,#562,.F.);
#725=ORIENTED_EDGE('',*,*,#563,.F.);
#726=ORIENTED_EDGE('',*,*,#560,.F.);
#727=ORIENTED_EDGE('',*,*,#564,.F.);
#728=ORIENTED_EDGE('',*,*,#528,.F.);
#729=ORIENTED_EDGE('',*,*,#565,.F.);
#730=ORIENTED_EDGE('',*,*,#512,.T.);
#731=ORIENTED_EDGE('',*,*,#520,.T.);
#732=ORIENTED_EDGE('',*,*,#566,.F.);
#733=ORIENTED_EDGE('',*,*,#567,.T.);
#734=ORIENTED_EDGE('',*,*,#568,.F.);
#735=ORIENTED_EDGE('',*,*,#569,.T.);
#736=ORIENTED_EDGE('',*,*,#562,.T.);
#737=ORIENTED_EDGE('',*,*,#570,.T.);
#738=ORIENTED_EDGE('',*,*,#571,.F.);
#739=ORIENTED_EDGE('',*,*,#572,.T.);
#740=ORIENTED_EDGE('',*,*,#573,.F.);
#741=ORIENTED_EDGE('',*,*,#543,.F.);
#742=ORIENTED_EDGE('',*,*,#537,.T.);
#743=ORIENTED_EDGE('',*,*,#533,.T.);
#744=ORIENTED_EDGE('',*,*,#564,.T.);
#745=ORIENTED_EDGE('',*,*,#559,.F.);
#746=ORIENTED_EDGE('',*,*,#555,.T.);
#747=ORIENTED_EDGE('',*,*,#551,.F.);
#748=ORIENTED_EDGE('',*,*,#563,.T.);
#749=ORIENTED_EDGE('',*,*,#569,.F.);
#750=ORIENTED_EDGE('',*,*,#574,.F.);
#751=ORIENTED_EDGE('',*,*,#575,.T.);
#752=ORIENTED_EDGE('',*,*,#576,.F.);
#753=ORIENTED_EDGE('',*,*,#529,.F.);
#754=ORIENTED_EDGE('',*,*,#577,.F.);
#755=ORIENTED_EDGE('',*,*,#578,.T.);
#756=ORIENTED_EDGE('',*,*,#579,.T.);
#757=ORIENTED_EDGE('',*,*,#578,.F.);
#758=ORIENTED_EDGE('',*,*,#579,.F.);
#759=ORIENTED_EDGE('',*,*,#580,.F.);
#760=ORIENTED_EDGE('',*,*,#581,.T.);
#761=ORIENTED_EDGE('',*,*,#582,.T.);
#762=ORIENTED_EDGE('',*,*,#581,.F.);
#763=ORIENTED_EDGE('',*,*,#582,.F.);
#764=ORIENTED_EDGE('',*,*,#583,.F.);
#765=ORIENTED_EDGE('',*,*,#584,.T.);
#766=ORIENTED_EDGE('',*,*,#585,.T.);
#767=ORIENTED_EDGE('',*,*,#584,.F.);
#768=ORIENTED_EDGE('',*,*,#585,.F.);
#769=ORIENTED_EDGE('',*,*,#586,.F.);
#770=ORIENTED_EDGE('',*,*,#587,.T.);
#771=ORIENTED_EDGE('',*,*,#588,.T.);
#772=ORIENTED_EDGE('',*,*,#587,.F.);
#773=ORIENTED_EDGE('',*,*,#588,.F.);
#774=ORIENTED_EDGE('',*,*,#589,.F.);
#775=ORIENTED_EDGE('',*,*,#590,.T.);
#776=ORIENTED_EDGE('',*,*,#591,.F.);
#777=ORIENTED_EDGE('',*,*,#592,.F.);
#778=ORIENTED_EDGE('',*,*,#593,.F.);
#779=ORIENTED_EDGE('',*,*,#546,.F.);
#780=ORIENTED_EDGE('',*,*,#594,.F.);
#781=ORIENTED_EDGE('',*,*,#595,.F.);
#782=ORIENTED_EDGE('',*,*,#596,.F.);
#783=ORIENTED_EDGE('',*,*,#595,.T.);
#784=ORIENTED_EDGE('',*,*,#597,.F.);
#785=ORIENTED_EDGE('',*,*,#590,.F.);
#786=ORIENTED_EDGE('',*,*,#598,.F.);
#787=ORIENTED_EDGE('',*,*,#591,.T.);
#788=ORIENTED_EDGE('',*,*,#597,.T.);
#789=ORIENTED_EDGE('',*,*,#594,.T.);
#790=ORIENTED_EDGE('',*,*,#545,.F.);
#791=ORIENTED_EDGE('',*,*,#599,.F.);
#792=ORIENTED_EDGE('',*,*,#577,.T.);
#793=ORIENTED_EDGE('',*,*,#592,.T.);
#794=ORIENTED_EDGE('',*,*,#598,.T.);
#795=ORIENTED_EDGE('',*,*,#600,.F.);
#796=ORIENTED_EDGE('',*,*,#572,.F.);
#797=ORIENTED_EDGE('',*,*,#601,.F.);
#798=ORIENTED_EDGE('',*,*,#602,.T.);
#799=ORIENTED_EDGE('',*,*,#603,.T.);
#800=ORIENTED_EDGE('',*,*,#604,.F.);
#801=ORIENTED_EDGE('',*,*,#599,.T.);
#802=ORIENTED_EDGE('',*,*,#544,.T.);
#803=ORIENTED_EDGE('',*,*,#573,.T.);
#804=ORIENTED_EDGE('',*,*,#600,.T.);
#805=ORIENTED_EDGE('',*,*,#605,.F.);
#806=ORIENTED_EDGE('',*,*,#606,.T.);
#807=ORIENTED_EDGE('',*,*,#607,.F.);
#808=ORIENTED_EDGE('',*,*,#548,.F.);
#809=ORIENTED_EDGE('',*,*,#608,.F.);
#810=ORIENTED_EDGE('',*,*,#609,.F.);
#811=ORIENTED_EDGE('',*,*,#610,.F.);
#812=ORIENTED_EDGE('',*,*,#611,.F.);
#813=ORIENTED_EDGE('',*,*,#612,.F.);
#814=ORIENTED_EDGE('',*,*,#611,.T.);
#815=ORIENTED_EDGE('',*,*,#613,.F.);
#816=ORIENTED_EDGE('',*,*,#606,.F.);
#817=ORIENTED_EDGE('',*,*,#614,.F.);
#818=ORIENTED_EDGE('',*,*,#615,.F.);
#819=ORIENTED_EDGE('',*,*,#549,.F.);
#820=ORIENTED_EDGE('',*,*,#607,.T.);
#821=ORIENTED_EDGE('',*,*,#613,.T.);
#822=ORIENTED_EDGE('',*,*,#610,.T.);
#823=ORIENTED_EDGE('',*,*,#580,.T.);
#824=ORIENTED_EDGE('',*,*,#615,.T.);
#825=ORIENTED_EDGE('',*,*,#616,.T.);
#826=ORIENTED_EDGE('',*,*,#524,.T.);
#827=ORIENTED_EDGE('',*,*,#550,.T.);
#828=ORIENTED_EDGE('',*,*,#614,.T.);
#829=ORIENTED_EDGE('',*,*,#609,.T.);
#830=ORIENTED_EDGE('',*,*,#617,.F.);
#831=ORIENTED_EDGE('',*,*,#618,.T.);
#832=ORIENTED_EDGE('',*,*,#619,.T.);
#833=ORIENTED_EDGE('',*,*,#620,.F.);
#834=ORIENTED_EDGE('',*,*,#525,.F.);
#835=ORIENTED_EDGE('',*,*,#616,.F.);
#836=ORIENTED_EDGE('',*,*,#621,.F.);
#837=ORIENTED_EDGE('',*,*,#622,.T.);
#838=ORIENTED_EDGE('',*,*,#623,.F.);
#839=ORIENTED_EDGE('',*,*,#624,.F.);
#840=ORIENTED_EDGE('',*,*,#625,.F.);
#841=ORIENTED_EDGE('',*,*,#603,.F.);
#842=ORIENTED_EDGE('',*,*,#626,.F.);
#843=ORIENTED_EDGE('',*,*,#627,.F.);
#844=ORIENTED_EDGE('',*,*,#628,.F.);
#845=ORIENTED_EDGE('',*,*,#627,.T.);
#846=ORIENTED_EDGE('',*,*,#629,.F.);
#847=ORIENTED_EDGE('',*,*,#622,.F.);
#848=ORIENTED_EDGE('',*,*,#602,.F.);
#849=ORIENTED_EDGE('',*,*,#630,.F.);
#850=ORIENTED_EDGE('',*,*,#631,.F.);
#851=ORIENTED_EDGE('',*,*,#623,.T.);
#852=ORIENTED_EDGE('',*,*,#629,.T.);
#853=ORIENTED_EDGE('',*,*,#626,.T.);
#854=ORIENTED_EDGE('',*,*,#583,.T.);
#855=ORIENTED_EDGE('',*,*,#565,.T.);
#856=ORIENTED_EDGE('',*,*,#527,.F.);
#857=ORIENTED_EDGE('',*,*,#632,.F.);
#858=ORIENTED_EDGE('',*,*,#633,.T.);
#859=ORIENTED_EDGE('',*,*,#634,.T.);
#860=ORIENTED_EDGE('',*,*,#635,.F.);
#861=ORIENTED_EDGE('',*,*,#624,.T.);
#862=ORIENTED_EDGE('',*,*,#631,.T.);
#863=ORIENTED_EDGE('',*,*,#636,.F.);
#864=ORIENTED_EDGE('',*,*,#570,.F.);
#865=ORIENTED_EDGE('',*,*,#561,.T.);
#866=ORIENTED_EDGE('',*,*,#553,.F.);
#867=ORIENTED_EDGE('',*,*,#557,.T.);
#868=ORIENTED_EDGE('',*,*,#558,.F.);
#869=ORIENTED_EDGE('',*,*,#630,.T.);
#870=ORIENTED_EDGE('',*,*,#601,.T.);
#871=ORIENTED_EDGE('',*,*,#571,.T.);
#872=ORIENTED_EDGE('',*,*,#636,.T.);
#873=ORIENTED_EDGE('',*,*,#637,.F.);
#874=ORIENTED_EDGE('',*,*,#638,.T.);
#875=ORIENTED_EDGE('',*,*,#639,.F.);
#876=ORIENTED_EDGE('',*,*,#640,.F.);
#877=ORIENTED_EDGE('',*,*,#641,.F.);
#878=ORIENTED_EDGE('',*,*,#640,.T.);
#879=ORIENTED_EDGE('',*,*,#642,.F.);
#880=ORIENTED_EDGE('',*,*,#618,.F.);
#881=ORIENTED_EDGE('',*,*,#643,.F.);
#882=ORIENTED_EDGE('',*,*,#634,.F.);
#883=ORIENTED_EDGE('',*,*,#644,.F.);
#884=ORIENTED_EDGE('',*,*,#638,.F.);
#885=ORIENTED_EDGE('',*,*,#619,.F.);
#886=ORIENTED_EDGE('',*,*,#642,.T.);
#887=ORIENTED_EDGE('',*,*,#639,.T.);
#888=ORIENTED_EDGE('',*,*,#644,.T.);
#889=ORIENTED_EDGE('',*,*,#633,.F.);
#890=ORIENTED_EDGE('',*,*,#645,.F.);
#891=ORIENTED_EDGE('',*,*,#586,.T.);
#892=ORIENTED_EDGE('',*,*,#589,.T.);
#893=ORIENTED_EDGE('',*,*,#604,.T.);
#894=ORIENTED_EDGE('',*,*,#625,.T.);
#895=ORIENTED_EDGE('',*,*,#628,.T.);
#896=ORIENTED_EDGE('',*,*,#621,.T.);
#897=ORIENTED_EDGE('',*,*,#635,.T.);
#898=ORIENTED_EDGE('',*,*,#643,.T.);
#899=ORIENTED_EDGE('',*,*,#637,.T.);
#900=ORIENTED_EDGE('',*,*,#641,.T.);
#901=ORIENTED_EDGE('',*,*,#617,.T.);
#902=ORIENTED_EDGE('',*,*,#608,.T.);
#903=ORIENTED_EDGE('',*,*,#612,.T.);
#904=ORIENTED_EDGE('',*,*,#605,.T.);
#905=ORIENTED_EDGE('',*,*,#547,.T.);
#906=ORIENTED_EDGE('',*,*,#593,.T.);
#907=ORIENTED_EDGE('',*,*,#596,.T.);
#908=ORIENTED_EDGE('',*,*,#645,.T.);
#909=ORIENTED_EDGE('',*,*,#632,.T.);
#910=ORIENTED_EDGE('',*,*,#526,.T.);
#911=ORIENTED_EDGE('',*,*,#620,.T.);
#912=ORIENTED_EDGE('',*,*,#568,.T.);
#913=ORIENTED_EDGE('',*,*,#646,.T.);
#914=ORIENTED_EDGE('',*,*,#647,.T.);
#915=ORIENTED_EDGE('',*,*,#574,.T.);
#916=ORIENTED_EDGE('',*,*,#647,.F.);
#917=ORIENTED_EDGE('',*,*,#648,.F.);
#918=ORIENTED_EDGE('',*,*,#649,.F.);
#919=ORIENTED_EDGE('',*,*,#518,.F.);
#920=ORIENTED_EDGE('',*,*,#650,.F.);
#921=ORIENTED_EDGE('',*,*,#651,.F.);
#922=ORIENTED_EDGE('',*,*,#652,.F.);
#923=ORIENTED_EDGE('',*,*,#575,.F.);
#924=ORIENTED_EDGE('',*,*,#566,.T.);
#925=ORIENTED_EDGE('',*,*,#519,.T.);
#926=ORIENTED_EDGE('',*,*,#649,.T.);
#927=ORIENTED_EDGE('',*,*,#653,.T.);
#928=ORIENTED_EDGE('',*,*,#532,.T.);
#929=ORIENTED_EDGE('',*,*,#654,.T.);
#930=ORIENTED_EDGE('',*,*,#650,.T.);
#931=ORIENTED_EDGE('',*,*,#517,.T.);
#932=ORIENTED_EDGE('',*,*,#530,.T.);
#933=ORIENTED_EDGE('',*,*,#576,.T.);
#934=ORIENTED_EDGE('',*,*,#652,.T.);
#935=ORIENTED_EDGE('',*,*,#655,.T.);
#936=ORIENTED_EDGE('',*,*,#646,.F.);
#937=ORIENTED_EDGE('',*,*,#567,.F.);
#938=ORIENTED_EDGE('',*,*,#653,.F.);
#939=ORIENTED_EDGE('',*,*,#648,.T.);
#940=ORIENTED_EDGE('',*,*,#654,.F.);
#941=ORIENTED_EDGE('',*,*,#531,.F.);
#942=ORIENTED_EDGE('',*,*,#655,.F.);
#943=ORIENTED_EDGE('',*,*,#651,.T.);
#944=CYLINDRICAL_SURFACE('',#1031,3.4);
#945=CYLINDRICAL_SURFACE('',#1045,0.8);
#946=CYLINDRICAL_SURFACE('',#1049,0.8);
#947=CYLINDRICAL_SURFACE('',#1060,1.65);
#948=CYLINDRICAL_SURFACE('',#1064,1.65);
#949=CYLINDRICAL_SURFACE('',#1068,1.65);
#950=CYLINDRICAL_SURFACE('',#1072,1.65);
#951=CYLINDRICAL_SURFACE('',#1078,3.);
#952=CYLINDRICAL_SURFACE('',#1084,1.);
#953=CYLINDRICAL_SURFACE('',#1087,3.);
#954=CYLINDRICAL_SURFACE('',#1092,1.);
#955=CYLINDRICAL_SURFACE('',#1096,3.);
#956=CYLINDRICAL_SURFACE('',#1102,1.);
#957=CYLINDRICAL_SURFACE('',#1103,3.);
#958=CYLINDRICAL_SURFACE('',#1111,1.);
#959=CYLINDRICAL_SURFACE('',#1112,2.);
#960=CYLINDRICAL_SURFACE('',#1118,2.);
#961=CYLINDRICAL_SURFACE('',#1119,2.);
#962=CYLINDRICAL_SURFACE('',#1120,2.);
#963=ADVANCED_FACE('',(#54),#944,.F.);
#964=ADVANCED_FACE('',(#55),#19,.T.);
#965=ADVANCED_FACE('',(#56),#20,.T.);
#966=ADVANCED_FACE('',(#57),#21,.F.);
#967=ADVANCED_FACE('',(#58),#22,.F.);
#968=ADVANCED_FACE('',(#59),#23,.F.);
#969=ADVANCED_FACE('',(#60),#24,.F.);
#970=ADVANCED_FACE('',(#61),#25,.T.);
#971=ADVANCED_FACE('',(#62),#945,.F.);
#972=ADVANCED_FACE('',(#63),#26,.F.);
#973=ADVANCED_FACE('',(#64),#946,.F.);
#974=ADVANCED_FACE('',(#65),#27,.F.);
#975=ADVANCED_FACE('',(#66),#28,.F.);
#976=ADVANCED_FACE('',(#67),#29,.T.);
#977=ADVANCED_FACE('',(#68),#30,.T.);
#978=ADVANCED_FACE('',(#69),#947,.F.);
#979=ADVANCED_FACE('',(#70),#31,.F.);
#980=ADVANCED_FACE('',(#71),#948,.F.);
#981=ADVANCED_FACE('',(#72),#32,.F.);
#982=ADVANCED_FACE('',(#73),#949,.F.);
#983=ADVANCED_FACE('',(#74),#33,.F.);
#984=ADVANCED_FACE('',(#75),#950,.F.);
#985=ADVANCED_FACE('',(#76),#34,.F.);
#986=ADVANCED_FACE('',(#77),#35,.T.);
#987=ADVANCED_FACE('',(#78),#36,.T.);
#988=ADVANCED_FACE('',(#79),#951,.T.);
#989=ADVANCED_FACE('',(#80,#15),#37,.T.);
#990=ADVANCED_FACE('',(#81),#38,.F.);
#991=ADVANCED_FACE('',(#82),#952,.F.);
#992=ADVANCED_FACE('',(#83),#39,.T.);
#993=ADVANCED_FACE('',(#84),#40,.T.);
#994=ADVANCED_FACE('',(#85),#953,.T.);
#995=ADVANCED_FACE('',(#86,#16),#41,.T.);
#996=ADVANCED_FACE('',(#87),#954,.F.);
#997=ADVANCED_FACE('',(#88),#42,.F.);
#998=ADVANCED_FACE('',(#89),#43,.T.);
#999=ADVANCED_FACE('',(#90),#44,.T.);
#1000=ADVANCED_FACE('',(#91),#955,.T.);
#1001=ADVANCED_FACE('',(#92,#17),#45,.T.);
#1002=ADVANCED_FACE('',(#93),#46,.F.);
#1003=ADVANCED_FACE('',(#94),#956,.F.);
#1004=ADVANCED_FACE('',(#95),#957,.T.);
#1005=ADVANCED_FACE('',(#96),#47,.T.);
#1006=ADVANCED_FACE('',(#97),#48,.T.);
#1007=ADVANCED_FACE('',(#98,#18),#49,.T.);
#1008=ADVANCED_FACE('',(#99),#50,.T.);
#1009=ADVANCED_FACE('',(#100),#958,.F.);
#1010=ADVANCED_FACE('',(#101),#959,.T.);
#1011=ADVANCED_FACE('',(#102),#51,.F.);
#1012=ADVANCED_FACE('',(#103),#960,.T.);
#1013=ADVANCED_FACE('',(#104),#961,.T.);
#1014=ADVANCED_FACE('',(#105),#962,.T.);
#1015=ADVANCED_FACE('',(#106),#52,.T.);
#1016=ADVANCED_FACE('',(#107),#53,.T.);
#1017=CLOSED_SHELL('',(#963,#964,#965,#966,#967,#968,#969,#970,#971,#972,
#973,#974,#975,#976,#977,#978,#979,#980,#981,#982,#983,#984,#985,#986,#987,
#988,#989,#990,#991,#992,#993,#994,#995,#996,#997,#998,#999,#1000,#1001,
#1002,#1003,#1004,#1005,#1006,#1007,#1008,#1009,#1010,#1011,#1012,#1013,
#1014,#1015,#1016));
#1018=DERIVED_UNIT_ELEMENT(#1020,1.);
#1019=DERIVED_UNIT_ELEMENT(#1715,-3.);
#1020=(
MASS_UNIT()
NAMED_UNIT(*)
SI_UNIT(.KILO.,.GRAM.)
);
#1021=DERIVED_UNIT((#1018,#1019));
#1022=MEASURE_REPRESENTATION_ITEM('density measure',
POSITIVE_RATIO_MEASURE(7850.),#1021);
#1023=PROPERTY_DEFINITION_REPRESENTATION(#1028,#1025);
#1024=PROPERTY_DEFINITION_REPRESENTATION(#1029,#1026);
#1025=REPRESENTATION('material name',(#1027),#1712);
#1026=REPRESENTATION('density',(#1022),#1712);
#1027=DESCRIPTIVE_REPRESENTATION_ITEM('Steel','Steel');
#1028=PROPERTY_DEFINITION('material property','material name',#1722);
#1029=PROPERTY_DEFINITION('material property','density of part',#1722);
#1030=AXIS2_PLACEMENT_3D('placement',#1415,#1123,#1124);
#1031=AXIS2_PLACEMENT_3D('',#1416,#1125,#1126);
#1032=AXIS2_PLACEMENT_3D('',#1421,#1128,#1129);
#1033=AXIS2_PLACEMENT_3D('',#1424,#1131,#1132);
#1034=AXIS2_PLACEMENT_3D('',#1425,#1133,#1134);
#1035=AXIS2_PLACEMENT_3D('',#1435,#1140,#1141);
#1036=AXIS2_PLACEMENT_3D('',#1443,#1145,#1146);
#1037=AXIS2_PLACEMENT_3D('',#1447,#1148,#1149);
#1038=AXIS2_PLACEMENT_3D('',#1455,#1153,#1154);
#1039=AXIS2_PLACEMENT_3D('',#1458,#1156,#1157);
#1040=AXIS2_PLACEMENT_3D('',#1459,#1158,#1159);
#1041=AXIS2_PLACEMENT_3D('',#1467,#1164,#1165);
#1042=AXIS2_PLACEMENT_3D('',#1473,#1169,#1170);
#1043=AXIS2_PLACEMENT_3D('',#1477,#1173,#1174);
#1044=AXIS2_PLACEMENT_3D('',#1479,#1176,#1177);
#1045=AXIS2_PLACEMENT_3D('',#1495,#1186,#1187);
#1046=AXIS2_PLACEMENT_3D('',#1498,#1188,#1189);
#1047=AXIS2_PLACEMENT_3D('',#1502,#1191,#1192);
#1048=AXIS2_PLACEMENT_3D('',#1504,#1194,#1195);
#1049=AXIS2_PLACEMENT_3D('',#1510,#1199,#1200);
#1050=AXIS2_PLACEMENT_3D('',#1512,#1201,#1202);
#1051=AXIS2_PLACEMENT_3D('',#1514,#1203,#1204);
#1052=AXIS2_PLACEMENT_3D('',#1516,#1206,#1207);
#1053=AXIS2_PLACEMENT_3D('',#1522,#1211,#1212);
#1054=AXIS2_PLACEMENT_3D('',#1525,#1215,#1216);
#1055=AXIS2_PLACEMENT_3D('',#1527,#1217,#1218);
#1056=AXIS2_PLACEMENT_3D('',#1531,#1220,#1221);
#1057=AXIS2_PLACEMENT_3D('',#1536,#1224,#1225);
#1058=AXIS2_PLACEMENT_3D('',#1539,#1227,#1228);
#1059=AXIS2_PLACEMENT_3D('',#1540,#1229,#1230);
#1060=AXIS2_PLACEMENT_3D('',#1546,#1234,#1235);
#1061=AXIS2_PLACEMENT_3D('',#1548,#1236,#1237);
#1062=AXIS2_PLACEMENT_3D('',#1551,#1239,#1240);
#1063=AXIS2_PLACEMENT_3D('',#1552,#1241,#1242);
#1064=AXIS2_PLACEMENT_3D('',#1553,#1243,#1244);
#1065=AXIS2_PLACEMENT_3D('',#1555,#1245,#1246);
#1066=AXIS2_PLACEMENT_3D('',#1558,#1248,#1249);
#1067=AXIS2_PLACEMENT_3D('',#1559,#1250,#1251);
#1068=AXIS2_PLACEMENT_3D('',#1560,#1252,#1253);
#1069=AXIS2_PLACEMENT_3D('',#1562,#1254,#1255);
#1070=AXIS2_PLACEMENT_3D('',#1565,#1257,#1258);
#1071=AXIS2_PLACEMENT_3D('',#1566,#1259,#1260);
#1072=AXIS2_PLACEMENT_3D('',#1567,#1261,#1262);
#1073=AXIS2_PLACEMENT_3D('',#1569,#1263,#1264);
#1074=AXIS2_PLACEMENT_3D('',#1572,#1266,#1267);
#1075=AXIS2_PLACEMENT_3D('',#1573,#1268,#1269);
#1076=AXIS2_PLACEMENT_3D('',#1574,#1270,#1271);
#1077=AXIS2_PLACEMENT_3D('',#1583,#1276,#1277);
#1078=AXIS2_PLACEMENT_3D('',#1589,#1281,#1282);
#1079=AXIS2_PLACEMENT_3D('',#1590,#1283,#1284);
#1080=AXIS2_PLACEMENT_3D('',#1591,#1285,#1286);
#1081=AXIS2_PLACEMENT_3D('',#1592,#1287,#1288);
#1082=AXIS2_PLACEMENT_3D('',#1595,#1290,#1291);
#1083=AXIS2_PLACEMENT_3D('',#1596,#1292,#1293);
#1084=AXIS2_PLACEMENT_3D('',#1605,#1299,#1300);
#1085=AXIS2_PLACEMENT_3D('',#1606,#1301,#1302);
#1086=AXIS2_PLACEMENT_3D('',#1612,#1306,#1307);
#1087=AXIS2_PLACEMENT_3D('',#1621,#1312,#1313);
#1088=AXIS2_PLACEMENT_3D('',#1622,#1314,#1315);
#1089=AXIS2_PLACEMENT_3D('',#1623,#1316,#1317);
#1090=AXIS2_PLACEMENT_3D('',#1624,#1318,#1319);
#1091=AXIS2_PLACEMENT_3D('',#1627,#1321,#1322);
#1092=AXIS2_PLACEMENT_3D('',#1628,#1323,#1324);
#1093=AXIS2_PLACEMENT_3D('',#1630,#1326,#1327);
#1094=AXIS2_PLACEMENT_3D('',#1638,#1332,#1333);
#1095=AXIS2_PLACEMENT_3D('',#1647,#1338,#1339);
#1096=AXIS2_PLACEMENT_3D('',#1653,#1343,#1344);
#1097=AXIS2_PLACEMENT_3D('',#1654,#1345,#1346);
#1098=AXIS2_PLACEMENT_3D('',#1655,#1347,#1348);
#1099=AXIS2_PLACEMENT_3D('',#1656,#1349,#1350);
#1100=AXIS2_PLACEMENT_3D('',#1658,#1351,#1352);
#1101=AXIS2_PLACEMENT_3D('',#1660,#1354,#1355);
#1102=AXIS2_PLACEMENT_3D('',#1669,#1361,#1362);
#1103=AXIS2_PLACEMENT_3D('',#1670,#1363,#1364);
#1104=AXIS2_PLACEMENT_3D('',#1673,#1365,#1366);
#1105=AXIS2_PLACEMENT_3D('',#1677,#1368,#1369);
#1106=AXIS2_PLACEMENT_3D('',#1679,#1371,#1372);
#1107=AXIS2_PLACEMENT_3D('',#1682,#1375,#1376);
#1108=AXIS2_PLACEMENT_3D('',#1685,#1379,#1380);
#1109=AXIS2_PLACEMENT_3D('',#1686,#1381,#1382);
#1110=AXIS2_PLACEMENT_3D('',#1687,#1383,#1384);
#1111=AXIS2_PLACEMENT_3D('',#1688,#1385,#1386);
#1112=AXIS2_PLACEMENT_3D('',#1689,#1387,#1388);
#1113=AXIS2_PLACEMENT_3D('',#1692,#1390,#1391);
#1114=AXIS2_PLACEMENT_3D('',#1693,#1392,#1393);
#1115=AXIS2_PLACEMENT_3D('',#1696,#1395,#1396);
#1116=AXIS2_PLACEMENT_3D('',#1698,#1397,#1398);
#1117=AXIS2_PLACEMENT_3D('',#1701,#1400,#1401);
#1118=AXIS2_PLACEMENT_3D('',#1702,#1402,#1403);
#1119=AXIS2_PLACEMENT_3D('',#1704,#1405,#1406);
#1120=AXIS2_PLACEMENT_3D('',#1706,#1408,#1409);
#1121=AXIS2_PLACEMENT_3D('',#1708,#1411,#1412);
#1122=AXIS2_PLACEMENT_3D('',#1709,#1413,#1414);
#1123=DIRECTION('axis',(0.,0.,1.));
#1124=DIRECTION('refdir',(1.,0.,0.));
#1125=DIRECTION('center_axis',(-1.,0.,0.));
#1126=DIRECTION('ref_axis',(0.,2.83276944882399E-16,-1.));
#1127=DIRECTION('',(1.,0.,0.));
#1128=DIRECTION('center_axis',(1.,0.,0.));
#1129=DIRECTION('ref_axis',(0.,1.,0.));
#1130=DIRECTION('',(-1.,0.,0.));
#1131=DIRECTION('center_axis',(-1.,0.,0.));
#1132=DIRECTION('ref_axis',(0.,1.,0.));
#1133=DIRECTION('center_axis',(1.,0.,0.));
#1134=DIRECTION('ref_axis',(0.,1.,0.));
#1135=DIRECTION('',(0.,1.,0.));
#1136=DIRECTION('',(0.,0.,1.));
#1137=DIRECTION('',(0.,1.,0.));
#1138=DIRECTION('',(0.,0.,-1.));
#1139=DIRECTION('',(0.,1.,0.));
#1140=DIRECTION('center_axis',(0.,0.,1.));
#1141=DIRECTION('ref_axis',(1.,0.,0.));
#1142=DIRECTION('',(0.,-1.,0.));
#1143=DIRECTION('',(-1.,0.,0.));
#1144=DIRECTION('',(0.,1.,0.));
#1145=DIRECTION('center_axis',(0.,0.,1.));
#1146=DIRECTION('ref_axis',(0.707106781186547,-0.707106781186548,0.));
#1147=DIRECTION('',(-1.,1.89954734240933E-33,0.));
#1148=DIRECTION('center_axis',(0.,0.,1.));
#1149=DIRECTION('ref_axis',(-0.707106781186549,-0.707106781186547,0.));
#1150=DIRECTION('',(2.43065641257148E-32,1.,0.));
#1151=DIRECTION('',(-1.,0.,0.));
#1152=DIRECTION('',(-2.43065641257148E-32,-1.,0.));
#1153=DIRECTION('center_axis',(0.,0.,-1.));
#1154=DIRECTION('ref_axis',(-0.707106781186548,-0.707106781186547,0.));
#1155=DIRECTION('',(1.,-1.89954734240933E-33,0.));
#1156=DIRECTION('center_axis',(0.,0.,-1.));
#1157=DIRECTION('ref_axis',(0.707106781186549,-0.707106781186546,0.));
#1158=DIRECTION('center_axis',(1.,0.,0.));
#1159=DIRECTION('ref_axis',(0.,-1.,0.));
#1160=DIRECTION('',(0.,-1.,0.));
#1161=DIRECTION('',(0.,0.,-1.));
#1162=DIRECTION('',(0.,-1.,0.));
#1163=DIRECTION('',(0.,0.,-1.));
#1164=DIRECTION('center_axis',(0.,1.,0.));
#1165=DIRECTION('ref_axis',(1.,0.,0.));
#1166=DIRECTION('',(1.,0.,0.));
#1167=DIRECTION('',(0.,0.,1.));
#1168=DIRECTION('',(1.,0.,0.));
#1169=DIRECTION('center_axis',(0.,-1.,0.));
#1170=DIRECTION('ref_axis',(-1.,0.,0.));
#1171=DIRECTION('',(-1.,0.,0.));
#1172=DIRECTION('',(0.,0.,-1.));
#1173=DIRECTION('center_axis',(0.,0.,-1.));
#1174=DIRECTION('ref_axis',(-1.,0.,0.));
#1175=DIRECTION('',(0.,1.,0.));
#1176=DIRECTION('center_axis',(-1.,0.,0.));
#1177=DIRECTION('ref_axis',(0.,-1.,0.));
#1178=DIRECTION('',(0.,1.,0.));
#1179=DIRECTION('',(0.,0.,1.));
#1180=DIRECTION('',(0.,-1.,0.));
#1181=DIRECTION('',(0.,0.,-1.));
#1182=DIRECTION('',(0.,1.,0.));
#1183=DIRECTION('',(0.,0.,1.));
#1184=DIRECTION('',(0.,-1.,0.));
#1185=DIRECTION('',(0.,0.,-1.));
#1186=DIRECTION('center_axis',(1.,0.,0.));
#1187=DIRECTION('ref_axis',(0.,0.707106781186548,-0.707106781186548));
#1188=DIRECTION('center_axis',(-1.,2.43065641257148E-32,0.));
#1189=DIRECTION('ref_axis',(0.,0.707106781186548,-0.707106781186548));
#1190=DIRECTION('',(1.,0.,0.));
#1191=DIRECTION('center_axis',(1.,-2.43065641257148E-32,0.));
#1192=DIRECTION('ref_axis',(0.,0.707106781186548,-0.707106781186548));
#1193=DIRECTION('',(-1.,0.,0.));
#1194=DIRECTION('center_axis',(0.,0.,-1.));
#1195=DIRECTION('ref_axis',(-1.,0.,0.));
#1196=DIRECTION('',(2.43065641257148E-32,1.,0.));
#1197=DIRECTION('',(-1.,0.,0.));
#1198=DIRECTION('',(-2.43065641257148E-32,-1.,0.));
#1199=DIRECTION('center_axis',(-1.,0.,0.));
#1200=DIRECTION('ref_axis',(0.,-0.707106781186548,-0.707106781186548));
#1201=DIRECTION('center_axis',(1.,-2.43065641257148E-32,0.));
#1202=DIRECTION('ref_axis',(0.,-0.707106781186548,-0.707106781186548));
#1203=DIRECTION('center_axis',(-1.,2.43065641257148E-32,0.));
#1204=DIRECTION('ref_axis',(0.,-0.707106781186548,-0.707106781186548));
#1205=DIRECTION('',(1.,0.,0.));
#1206=DIRECTION('center_axis',(0.,1.,0.));
#1207=DIRECTION('ref_axis',(1.,0.,0.));
#1208=DIRECTION('',(0.,0.,-1.));
#1209=DIRECTION('',(1.,0.,0.));
#1210=DIRECTION('',(0.,0.,1.));
#1211=DIRECTION('center_axis',(0.,-1.,0.));
#1212=DIRECTION('ref_axis',(-1.,0.,0.));
#1213=DIRECTION('',(0.,0.,-1.));
#1214=DIRECTION('',(0.,0.,1.));
#1215=DIRECTION('center_axis',(0.,0.,1.));
#1216=DIRECTION('ref_axis',(1.,0.,0.));
#1217=DIRECTION('center_axis',(0.,0.,-1.));
#1218=DIRECTION('ref_axis',(0.707106781186546,0.707106781186549,0.));
#1219=DIRECTION('',(-1.,0.,0.));
#1220=DIRECTION('center_axis',(0.,0.,-1.));
#1221=DIRECTION('ref_axis',(-0.707106781186548,0.707106781186548,0.));
#1222=DIRECTION('',(-2.43065641257148E-32,-1.,0.));
#1223=DIRECTION('',(2.43065641257148E-32,1.,0.));
#1224=DIRECTION('center_axis',(0.,0.,1.));
#1225=DIRECTION('ref_axis',(-0.707106781186545,0.70710678118655,0.));
#1226=DIRECTION('',(1.,0.,0.));
#1227=DIRECTION('center_axis',(0.,0.,1.));
#1228=DIRECTION('ref_axis',(0.707106781186548,0.707106781186548,0.));
#1229=DIRECTION('center_axis',(-1.,2.43065641257148E-32,0.));
#1230=DIRECTION('ref_axis',(-2.43065641257148E-32,-1.,0.));
#1231=DIRECTION('',(0.,0.,1.));
#1232=DIRECTION('',(-2.43065641257148E-32,-1.,0.));
#1233=DIRECTION('',(0.,0.,-1.));
#1234=DIRECTION('center_axis',(0.,0.,-1.));
#1235=DIRECTION('ref_axis',(1.,0.,0.));
#1236=DIRECTION('center_axis',(0.,0.,-1.));
#1237=DIRECTION('ref_axis',(1.,0.,0.));
#1238=DIRECTION('',(0.,0.,-1.));
#1239=DIRECTION('center_axis',(0.,0.,-1.));
#1240=DIRECTION('ref_axis',(1.,0.,0.));
#1241=DIRECTION('center_axis',(0.,0.,-1.));
#1242=DIRECTION('ref_axis',(1.,0.,0.));
#1243=DIRECTION('center_axis',(0.,0.,-1.));
#1244=DIRECTION('ref_axis',(1.,0.,0.));
#1245=DIRECTION('center_axis',(0.,0.,-1.));
#1246=DIRECTION('ref_axis',(1.,0.,0.));
#1247=DIRECTION('',(0.,0.,-1.));
#1248=DIRECTION('center_axis',(0.,0.,-1.));
#1249=DIRECTION('ref_axis',(1.,0.,0.));
#1250=DIRECTION('center_axis',(0.,0.,-1.));
#1251=DIRECTION('ref_axis',(1.,0.,0.));
#1252=DIRECTION('center_axis',(0.,0.,-1.));
#1253=DIRECTION('ref_axis',(1.,0.,0.));
#1254=DIRECTION('center_axis',(0.,0.,-1.));
#1255=DIRECTION('ref_axis',(1.,0.,0.));
#1256=DIRECTION('',(0.,0.,-1.));
#1257=DIRECTION('center_axis',(0.,0.,-1.));
#1258=DIRECTION('ref_axis',(1.,0.,0.));
#1259=DIRECTION('center_axis',(0.,0.,-1.));
#1260=DIRECTION('ref_axis',(1.,0.,0.));
#1261=DIRECTION('center_axis',(0.,0.,-1.));
#1262=DIRECTION('ref_axis',(1.,0.,0.));
#1263=DIRECTION('center_axis',(0.,0.,-1.));
#1264=DIRECTION('ref_axis',(1.,0.,0.));
#1265=DIRECTION('',(0.,0.,-1.));
#1266=DIRECTION('center_axis',(0.,0.,-1.));
#1267=DIRECTION('ref_axis',(1.,0.,0.));
#1268=DIRECTION('center_axis',(0.,0.,-1.));
#1269=DIRECTION('ref_axis',(1.,0.,0.));
#1270=DIRECTION('center_axis',(-1.,0.,0.));
#1271=DIRECTION('ref_axis',(0.,-1.,0.));
#1272=DIRECTION('',(0.,1.,0.));
#1273=DIRECTION('',(0.,0.,1.));
#1274=DIRECTION('',(0.,-1.,0.));
#1275=DIRECTION('',(0.,0.,1.));
#1276=DIRECTION('center_axis',(0.,-1.,0.));
#1277=DIRECTION('ref_axis',(1.,0.,0.));
#1278=DIRECTION('',(-1.,0.,0.));
#1279=DIRECTION('',(1.,0.,0.));
#1280=DIRECTION('',(0.,0.,1.));
#1281=DIRECTION('center_axis',(0.,0.,1.));
#1282=DIRECTION('ref_axis',(-1.,0.,0.));
#1283=DIRECTION('center_axis',(0.,0.,-1.));
#1284=DIRECTION('ref_axis',(-1.,0.,0.));
#1285=DIRECTION('center_axis',(0.,0.,1.));
#1286=DIRECTION('ref_axis',(-1.,0.,0.));
#1287=DIRECTION('center_axis',(0.,0.,1.));
#1288=DIRECTION('ref_axis',(-1.,0.,0.));
#1289=DIRECTION('',(1.,0.,0.));
#1290=DIRECTION('center_axis',(0.,0.,-1.));
#1291=DIRECTION('ref_axis',(0.707106781186548,0.707106781186548,0.));
#1292=DIRECTION('center_axis',(0.,1.,0.));
#1293=DIRECTION('ref_axis',(-1.,0.,0.));
#1294=DIRECTION('',(0.,0.,-1.));
#1295=DIRECTION('',(0.,0.,1.));
#1296=DIRECTION('',(1.,0.,0.));
#1297=DIRECTION('',(0.,0.,-1.));
#1298=DIRECTION('',(1.,0.,0.));
#1299=DIRECTION('center_axis',(0.,0.,1.));
#1300=DIRECTION('ref_axis',(0.707106781186548,0.707106781186548,0.));
#1301=DIRECTION('center_axis',(0.,1.,0.));
#1302=DIRECTION('ref_axis',(-1.,0.,0.));
#1303=DIRECTION('',(1.,0.,0.));
#1304=DIRECTION('',(0.,0.,1.));
#1305=DIRECTION('',(-1.,0.,0.));
#1306=DIRECTION('center_axis',(-1.,0.,0.));
#1307=DIRECTION('ref_axis',(0.,-1.,0.));
#1308=DIRECTION('',(0.,1.,0.));
#1309=DIRECTION('',(0.,0.,-1.));
#1310=DIRECTION('',(0.,-1.,0.));
#1311=DIRECTION('',(0.,0.,1.));
#1312=DIRECTION('center_axis',(0.,0.,1.));
#1313=DIRECTION('ref_axis',(-1.,0.,0.));
#1314=DIRECTION('center_axis',(0.,0.,-1.));
#1315=DIRECTION('ref_axis',(-1.,0.,0.));
#1316=DIRECTION('center_axis',(0.,0.,1.));
#1317=DIRECTION('ref_axis',(-1.,0.,0.));
#1318=DIRECTION('center_axis',(0.,0.,1.));
#1319=DIRECTION('ref_axis',(-1.,0.,0.));
#1320=DIRECTION('',(-1.,1.89954734240933E-33,0.));
#1321=DIRECTION('center_axis',(0.,0.,-1.));
#1322=DIRECTION('ref_axis',(0.707106781186547,-0.707106781186548,0.));
#1323=DIRECTION('center_axis',(0.,0.,-1.));
#1324=DIRECTION('ref_axis',(0.707106781186547,-0.707106781186548,0.));
#1325=DIRECTION('',(0.,0.,1.));
#1326=DIRECTION('center_axis',(-1.89954734240933E-33,-1.,0.));
#1327=DIRECTION('ref_axis',(1.,-1.89954734240933E-33,0.));
#1328=DIRECTION('',(-1.,1.89954734240933E-33,0.));
#1329=DIRECTION('',(0.,0.,1.));
#1330=DIRECTION('',(-1.,1.89954734240933E-33,0.));
#1331=DIRECTION('',(0.,0.,-1.));
#1332=DIRECTION('center_axis',(0.,-1.,0.));
#1333=DIRECTION('ref_axis',(1.,0.,0.));
#1334=DIRECTION('',(-1.,0.,0.));
#1335=DIRECTION('',(0.,0.,1.));
#1336=DIRECTION('',(1.,0.,0.));
#1337=DIRECTION('',(0.,0.,1.));
#1338=DIRECTION('center_axis',(1.,0.,0.));
#1339=DIRECTION('ref_axis',(0.,1.,0.));
#1340=DIRECTION('',(0.,-1.,0.));
#1341=DIRECTION('',(0.,1.,0.));
#1342=DIRECTION('',(0.,0.,1.));
#1343=DIRECTION('center_axis',(0.,0.,1.));
#1344=DIRECTION('ref_axis',(-1.,0.,0.));
#1345=DIRECTION('center_axis',(0.,0.,-1.));
#1346=DIRECTION('ref_axis',(-1.,0.,0.));
#1347=DIRECTION('center_axis',(0.,0.,1.));
#1348=DIRECTION('ref_axis',(-1.,0.,0.));
#1349=DIRECTION('center_axis',(0.,0.,1.));
#1350=DIRECTION('ref_axis',(-1.,0.,0.));
#1351=DIRECTION('center_axis',(0.,0.,-1.));
#1352=DIRECTION('ref_axis',(-0.707106781186545,0.70710678118655,0.));
#1353=DIRECTION('',(2.43065641257148E-32,1.,0.));
#1354=DIRECTION('center_axis',(-1.,2.43065641257148E-32,0.));
#1355=DIRECTION('ref_axis',(-2.43065641257148E-32,-1.,0.));
#1356=DIRECTION('',(0.,0.,1.));
#1357=DIRECTION('',(2.43065641257148E-32,1.,0.));
#1358=DIRECTION('',(0.,0.,-1.));
#1359=DIRECTION('',(2.43065641257148E-32,1.,0.));
#1360=DIRECTION('',(0.,0.,-1.));
#1361=DIRECTION('center_axis',(0.,0.,1.));
#1362=DIRECTION('ref_axis',(-0.707106781186545,0.70710678118655,0.));
#1363=DIRECTION('center_axis',(0.,0.,1.));
#1364=DIRECTION('ref_axis',(-1.,0.,0.));
#1365=DIRECTION('center_axis',(0.,0.,-1.));
#1366=DIRECTION('ref_axis',(-1.,0.,0.));
#1367=DIRECTION('',(0.,0.,1.));
#1368=DIRECTION('center_axis',(0.,0.,1.));
#1369=DIRECTION('ref_axis',(-1.,0.,0.));
#1370=DIRECTION('',(0.,0.,1.));
#1371=DIRECTION('center_axis',(1.,0.,0.));
#1372=DIRECTION('ref_axis',(0.,1.,0.));
#1373=DIRECTION('',(0.,-1.,0.));
#1374=DIRECTION('',(0.,1.,0.));
#1375=DIRECTION('center_axis',(0.,1.,0.));
#1376=DIRECTION('ref_axis',(-1.,0.,0.));
#1377=DIRECTION('',(1.,0.,0.));
#1378=DIRECTION('',(-1.,0.,0.));
#1379=DIRECTION('center_axis',(0.,0.,1.));
#1380=DIRECTION('ref_axis',(-1.,0.,0.));
#1381=DIRECTION('center_axis',(0.,0.,-1.));
#1382=DIRECTION('ref_axis',(-0.707106781186549,-0.707106781186547,0.));
#1383=DIRECTION('center_axis',(0.,0.,1.));
#1384=DIRECTION('ref_axis',(1.,0.,0.));
#1385=DIRECTION('center_axis',(0.,0.,1.));
#1386=DIRECTION('ref_axis',(-0.707106781186549,-0.707106781186547,0.));
#1387=DIRECTION('center_axis',(0.,0.,1.));
#1388=DIRECTION('ref_axis',(-0.707106781186548,0.707106781186548,0.));
#1389=DIRECTION('',(0.,0.,-1.));
#1390=DIRECTION('center_axis',(0.,0.,1.));
#1391=DIRECTION('ref_axis',(-0.707106781186548,0.707106781186548,0.));
#1392=DIRECTION('center_axis',(0.,0.,1.));
#1393=DIRECTION('ref_axis',(1.,0.,0.));
#1394=DIRECTION('',(-1.,0.,0.));
#1395=DIRECTION('center_axis',(0.,0.,1.));
#1396=DIRECTION('ref_axis',(0.707106781186546,0.707106781186549,0.));
#1397=DIRECTION('center_axis',(0.,0.,1.));
#1398=DIRECTION('ref_axis',(0.707106781186549,-0.707106781186546,0.));
#1399=DIRECTION('',(1.,-1.89954734240933E-33,0.));
#1400=DIRECTION('center_axis',(0.,0.,1.));
#1401=DIRECTION('ref_axis',(-0.707106781186548,-0.707106781186547,0.));
#1402=DIRECTION('center_axis',(0.,0.,1.));
#1403=DIRECTION('ref_axis',(0.707106781186546,0.707106781186549,0.));
#1404=DIRECTION('',(0.,0.,1.));
#1405=DIRECTION('center_axis',(0.,0.,1.));
#1406=DIRECTION('ref_axis',(0.707106781186549,-0.707106781186546,0.));
#1407=DIRECTION('',(0.,0.,-1.));
#1408=DIRECTION('center_axis',(0.,0.,1.));
#1409=DIRECTION('ref_axis',(-0.707106781186548,-0.707106781186547,0.));
#1410=DIRECTION('',(0.,0.,1.));
#1411=DIRECTION('center_axis',(0.,1.,0.));
#1412=DIRECTION('ref_axis',(-1.,0.,0.));
#1413=DIRECTION('center_axis',(-1.89954734240933E-33,-1.,0.));
#1414=DIRECTION('ref_axis',(1.,-1.89954734240933E-33,0.));
#1415=CARTESIAN_POINT('',(0.,0.,0.));
#1416=CARTESIAN_POINT('Origin',(71.9,14.5,6.75000010430813));
#1417=CARTESIAN_POINT('',(71.,17.8907963743277,7.));
#1418=CARTESIAN_POINT('',(73.,17.8907963743277,7.));
#1419=CARTESIAN_POINT('',(71.9,17.8907963743277,7.));
#1420=CARTESIAN_POINT('',(71.,11.1092036256723,7.));
#1421=CARTESIAN_POINT('Origin',(71.,14.5,6.75000010430813));
#1422=CARTESIAN_POINT('',(73.,11.1092036256723,7.));
#1423=CARTESIAN_POINT('',(71.9,11.1092036256723,7.));
#1424=CARTESIAN_POINT('Origin',(73.,14.5,6.75000010430813));
#1425=CARTESIAN_POINT('Origin',(73.,-1.38666955995881E-31,0.));
#1426=CARTESIAN_POINT('',(73.,2.,7.));
#1427=CARTESIAN_POINT('',(73.,-1.38666955995881E-31,7.));
#1428=CARTESIAN_POINT('',(73.,2.,0.));
#1429=CARTESIAN_POINT('',(73.,2.,0.));
#1430=CARTESIAN_POINT('',(73.,27.,0.));
#1431=CARTESIAN_POINT('',(73.,-1.38666955995881E-31,0.));
#1432=CARTESIAN_POINT('',(73.,27.,7.));
#1433=CARTESIAN_POINT('',(73.,27.,0.));
#1434=CARTESIAN_POINT('',(73.,-1.38666955995881E-31,7.));
#1435=CARTESIAN_POINT('Origin',(36.5,14.5,7.));
#1436=CARTESIAN_POINT('',(71.,9.5,7.));
#1437=CARTESIAN_POINT('',(71.,17.,7.));
#1438=CARTESIAN_POINT('',(69.,9.5,7.));
#1439=CARTESIAN_POINT('',(53.75,9.5,7.));
#1440=CARTESIAN_POINT('',(69.,3.,7.));
#1441=CARTESIAN_POINT('',(69.,20.75,7.));
#1442=CARTESIAN_POINT('',(68.,2.,7.));
#1443=CARTESIAN_POINT('Origin',(68.,3.,7.));
#1444=CARTESIAN_POINT('',(3.,2.,7.));
#1445=CARTESIAN_POINT('',(18.25,2.,7.));
#1446=CARTESIAN_POINT('',(2.,3.,7.));
#1447=CARTESIAN_POINT('Origin',(3.,3.,7.));
#1448=CARTESIAN_POINT('',(2.,8.25,7.));
#1449=CARTESIAN_POINT('',(2.,21.75,7.));
#1450=CARTESIAN_POINT('',(1.69617406539954E-16,8.25,7.));
#1451=CARTESIAN_POINT('',(19.25,8.25,7.));
#1452=CARTESIAN_POINT('',(4.86131282514295E-32,2.,7.));
#1453=CARTESIAN_POINT('',(7.04890359645728E-31,29.,7.));
#1454=CARTESIAN_POINT('',(2.,-3.79909468481866E-33,7.));
#1455=CARTESIAN_POINT('Origin',(2.,2.,7.));
#1456=CARTESIAN_POINT('',(71.,-1.34867861311062E-31,7.));
#1457=CARTESIAN_POINT('',(0.,0.,7.));
#1458=CARTESIAN_POINT('Origin',(71.,2.,7.));
#1459=CARTESIAN_POINT('Origin',(71.,19.5,7.));
#1460=CARTESIAN_POINT('',(71.,19.5,7.));
#1461=CARTESIAN_POINT('',(71.,17.,7.));
#1462=CARTESIAN_POINT('',(71.,19.5,2.5));
#1463=CARTESIAN_POINT('',(71.,19.5,7.));
#1464=CARTESIAN_POINT('',(71.,9.5,2.5));
#1465=CARTESIAN_POINT('',(71.,19.5,2.5));
#1466=CARTESIAN_POINT('',(71.,9.5,7.));
#1467=CARTESIAN_POINT('Origin',(69.,19.5,7.));
#1468=CARTESIAN_POINT('',(69.,19.5,7.));
#1469=CARTESIAN_POINT('',(52.75,19.5,7.));
#1470=CARTESIAN_POINT('',(69.,19.5,2.5));
#1471=CARTESIAN_POINT('',(69.,19.5,4.5));
#1472=CARTESIAN_POINT('',(69.,19.5,2.5));
#1473=CARTESIAN_POINT('Origin',(71.,9.5,7.));
#1474=CARTESIAN_POINT('',(69.,9.5,2.5));
#1475=CARTESIAN_POINT('',(71.,9.5,2.5));
#1476=CARTESIAN_POINT('',(69.,9.5,4.5));
#1477=CARTESIAN_POINT('Origin',(70.,14.5,2.5));
#1478=CARTESIAN_POINT('',(69.,20.75,2.5));
#1479=CARTESIAN_POINT('Origin',(69.,27.,2.));
#1480=CARTESIAN_POINT('',(69.,26.,7.));
#1481=CARTESIAN_POINT('',(69.,20.75,7.));
#1482=CARTESIAN_POINT('',(69.,26.,4.6));
#1483=CARTESIAN_POINT('',(69.,26.,1.));
#1484=CARTESIAN_POINT('',(69.,21.2500002160668,4.6));
#1485=CARTESIAN_POINT('',(69.,25.6250001080334,4.6));
#1486=CARTESIAN_POINT('',(69.,21.2500002160668,2.));
#1487=CARTESIAN_POINT('',(69.,21.2500002160668,2.));
#1488=CARTESIAN_POINT('',(69.,7.75000021606684,2.));
#1489=CARTESIAN_POINT('',(69.,20.75,2.));
#1490=CARTESIAN_POINT('',(69.,7.75000021606684,4.6));
#1491=CARTESIAN_POINT('',(69.,7.75000021606684,2.));
#1492=CARTESIAN_POINT('',(69.,3.,4.6));
#1493=CARTESIAN_POINT('',(69.,15.8750001080334,4.6));
#1494=CARTESIAN_POINT('',(69.,3.,1.));
#1495=CARTESIAN_POINT('Origin',(0.5,19.95,4.35));
#1496=CARTESIAN_POINT('',(5.0844550531823E-31,20.75,4.35));
#1497=CARTESIAN_POINT('',(-4.37518154262866E-32,19.95,3.55));
#1498=CARTESIAN_POINT('Origin',(0.,19.95,4.35));
#1499=CARTESIAN_POINT('',(2.,19.95,3.55));
#1500=CARTESIAN_POINT('',(0.5,19.95,3.55));
#1501=CARTESIAN_POINT('',(2.,20.75,4.35));
#1502=CARTESIAN_POINT('Origin',(2.,19.95,4.35));
#1503=CARTESIAN_POINT('',(0.5,20.75,4.35));
#1504=CARTESIAN_POINT('Origin',(1.,14.5,3.55));
#1505=CARTESIAN_POINT('',(-3.08693364396578E-31,9.05,3.55));
#1506=CARTESIAN_POINT('',(0.,21.75,3.55));
#1507=CARTESIAN_POINT('',(2.,9.05,3.55));
#1508=CARTESIAN_POINT('',(1.5,9.05,3.55));
#1509=CARTESIAN_POINT('',(2.,21.75,3.55));
#1510=CARTESIAN_POINT('Origin',(1.5,9.05,4.35));
#1511=CARTESIAN_POINT('',(2.,8.25,4.35));
#1512=CARTESIAN_POINT('Origin',(2.,9.05,4.35));
#1513=CARTESIAN_POINT('',(0.,8.25,4.35));
#1514=CARTESIAN_POINT('Origin',(0.,9.05,4.35));
#1515=CARTESIAN_POINT('',(1.5,8.25,4.35));
#1516=CARTESIAN_POINT('Origin',(1.69617406539954E-16,20.75,7.));
#1517=CARTESIAN_POINT('',(2.,20.75,7.));
#1518=CARTESIAN_POINT('',(2.,20.75,3.5));
#1519=CARTESIAN_POINT('',(1.69617406539954E-16,20.75,7.));
#1520=CARTESIAN_POINT('',(18.25,20.75,7.));
#1521=CARTESIAN_POINT('',(5.0844550531823E-31,20.75,3.5));
#1522=CARTESIAN_POINT('Origin',(2.,8.25,7.));
#1523=CARTESIAN_POINT('',(0.,8.25,3.5));
#1524=CARTESIAN_POINT('',(2.,8.25,3.5));
#1525=CARTESIAN_POINT('Origin',(36.5,14.5,7.));
#1526=CARTESIAN_POINT('',(71.,29.,7.));
#1527=CARTESIAN_POINT('Origin',(71.,27.,7.));
#1528=CARTESIAN_POINT('',(2.,29.,7.));
#1529=CARTESIAN_POINT('',(73.,29.,7.));
#1530=CARTESIAN_POINT('',(6.56277231394299E-31,27.,7.));
#1531=CARTESIAN_POINT('Origin',(2.,27.,7.));
#1532=CARTESIAN_POINT('',(7.04890359645728E-31,29.,7.));
#1533=CARTESIAN_POINT('',(2.,26.,7.));
#1534=CARTESIAN_POINT('',(2.,21.75,7.));
#1535=CARTESIAN_POINT('',(3.,27.,7.));
#1536=CARTESIAN_POINT('Origin',(3.,26.,7.));
#1537=CARTESIAN_POINT('',(68.,27.,7.));
#1538=CARTESIAN_POINT('',(54.75,27.,7.));
#1539=CARTESIAN_POINT('Origin',(68.,26.,7.));
#1540=CARTESIAN_POINT('Origin',(7.04890359645728E-31,29.,0.));
#1541=CARTESIAN_POINT('',(6.56277231394299E-31,27.,0.));
#1542=CARTESIAN_POINT('',(0.,27.,0.));
#1543=CARTESIAN_POINT('',(4.86131282514295E-32,2.,0.));
#1544=CARTESIAN_POINT('',(7.04890359645728E-31,29.,0.));
#1545=CARTESIAN_POINT('',(0.,2.,0.));
#1546=CARTESIAN_POINT('Origin',(65.7500005289912,24.2500002160668,2.55));
#1547=CARTESIAN_POINT('',(64.1000005289912,24.2500002160668,4.6));
#1548=CARTESIAN_POINT('Origin',(65.7500005289912,24.2500002160668,4.6));
#1549=CARTESIAN_POINT('',(64.1000005289912,24.2500002160668,0.5));
#1550=CARTESIAN_POINT('',(64.1000005289912,24.2500002160668,2.55));
#1551=CARTESIAN_POINT('Origin',(65.7500005289912,24.2500002160668,0.5));
#1552=CARTESIAN_POINT('Origin',(65.7500005289912,24.2500002160668,0.5));
#1553=CARTESIAN_POINT('Origin',(65.7500005289912,4.75000021606684,2.55));
#1554=CARTESIAN_POINT('',(64.1000005289912,4.75000021606684,4.6));
#1555=CARTESIAN_POINT('Origin',(65.7500005289912,4.75000021606684,4.6));
#1556=CARTESIAN_POINT('',(64.1000005289912,4.75000021606684,0.5));
#1557=CARTESIAN_POINT('',(64.1000005289912,4.75000021606684,2.55));
#1558=CARTESIAN_POINT('Origin',(65.7500005289912,4.75000021606684,0.5));
#1559=CARTESIAN_POINT('Origin',(65.7500005289912,4.75000021606684,0.5));
#1560=CARTESIAN_POINT('Origin',(5.25000052899122,24.2500002160668,2.55));
#1561=CARTESIAN_POINT('',(3.60000052899122,24.2500002160668,4.6));
#1562=CARTESIAN_POINT('Origin',(5.25000052899122,24.2500002160668,4.6));
#1563=CARTESIAN_POINT('',(3.60000052899122,24.2500002160668,0.5));
#1564=CARTESIAN_POINT('',(3.60000052899122,24.2500002160668,2.55));
#1565=CARTESIAN_POINT('Origin',(5.25000052899122,24.2500002160668,0.5));
#1566=CARTESIAN_POINT('Origin',(5.25000052899122,24.2500002160668,0.5));
#1567=CARTESIAN_POINT('Origin',(5.25000052899122,4.75000021606684,2.55));
#1568=CARTESIAN_POINT('',(3.60000052899122,4.75000021606684,4.6));
#1569=CARTESIAN_POINT('Origin',(5.25000052899122,4.75000021606684,4.6));
#1570=CARTESIAN_POINT('',(3.60000052899122,4.75000021606684,0.5));
#1571=CARTESIAN_POINT('',(3.60000052899122,4.75000021606684,2.55));
#1572=CARTESIAN_POINT('Origin',(5.25000052899122,4.75000021606684,0.5));
#1573=CARTESIAN_POINT('Origin',(5.25000052899122,4.75000021606684,0.5));
#1574=CARTESIAN_POINT('Origin',(62.7500005289912,27.,2.));
#1575=CARTESIAN_POINT('',(62.7500005289912,24.2500002160668,2.));
#1576=CARTESIAN_POINT('',(62.7500005289912,27.,2.));
#1577=CARTESIAN_POINT('',(62.7500005289912,20.75,2.));
#1578=CARTESIAN_POINT('',(62.7500005289912,24.2500002160668,4.6));
#1579=CARTESIAN_POINT('',(62.7500005289912,24.2500002160668,2.));
#1580=CARTESIAN_POINT('',(62.7500005289912,27.,4.6));
#1581=CARTESIAN_POINT('',(62.7500005289912,24.2500002160668,4.6));
#1582=CARTESIAN_POINT('',(62.7500005289912,27.,1.));
#1583=CARTESIAN_POINT('Origin',(65.7500005289912,21.2500002160668,2.));
#1584=CARTESIAN_POINT('',(65.7500005289912,21.2500002160668,2.));
#1585=CARTESIAN_POINT('',(51.1250002644956,21.2500002160668,2.));
#1586=CARTESIAN_POINT('',(65.7500005289912,21.2500002160668,4.6));
#1587=CARTESIAN_POINT('',(65.7500005289912,21.2500002160668,4.6));
#1588=CARTESIAN_POINT('',(65.7500005289912,21.2500002160668,2.));
#1589=CARTESIAN_POINT('Origin',(65.7500005289912,24.2500002160668,2.));
#1590=CARTESIAN_POINT('Origin',(65.7500005289912,24.2500002160668,2.));
#1591=CARTESIAN_POINT('Origin',(65.7500005289912,24.2500002160668,4.6));
#1592=CARTESIAN_POINT('Origin',(65.8750007785857,24.2500002160668,4.6));
#1593=CARTESIAN_POINT('',(68.,27.,4.6));
#1594=CARTESIAN_POINT('',(69.4375003892928,27.,4.6));
#1595=CARTESIAN_POINT('Origin',(68.,26.,4.6));
#1596=CARTESIAN_POINT('Origin',(73.,27.,0.));
#1597=CARTESIAN_POINT('',(68.,27.,1.));
#1598=CARTESIAN_POINT('',(3.,27.,4.6));
#1599=CARTESIAN_POINT('',(3.,27.,0.));
#1600=CARTESIAN_POINT('',(8.25000052899122,27.,4.6));
#1601=CARTESIAN_POINT('',(39.0625001322478,27.,4.6));
#1602=CARTESIAN_POINT('',(8.25000052899122,27.,2.));
#1603=CARTESIAN_POINT('',(8.25000052899122,27.,1.));
#1604=CARTESIAN_POINT('',(54.75,27.,2.));
#1605=CARTESIAN_POINT('Origin',(68.,26.,1.));
#1606=CARTESIAN_POINT('Origin',(69.,7.75000021606684,2.));
#1607=CARTESIAN_POINT('',(65.7500005289912,7.75000021606684,2.));
#1608=CARTESIAN_POINT('',(52.75,7.75000021606684,2.));
#1609=CARTESIAN_POINT('',(65.7500005289912,7.75000021606684,4.6));
#1610=CARTESIAN_POINT('',(65.7500005289912,7.75000021606684,2.));
#1611=CARTESIAN_POINT('',(65.7500005289912,7.75000021606684,4.6));
#1612=CARTESIAN_POINT('Origin',(62.7500005289912,4.75000021606684,2.));
#1613=CARTESIAN_POINT('',(62.7500005289912,2.,2.));
#1614=CARTESIAN_POINT('',(62.7500005289912,4.75000021606684,2.));
#1615=CARTESIAN_POINT('',(62.7500005289912,9.62500010803342,2.));
#1616=CARTESIAN_POINT('',(62.7500005289912,2.,4.6));
#1617=CARTESIAN_POINT('',(62.7500005289912,2.,1.));
#1618=CARTESIAN_POINT('',(62.7500005289912,4.75000021606684,4.6));
#1619=CARTESIAN_POINT('',(62.7500005289912,4.75000021606684,4.6));
#1620=CARTESIAN_POINT('',(62.7500005289912,4.75000021606684,2.));
#1621=CARTESIAN_POINT('Origin',(65.7500005289912,4.75000021606684,2.));
#1622=CARTESIAN_POINT('Origin',(65.7500005289912,4.75000021606684,2.));
#1623=CARTESIAN_POINT('Origin',(65.7500005289912,4.75000021606684,4.6));
#1624=CARTESIAN_POINT('Origin',(65.8750007785857,4.75000021606684,4.6));
#1625=CARTESIAN_POINT('',(68.,2.,4.6));
#1626=CARTESIAN_POINT('',(32.9375003892928,2.,4.6));
#1627=CARTESIAN_POINT('Origin',(68.,3.,4.6));
#1628=CARTESIAN_POINT('Origin',(68.,3.,1.));
#1629=CARTESIAN_POINT('',(68.,2.,1.));
#1630=CARTESIAN_POINT('Origin',(3.79909468481866E-33,2.,0.));
#1631=CARTESIAN_POINT('',(8.25000052899122,2.,2.));
#1632=CARTESIAN_POINT('',(18.25,2.,2.));
#1633=CARTESIAN_POINT('',(8.25000052899122,2.,4.6));
#1634=CARTESIAN_POINT('',(8.25000052899122,2.,1.));
#1635=CARTESIAN_POINT('',(3.,2.,4.6));
#1636=CARTESIAN_POINT('',(2.56250013224781,2.,4.6));
#1637=CARTESIAN_POINT('',(3.,2.,0.));
#1638=CARTESIAN_POINT('Origin',(2.,21.2500002160668,2.));
#1639=CARTESIAN_POINT('',(5.25000052899122,21.2500002160668,2.));
#1640=CARTESIAN_POINT('',(2.,21.2500002160668,2.));
#1641=CARTESIAN_POINT('',(19.25,21.2500002160668,2.));
#1642=CARTESIAN_POINT('',(5.25000052899122,21.2500002160668,4.6));
#1643=CARTESIAN_POINT('',(5.25000052899122,21.2500002160668,2.));
#1644=CARTESIAN_POINT('',(2.,21.2500002160668,4.6));
#1645=CARTESIAN_POINT('',(5.00000007450581,21.2500002160668,4.6));
#1646=CARTESIAN_POINT('',(2.,21.2500002160668,1.));
#1647=CARTESIAN_POINT('Origin',(8.25000052899122,24.2500002160668,2.));
#1648=CARTESIAN_POINT('',(8.25000052899122,24.2500002160668,2.));
#1649=CARTESIAN_POINT('',(8.25000052899122,19.3750001080334,2.));
#1650=CARTESIAN_POINT('',(8.25000052899122,24.2500002160668,4.6));
#1651=CARTESIAN_POINT('',(8.25000052899122,24.2500002160668,4.6));
#1652=CARTESIAN_POINT('',(8.25000052899122,24.2500002160668,2.));
#1653=CARTESIAN_POINT('Origin',(5.25000052899122,24.2500002160668,2.));
#1654=CARTESIAN_POINT('Origin',(5.25000052899122,24.2500002160668,2.));
#1655=CARTESIAN_POINT('Origin',(5.25000052899122,24.2500002160668,4.6));
#1656=CARTESIAN_POINT('Origin',(5.12500026449561,24.2500002160668,4.6));
#1657=CARTESIAN_POINT('',(2.,26.,4.6));
#1658=CARTESIAN_POINT('Origin',(3.,26.,4.6));
#1659=CARTESIAN_POINT('',(2.,26.6250001080334,4.6));
#1660=CARTESIAN_POINT('Origin',(2.,29.,0.));
#1661=CARTESIAN_POINT('',(2.,3.,4.6));
#1662=CARTESIAN_POINT('',(2.,3.,0.));
#1663=CARTESIAN_POINT('',(2.,7.75000021606684,4.6));
#1664=CARTESIAN_POINT('',(2.,16.8750001080334,4.6));
#1665=CARTESIAN_POINT('',(2.,7.75000021606684,2.));
#1666=CARTESIAN_POINT('',(2.,7.75000021606684,1.));
#1667=CARTESIAN_POINT('',(2.,21.75,2.));
#1668=CARTESIAN_POINT('',(2.,26.,0.));
#1669=CARTESIAN_POINT('Origin',(3.,26.,0.));
#1670=CARTESIAN_POINT('Origin',(5.25000052899122,4.75000021606684,2.));
#1671=CARTESIAN_POINT('',(5.25000052899122,7.75000021606684,2.));
#1672=CARTESIAN_POINT('',(8.25000052899122,4.75000021606684,2.));
#1673=CARTESIAN_POINT('Origin',(5.25000052899122,4.75000021606684,2.));
#1674=CARTESIAN_POINT('',(5.25000052899122,7.75000021606684,4.6));
#1675=CARTESIAN_POINT('',(5.25000052899122,7.75000021606684,2.));
#1676=CARTESIAN_POINT('',(8.25000052899122,4.75000021606684,4.6));
#1677=CARTESIAN_POINT('Origin',(5.25000052899122,4.75000021606684,4.6));
#1678=CARTESIAN_POINT('',(8.25000052899122,4.75000021606684,2.));
#1679=CARTESIAN_POINT('Origin',(8.25000052899122,2.,2.));
#1680=CARTESIAN_POINT('',(8.25000052899122,8.25,2.));
#1681=CARTESIAN_POINT('',(8.25000052899122,4.75000021606684,4.6));
#1682=CARTESIAN_POINT('Origin',(5.25000052899122,7.75000021606684,2.));
#1683=CARTESIAN_POINT('',(20.8750002644956,7.75000021606684,2.));
#1684=CARTESIAN_POINT('',(5.25000052899122,7.75000021606684,4.6));
#1685=CARTESIAN_POINT('Origin',(5.12500026449561,4.75000021606684,4.6));
#1686=CARTESIAN_POINT('Origin',(3.,3.,4.6));
#1687=CARTESIAN_POINT('Origin',(36.5,14.5,2.));
#1688=CARTESIAN_POINT('Origin',(3.,3.,0.));
#1689=CARTESIAN_POINT('Origin',(2.,27.,0.));
#1690=CARTESIAN_POINT('',(2.,29.,0.));
#1691=CARTESIAN_POINT('',(2.,29.,0.));
#1692=CARTESIAN_POINT('Origin',(2.,27.,0.));
#1693=CARTESIAN_POINT('Origin',(36.5,14.5,0.));
#1694=CARTESIAN_POINT('',(71.,29.,0.));
#1695=CARTESIAN_POINT('',(73.,29.,0.));
#1696=CARTESIAN_POINT('Origin',(71.,27.,0.));
#1697=CARTESIAN_POINT('',(71.,-1.34867861311062E-31,0.));
#1698=CARTESIAN_POINT('Origin',(71.,2.,0.));
#1699=CARTESIAN_POINT('',(2.,-3.79909468481866E-33,0.));
#1700=CARTESIAN_POINT('',(0.,0.,0.));
#1701=CARTESIAN_POINT('Origin',(2.,2.,0.));
#1702=CARTESIAN_POINT('Origin',(71.,27.,0.));
#1703=CARTESIAN_POINT('',(71.,29.,0.));
#1704=CARTESIAN_POINT('Origin',(71.,2.,0.));
#1705=CARTESIAN_POINT('',(71.,0.,0.));
#1706=CARTESIAN_POINT('Origin',(2.,2.,0.));
#1707=CARTESIAN_POINT('',(2.,0.,0.));
#1708=CARTESIAN_POINT('Origin',(73.,29.,0.));
#1709=CARTESIAN_POINT('Origin',(0.,0.,0.));
#1710=UNCERTAINTY_MEASURE_WITH_UNIT(LENGTH_MEASURE(0.01),#1714,
'DISTANCE_ACCURACY_VALUE',
'Maximum model space distance between geometric entities at asserted c
onnectivities');
#1711=UNCERTAINTY_MEASURE_WITH_UNIT(LENGTH_MEASURE(0.01),#1714,
'DISTANCE_ACCURACY_VALUE',
'Maximum model space distance between geometric entities at asserted c
onnectivities');
#1712=(
GEOMETRIC_REPRESENTATION_CONTEXT(3)
GLOBAL_UNCERTAINTY_ASSIGNED_CONTEXT((#1710))
GLOBAL_UNIT_ASSIGNED_CONTEXT((#1714,#1716,#1717))
REPRESENTATION_CONTEXT('','3D')
);
#1713=(
GEOMETRIC_REPRESENTATION_CONTEXT(3)
GLOBAL_UNCERTAINTY_ASSIGNED_CONTEXT((#1711))
GLOBAL_UNIT_ASSIGNED_CONTEXT((#1714,#1716,#1717))
REPRESENTATION_CONTEXT('','3D')
);
#1714=(
LENGTH_UNIT()
NAMED_UNIT(*)
SI_UNIT(.MILLI.,.METRE.)
);
#1715=(
LENGTH_UNIT()
NAMED_UNIT(*)
SI_UNIT($,.METRE.)
);
#1716=(
NAMED_UNIT(*)
PLANE_ANGLE_UNIT()
SI_UNIT($,.RADIAN.)
);
#1717=(
NAMED_UNIT(*)
SI_UNIT($,.STERADIAN.)
SOLID_ANGLE_UNIT()
);
#1718=SHAPE_DEFINITION_REPRESENTATION(#1719,#1720);
#1719=PRODUCT_DEFINITION_SHAPE('',$,#1722);
#1720=SHAPE_REPRESENTATION('',(#1030),#1712);
#1721=PRODUCT_DEFINITION_CONTEXT('part definition',#1726,'design');
#1722=PRODUCT_DEFINITION('case_bottom','case_bottom v14',#1723,#1721);
#1723=PRODUCT_DEFINITION_FORMATION('',$,#1728);
#1724=PRODUCT_RELATED_PRODUCT_CATEGORY('case_bottom v14',
'case_bottom v14',(#1728));
#1725=APPLICATION_PROTOCOL_DEFINITION('international standard',
'automotive_design',2009,#1726);
#1726=APPLICATION_CONTEXT(
'Core Data for Automotive Mechanical Design Process');
#1727=PRODUCT_CONTEXT('part definition',#1726,'mechanical');
#1728=PRODUCT('case_bottom','case_bottom v14',$,(#1727));
#1729=PRESENTATION_STYLE_ASSIGNMENT((#1730));
#1730=SURFACE_STYLE_USAGE(.BOTH.,#1731);
#1731=SURFACE_SIDE_STYLE('',(#1732));
#1732=SURFACE_STYLE_FILL_AREA(#1733);
#1733=FILL_AREA_STYLE('Steel - Satin',(#1734));
#1734=FILL_AREA_STYLE_COLOUR('Steel - Satin',#1735);
#1735=COLOUR_RGB('Steel - Satin',0.627450980392157,0.627450980392157,0.627450980392157);
ENDSEC;
END-ISO-10303-21;
