%TF.GenerationSoftware,KiCad,Pcbnew,(5.1.9)-1*%
%TF.CreationDate,2021-06-23T18:52:23+02:00*%
%TF.ProjectId,Demosat_Solar_Panel,44656d6f-7361-4745-9f53-6f6c61725f50,rev?*%
%TF.SameCoordinates,Original*%
%TF.FileFunction,Copper,L2,Bot*%
%TF.FilePolarity,Positive*%
%FSLAX46Y46*%
G04 Gerber Fmt 4.6, Leading zero omitted, Abs format (unit mm)*
G04 Created by KiCad (PCBNEW (5.1.9)-1) date 2021-06-23 18:52:23*
%MOMM*%
%LPD*%
G01*
G04 APERTURE LIST*
%TA.AperFunction,SMDPad,CuDef*%
%ADD10R,2.000000X3.800000*%
%TD*%
%TA.AperFunction,SMDPad,CuDef*%
%ADD11R,2.000000X5.000000*%
%TD*%
%TA.AperFunction,WasherPad*%
%ADD12C,4.800000*%
%TD*%
%TA.AperFunction,ComponentPad*%
%ADD13C,5.600000*%
%TD*%
%TA.AperFunction,ViaPad*%
%ADD14C,0.800000*%
%TD*%
%TA.AperFunction,Conductor*%
%ADD15C,1.000000*%
%TD*%
%TA.AperFunction,Conductor*%
%ADD16C,0.254000*%
%TD*%
%TA.AperFunction,Conductor*%
%ADD17C,0.100000*%
%TD*%
G04 APERTURE END LIST*
D10*
%TO.P,r,1*%
%TO.N,VBUS*%
X11700000Y-13000000D03*
%TD*%
%TO.P,J1,1*%
%TO.N,GND*%
X15300000Y-13000000D03*
%TD*%
D11*
%TO.P,SC2,2*%
%TO.N,GND*%
X0Y-32000000D03*
%TO.P,SC2,1*%
%TO.N,VBUS*%
X0Y-14000000D03*
D12*
%TO.P,SC2,*%
%TO.N,*%
X-37500000Y-8000000D03*
X37500000Y-8000000D03*
%TO.P,SC2,1*%
%TO.N,VBUS*%
%TA.AperFunction,SMDPad,CuDef*%
G36*
G01*
X-34083705Y-9719239D02*
X-35780761Y-11416295D01*
G75*
G02*
X-37477817Y-11416295I-848528J848528D01*
G01*
X-39316295Y-9577817D01*
G75*
G02*
X-39316295Y-7880761I848528J848528D01*
G01*
X-37619239Y-6183705D01*
G75*
G02*
X-35922183Y-6183705I848528J-848528D01*
G01*
X-34083705Y-8022183D01*
G75*
G02*
X-34083705Y-9719239I-848528J-848528D01*
G01*
G37*
%TD.AperFunction*%
%TO.P,SC2,2*%
%TO.N,GND*%
%TA.AperFunction,SMDPad,CuDef*%
G36*
G01*
X37619239Y-6183705D02*
X39316295Y-7880761D01*
G75*
G02*
X39316295Y-9577817I-848528J-848528D01*
G01*
X37477817Y-11416295D01*
G75*
G02*
X35780761Y-11416295I-848528J848528D01*
G01*
X34083705Y-9719239D01*
G75*
G02*
X34083705Y-8022183I848528J848528D01*
G01*
X35922183Y-6183705D01*
G75*
G02*
X37619239Y-6183705I848528J-848528D01*
G01*
G37*
%TD.AperFunction*%
%TD*%
D13*
%TO.P,H1,1*%
%TO.N,GND*%
X-30500000Y45800000D03*
%TD*%
%TO.P,H4,1*%
%TO.N,GND*%
X-30500000Y-45800000D03*
%TD*%
%TO.P,H3,1*%
%TO.N,GND*%
X30500000Y-45800000D03*
%TD*%
%TO.P,H2,1*%
%TO.N,GND*%
X30500000Y45800000D03*
%TD*%
D11*
%TO.P,SC1,2*%
%TO.N,GND*%
X0Y32000000D03*
%TO.P,SC1,1*%
%TO.N,VBUS*%
X0Y14000000D03*
D12*
%TO.P,SC1,*%
%TO.N,*%
X37500000Y8000000D03*
X-37500000Y8000000D03*
%TO.P,SC1,1*%
%TO.N,VBUS*%
%TA.AperFunction,SMDPad,CuDef*%
G36*
G01*
X34083705Y9719239D02*
X35780761Y11416295D01*
G75*
G02*
X37477817Y11416295I848528J-848528D01*
G01*
X39316295Y9577817D01*
G75*
G02*
X39316295Y7880761I-848528J-848528D01*
G01*
X37619239Y6183705D01*
G75*
G02*
X35922183Y6183705I-848528J848528D01*
G01*
X34083705Y8022183D01*
G75*
G02*
X34083705Y9719239I848528J848528D01*
G01*
G37*
%TD.AperFunction*%
%TO.P,SC1,2*%
%TO.N,GND*%
%TA.AperFunction,SMDPad,CuDef*%
G36*
G01*
X-37619239Y6183705D02*
X-39316295Y7880761D01*
G75*
G02*
X-39316295Y9577817I848528J848528D01*
G01*
X-37477817Y11416295D01*
G75*
G02*
X-35780761Y11416295I848528J-848528D01*
G01*
X-34083705Y9719239D01*
G75*
G02*
X-34083705Y8022183I-848528J-848528D01*
G01*
X-35922183Y6183705D01*
G75*
G02*
X-37619239Y6183705I-848528J848528D01*
G01*
G37*
%TD.AperFunction*%
%TD*%
D14*
%TO.N,GND*%
X-10000000Y38000000D03*
X10000000Y38000000D03*
X-20000000Y38000000D03*
X15000000Y38000000D03*
X25000000Y38000000D03*
X30000000Y38000000D03*
X-5000000Y38000000D03*
X20000000Y38000000D03*
X-25000000Y38000000D03*
X-15000000Y38000000D03*
X-30000000Y38000000D03*
X5000000Y38000000D03*
X0Y38000000D03*
X5000000Y7500000D03*
X20000000Y7500000D03*
X15000000Y7500000D03*
X-15000000Y7500000D03*
X-30000000Y7500000D03*
X-25000000Y7500000D03*
X25000000Y7500000D03*
X10000000Y7500000D03*
X-20000000Y7500000D03*
X0Y7500000D03*
X-5000000Y7500000D03*
X30000000Y7500000D03*
X-10000000Y7500000D03*
X5000000Y-7500000D03*
X20000000Y-7500000D03*
X15000000Y-7500000D03*
X-15000000Y-7500000D03*
X-30000000Y-7500000D03*
X-25000000Y-7500000D03*
X25000000Y-7500000D03*
X10000000Y-7500000D03*
X-20000000Y-7500000D03*
X0Y-7500000D03*
X-5000000Y-7500000D03*
X30000000Y-7500000D03*
X-10000000Y-7500000D03*
X-30000000Y-38000000D03*
X-25000000Y-38000000D03*
X-20000000Y-38000000D03*
X-15000000Y-38000000D03*
X-10000000Y-38000000D03*
X-5000000Y-38000000D03*
X0Y-38000000D03*
X5000000Y-38000000D03*
X10000000Y-38000000D03*
X15000000Y-38000000D03*
X20000000Y-38000000D03*
X25000000Y-38000000D03*
X30000000Y-38000000D03*
%TD*%
D15*
%TO.N,VBUS*%
X2302930Y-14000000D02*
X0Y-14000000D01*
X8250000Y-8052930D02*
X2302930Y-14000000D01*
X8265000Y2765000D02*
X8250000Y2750000D01*
X8250000Y-6550000D02*
X8250000Y-8052930D01*
X-31500000Y-14000000D02*
X-35205999Y-10294001D01*
X0Y-14000000D02*
X-31500000Y-14000000D01*
X31500000Y14000000D02*
X35205999Y10294001D01*
X0Y14000000D02*
X31500000Y14000000D01*
X8250000Y13950000D02*
X8250000Y2750000D01*
X8200000Y14000000D02*
X8250000Y13950000D01*
X11700000Y-7400000D02*
X11700000Y-13000000D01*
X9850000Y-5550000D02*
X11700000Y-7400000D01*
X8250000Y-5550000D02*
X9850000Y-5550000D01*
X8250000Y2750000D02*
X8250000Y-5550000D01*
X8250000Y-5550000D02*
X8250000Y-6550000D01*
%TD*%
D16*
%TO.N,GND*%
X40844001Y-50094000D02*
X-40842994Y-50094000D01*
X-40804396Y-34500000D01*
X-1638072Y-34500000D01*
X-1625812Y-34624482D01*
X-1589502Y-34744180D01*
X-1530537Y-34854494D01*
X-1451185Y-34951185D01*
X-1354494Y-35030537D01*
X-1244180Y-35089502D01*
X-1124482Y-35125812D01*
X-1000000Y-35138072D01*
X-285750Y-35135000D01*
X-127000Y-34976250D01*
X-127000Y-32127000D01*
X127000Y-32127000D01*
X127000Y-34976250D01*
X285750Y-35135000D01*
X1000000Y-35138072D01*
X1124482Y-35125812D01*
X1244180Y-35089502D01*
X1354494Y-35030537D01*
X1451185Y-34951185D01*
X1530537Y-34854494D01*
X1589502Y-34744180D01*
X1625812Y-34624482D01*
X1638072Y-34500000D01*
X1635000Y-32285750D01*
X1476250Y-32127000D01*
X127000Y-32127000D01*
X-127000Y-32127000D01*
X-1476250Y-32127000D01*
X-1635000Y-32285750D01*
X-1638072Y-34500000D01*
X-40804396Y-34500000D01*
X-40738124Y-7726095D01*
X-40281000Y-7726095D01*
X-40281000Y-8273905D01*
X-40174128Y-8811188D01*
X-39964490Y-9317297D01*
X-39840041Y-9503548D01*
X-39783853Y-9608669D01*
X-39708237Y-9700807D01*
X-39660144Y-9772784D01*
X-39598933Y-9833995D01*
X-39587006Y-9848528D01*
X-37748528Y-11687006D01*
X-37508669Y-11883853D01*
X-37235017Y-12030123D01*
X-36938086Y-12120196D01*
X-36629289Y-12150610D01*
X-36320492Y-12120196D01*
X-36023561Y-12030123D01*
X-35749909Y-11883853D01*
X-35510050Y-11687006D01*
X-35284483Y-11461439D01*
X-32153561Y-14592361D01*
X-32125975Y-14625975D01*
X-32092363Y-14653559D01*
X-31991826Y-14736068D01*
X-31838775Y-14817875D01*
X-31672706Y-14868252D01*
X-31543273Y-14881000D01*
X-31543271Y-14881000D01*
X-31500001Y-14885262D01*
X-31456731Y-14881000D01*
X-1382843Y-14881000D01*
X-1382843Y-15972414D01*
X-1608342Y-16092946D01*
X-2047031Y-16452970D01*
X-2407054Y-16891659D01*
X-2674575Y-17392156D01*
X-2839314Y-17935226D01*
X-2881000Y-18358475D01*
X-2880999Y-27641526D01*
X-2839313Y-28064775D01*
X-2674574Y-28607845D01*
X-2407053Y-29108342D01*
X-2047030Y-29547031D01*
X-1637541Y-29883091D01*
X-1635000Y-31714250D01*
X-1476250Y-31873000D01*
X-127000Y-31873000D01*
X-127000Y-31853000D01*
X127000Y-31853000D01*
X127000Y-31873000D01*
X1476250Y-31873000D01*
X1635000Y-31714250D01*
X1637541Y-29883091D01*
X2047031Y-29547031D01*
X2407054Y-29108342D01*
X2674575Y-28607845D01*
X2839314Y-28064775D01*
X2881000Y-27641526D01*
X2881000Y-18358474D01*
X2839314Y-17935225D01*
X2674575Y-17392155D01*
X2407054Y-16891658D01*
X2047030Y-16452969D01*
X1608341Y-16092946D01*
X1382843Y-15972415D01*
X1382843Y-14881000D01*
X2259660Y-14881000D01*
X2302930Y-14885262D01*
X2346200Y-14881000D01*
X2346203Y-14881000D01*
X2475636Y-14868252D01*
X2641705Y-14817875D01*
X2794755Y-14736068D01*
X2928905Y-14625975D01*
X2956496Y-14592355D01*
X8842361Y-8706491D01*
X8875975Y-8678905D01*
X8936784Y-8604808D01*
X8986068Y-8544756D01*
X9067875Y-8391705D01*
X9100164Y-8285262D01*
X9118252Y-8225636D01*
X9131000Y-8096203D01*
X9131000Y-8096201D01*
X9135262Y-8052931D01*
X9131000Y-8009661D01*
X9131000Y-6431000D01*
X9485079Y-6431000D01*
X10819000Y-7764922D01*
X10819001Y-10717157D01*
X10700000Y-10717157D01*
X10625311Y-10724513D01*
X10553492Y-10746299D01*
X10487304Y-10781678D01*
X10429289Y-10829289D01*
X10381678Y-10887304D01*
X10346299Y-10953492D01*
X10324513Y-11025311D01*
X10317157Y-11100000D01*
X10317157Y-14900000D01*
X10324513Y-14974689D01*
X10346299Y-15046508D01*
X10381678Y-15112696D01*
X10429289Y-15170711D01*
X10487304Y-15218322D01*
X10553492Y-15253701D01*
X10625311Y-15275487D01*
X10700000Y-15282843D01*
X12700000Y-15282843D01*
X12774689Y-15275487D01*
X12846508Y-15253701D01*
X12912696Y-15218322D01*
X12970711Y-15170711D01*
X13018322Y-15112696D01*
X13053701Y-15046508D01*
X13075487Y-14974689D01*
X13082843Y-14900000D01*
X13661928Y-14900000D01*
X13674188Y-15024482D01*
X13710498Y-15144180D01*
X13769463Y-15254494D01*
X13848815Y-15351185D01*
X13945506Y-15430537D01*
X14055820Y-15489502D01*
X14175518Y-15525812D01*
X14300000Y-15538072D01*
X15014250Y-15535000D01*
X15173000Y-15376250D01*
X15173000Y-13127000D01*
X15427000Y-13127000D01*
X15427000Y-15376250D01*
X15585750Y-15535000D01*
X16300000Y-15538072D01*
X16424482Y-15525812D01*
X16544180Y-15489502D01*
X16654494Y-15430537D01*
X16751185Y-15351185D01*
X16830537Y-15254494D01*
X16889502Y-15144180D01*
X16925812Y-15024482D01*
X16938072Y-14900000D01*
X16935000Y-13285750D01*
X16776250Y-13127000D01*
X15427000Y-13127000D01*
X15173000Y-13127000D01*
X13823750Y-13127000D01*
X13665000Y-13285750D01*
X13661928Y-14900000D01*
X13082843Y-14900000D01*
X13082843Y-11100000D01*
X13661928Y-11100000D01*
X13665000Y-12714250D01*
X13823750Y-12873000D01*
X15173000Y-12873000D01*
X15173000Y-10623750D01*
X15427000Y-10623750D01*
X15427000Y-12873000D01*
X16776250Y-12873000D01*
X16935000Y-12714250D01*
X16938072Y-11100000D01*
X16925812Y-10975518D01*
X16889502Y-10855820D01*
X16830537Y-10745506D01*
X16751185Y-10648815D01*
X16654494Y-10569463D01*
X16544180Y-10510498D01*
X16424482Y-10474188D01*
X16300000Y-10461928D01*
X15585750Y-10465000D01*
X15427000Y-10623750D01*
X15173000Y-10623750D01*
X15014250Y-10465000D01*
X14300000Y-10461928D01*
X14175518Y-10474188D01*
X14055820Y-10510498D01*
X13945506Y-10569463D01*
X13848815Y-10648815D01*
X13769463Y-10745506D01*
X13710498Y-10855820D01*
X13674188Y-10975518D01*
X13661928Y-11100000D01*
X13082843Y-11100000D01*
X13075487Y-11025311D01*
X13053701Y-10953492D01*
X13018322Y-10887304D01*
X12970711Y-10829289D01*
X12912696Y-10781678D01*
X12846508Y-10746299D01*
X12774689Y-10724513D01*
X12700000Y-10717157D01*
X12581000Y-10717157D01*
X12581000Y-8870711D01*
X32597105Y-8870711D01*
X32609365Y-8995192D01*
X32645675Y-9114890D01*
X32704639Y-9225205D01*
X32783992Y-9321896D01*
X34281164Y-10814724D01*
X34505671Y-10814724D01*
X35443734Y-9876662D01*
X35623339Y-10056267D01*
X34685276Y-10994329D01*
X34685276Y-11218836D01*
X36178104Y-12716008D01*
X36274795Y-12795361D01*
X36385110Y-12854325D01*
X36504808Y-12890635D01*
X36629289Y-12902895D01*
X36753771Y-12890635D01*
X36873469Y-12854325D01*
X36983783Y-12795361D01*
X37080474Y-12716008D01*
X38644013Y-11148125D01*
X38644013Y-10923618D01*
X38370115Y-10649720D01*
X38624114Y-10544509D01*
X38823618Y-10744013D01*
X39048125Y-10744013D01*
X40616008Y-9180474D01*
X40695361Y-9083783D01*
X40754325Y-8973469D01*
X40790635Y-8853771D01*
X40802895Y-8729289D01*
X40790635Y-8604808D01*
X40754325Y-8485110D01*
X40695361Y-8374795D01*
X40616008Y-8278104D01*
X40281000Y-7944068D01*
X40281000Y-7726095D01*
X40174128Y-7188812D01*
X39964490Y-6682703D01*
X39660144Y-6227216D01*
X39272784Y-5839856D01*
X38817297Y-5535510D01*
X38311188Y-5325872D01*
X37773905Y-5219000D01*
X37555932Y-5219000D01*
X37221896Y-4883992D01*
X37125205Y-4804639D01*
X37014890Y-4745675D01*
X36895192Y-4709365D01*
X36770711Y-4697105D01*
X36646229Y-4709365D01*
X36526531Y-4745675D01*
X36416217Y-4804639D01*
X36319526Y-4883992D01*
X34755987Y-6451875D01*
X34755987Y-6676382D01*
X34955491Y-6875886D01*
X34850280Y-7129885D01*
X34576382Y-6855987D01*
X34351875Y-6855987D01*
X32783992Y-8419526D01*
X32704639Y-8516217D01*
X32645675Y-8626531D01*
X32609365Y-8746229D01*
X32597105Y-8870711D01*
X12581000Y-8870711D01*
X12581000Y-7443269D01*
X12585262Y-7399999D01*
X12581000Y-7356727D01*
X12568252Y-7227294D01*
X12517875Y-7061225D01*
X12436069Y-6908176D01*
X12436068Y-6908174D01*
X12353559Y-6807637D01*
X12325975Y-6774025D01*
X12292362Y-6746440D01*
X10503566Y-4957645D01*
X10475975Y-4924025D01*
X10341825Y-4813932D01*
X10188775Y-4732125D01*
X10022706Y-4681748D01*
X9893273Y-4669000D01*
X9893270Y-4669000D01*
X9850000Y-4664738D01*
X9806730Y-4669000D01*
X9131000Y-4669000D01*
X9131000Y-230060D01*
X17994000Y-230060D01*
X17994001Y-1769941D01*
X17995704Y-1787235D01*
X17995683Y-1790287D01*
X17996236Y-1795929D01*
X18006436Y-1892977D01*
X18013839Y-1929043D01*
X18020731Y-1965169D01*
X18022369Y-1970596D01*
X18051225Y-2063815D01*
X18065495Y-2097762D01*
X18079271Y-2131858D01*
X18081926Y-2136853D01*
X18081930Y-2136861D01*
X18081935Y-2136868D01*
X18128344Y-2222701D01*
X18148944Y-2253242D01*
X18169070Y-2283997D01*
X18172653Y-2288391D01*
X18234855Y-2363580D01*
X18261005Y-2389548D01*
X18286709Y-2415796D01*
X18291071Y-2419405D01*
X18291079Y-2419413D01*
X18291088Y-2419419D01*
X18366697Y-2481086D01*
X18397360Y-2501459D01*
X18427714Y-2522242D01*
X18432701Y-2524939D01*
X18518861Y-2570751D01*
X18552911Y-2584785D01*
X18586701Y-2599267D01*
X18592116Y-2600944D01*
X18685534Y-2629149D01*
X18721625Y-2636295D01*
X18757628Y-2643948D01*
X18763257Y-2644539D01*
X18763262Y-2644540D01*
X18763266Y-2644540D01*
X18860383Y-2654063D01*
X18860393Y-2654063D01*
X18880059Y-2656000D01*
X31919941Y-2656000D01*
X31937244Y-2654296D01*
X31940287Y-2654317D01*
X31945929Y-2653764D01*
X32042977Y-2643564D01*
X32079043Y-2636161D01*
X32115169Y-2629269D01*
X32120596Y-2627631D01*
X32213815Y-2598775D01*
X32247762Y-2584505D01*
X32281858Y-2570729D01*
X32286853Y-2568074D01*
X32286861Y-2568070D01*
X32286868Y-2568065D01*
X32372701Y-2521656D01*
X32403242Y-2501056D01*
X32433997Y-2480930D01*
X32438391Y-2477347D01*
X32513580Y-2415145D01*
X32539548Y-2388995D01*
X32565796Y-2363291D01*
X32569405Y-2358929D01*
X32569413Y-2358921D01*
X32569419Y-2358912D01*
X32631086Y-2283303D01*
X32651459Y-2252640D01*
X32672242Y-2222286D01*
X32674939Y-2217299D01*
X32720751Y-2131139D01*
X32734785Y-2097089D01*
X32749267Y-2063299D01*
X32750944Y-2057884D01*
X32779149Y-1964466D01*
X32786295Y-1928375D01*
X32793948Y-1892372D01*
X32794540Y-1886734D01*
X32804063Y-1789617D01*
X32804063Y-1789607D01*
X32806000Y-1769941D01*
X32806000Y-230059D01*
X32804296Y-212756D01*
X32804317Y-209714D01*
X32803764Y-204072D01*
X32793564Y-107023D01*
X32786161Y-70957D01*
X32779269Y-34831D01*
X32777631Y-29404D01*
X32748775Y63815D01*
X32734505Y97762D01*
X32720729Y131858D01*
X32718068Y136864D01*
X32671655Y222701D01*
X32651078Y253207D01*
X32630930Y283997D01*
X32627347Y288391D01*
X32565145Y363580D01*
X32538995Y389548D01*
X32513291Y415796D01*
X32508929Y419405D01*
X32508921Y419413D01*
X32508912Y419419D01*
X32433302Y481086D01*
X32402658Y501447D01*
X32372286Y522242D01*
X32367299Y524939D01*
X32281138Y570751D01*
X32247102Y584779D01*
X32213299Y599267D01*
X32207884Y600944D01*
X32114466Y629149D01*
X32078345Y636301D01*
X32042372Y643947D01*
X32036743Y644539D01*
X32036738Y644540D01*
X32036734Y644540D01*
X31939740Y654050D01*
X31919941Y656000D01*
X18880059Y656000D01*
X18862756Y654296D01*
X18859714Y654317D01*
X18854072Y653764D01*
X18757023Y643564D01*
X18720957Y636161D01*
X18684831Y629269D01*
X18679404Y627631D01*
X18586185Y598775D01*
X18552238Y584505D01*
X18518142Y570729D01*
X18513143Y568072D01*
X18513139Y568070D01*
X18513136Y568068D01*
X18427299Y521655D01*
X18396793Y501078D01*
X18366003Y480930D01*
X18361609Y477347D01*
X18286420Y415145D01*
X18260452Y388995D01*
X18234204Y363291D01*
X18230595Y358929D01*
X18230587Y358921D01*
X18230581Y358912D01*
X18168914Y283302D01*
X18148553Y252658D01*
X18127758Y222286D01*
X18125061Y217299D01*
X18079249Y131138D01*
X18065221Y97102D01*
X18050733Y63299D01*
X18049056Y57884D01*
X18020851Y-35534D01*
X18013699Y-71655D01*
X18006053Y-107628D01*
X18005460Y-113266D01*
X17995991Y-209845D01*
X17994000Y-230060D01*
X9131000Y-230060D01*
X9131000Y2584874D01*
X9133251Y2592294D01*
X9150262Y2764999D01*
X9133251Y2937705D01*
X9131000Y2945125D01*
X9131000Y13119000D01*
X31135079Y13119000D01*
X34038561Y10215517D01*
X33812994Y9989950D01*
X33616147Y9750091D01*
X33469877Y9476439D01*
X33379804Y9179508D01*
X33349390Y8870711D01*
X33379804Y8561914D01*
X33469877Y8264983D01*
X33616147Y7991331D01*
X33812994Y7751472D01*
X35651472Y5912994D01*
X35666005Y5901067D01*
X35727216Y5839856D01*
X35799193Y5791763D01*
X35891331Y5716147D01*
X35996452Y5659959D01*
X36182703Y5535510D01*
X36688812Y5325872D01*
X37226095Y5219000D01*
X37773905Y5219000D01*
X38311188Y5325872D01*
X38817297Y5535510D01*
X39272784Y5839856D01*
X39660144Y6227216D01*
X39964490Y6682703D01*
X40174128Y7188812D01*
X40281000Y7726095D01*
X40281000Y8273905D01*
X40174128Y8811188D01*
X39964490Y9317297D01*
X39840041Y9503548D01*
X39783853Y9608669D01*
X39708237Y9700807D01*
X39660144Y9772784D01*
X39598933Y9833995D01*
X39587006Y9848528D01*
X37748528Y11687006D01*
X37508669Y11883853D01*
X37235017Y12030123D01*
X36938086Y12120196D01*
X36629289Y12150610D01*
X36320492Y12120196D01*
X36023561Y12030123D01*
X35749909Y11883853D01*
X35510050Y11687006D01*
X35284483Y11461439D01*
X32153566Y14592355D01*
X32125975Y14625975D01*
X31991825Y14736068D01*
X31838775Y14817875D01*
X31672706Y14868252D01*
X31543273Y14881000D01*
X31543270Y14881000D01*
X31500000Y14885262D01*
X31456730Y14881000D01*
X8243270Y14881000D01*
X8200000Y14885262D01*
X8156730Y14881000D01*
X1382843Y14881000D01*
X1382843Y15972415D01*
X1608341Y16092946D01*
X2047030Y16452969D01*
X2407054Y16891658D01*
X2674575Y17392155D01*
X2839314Y17935225D01*
X2881000Y18358474D01*
X2881000Y27641526D01*
X2839314Y28064775D01*
X2674575Y28607845D01*
X2407054Y29108342D01*
X2047031Y29547031D01*
X1637541Y29883091D01*
X1635000Y31714250D01*
X1476250Y31873000D01*
X127000Y31873000D01*
X127000Y31853000D01*
X-127000Y31853000D01*
X-127000Y31873000D01*
X-1476250Y31873000D01*
X-1635000Y31714250D01*
X-1637541Y29883091D01*
X-2047030Y29547031D01*
X-2407053Y29108342D01*
X-2674574Y28607845D01*
X-2839313Y28064775D01*
X-2880999Y27641526D01*
X-2881000Y18358475D01*
X-2839314Y17935226D01*
X-2674575Y17392156D01*
X-2407054Y16891659D01*
X-2047031Y16452970D01*
X-1608342Y16092946D01*
X-1382843Y15972414D01*
X-1382843Y11500000D01*
X-1375487Y11425311D01*
X-1353701Y11353492D01*
X-1318322Y11287304D01*
X-1270711Y11229289D01*
X-1212696Y11181678D01*
X-1146508Y11146299D01*
X-1074689Y11124513D01*
X-1000000Y11117157D01*
X1000000Y11117157D01*
X1074689Y11124513D01*
X1146508Y11146299D01*
X1212696Y11181678D01*
X1270711Y11229289D01*
X1318322Y11287304D01*
X1353701Y11353492D01*
X1375487Y11425311D01*
X1382843Y11500000D01*
X1382843Y13119000D01*
X7369000Y13119000D01*
X7369001Y2793282D01*
X7369000Y2793273D01*
X7364738Y2750000D01*
X7369000Y2706730D01*
X7369001Y-5506717D01*
X7364738Y-5550000D01*
X7369000Y-5593273D01*
X7369001Y-6506719D01*
X7369000Y-6506728D01*
X7369001Y-7688007D01*
X1938009Y-13119000D01*
X1382843Y-13119000D01*
X1382843Y-11500000D01*
X1375487Y-11425311D01*
X1353701Y-11353492D01*
X1318322Y-11287304D01*
X1270711Y-11229289D01*
X1212696Y-11181678D01*
X1146508Y-11146299D01*
X1074689Y-11124513D01*
X1000000Y-11117157D01*
X-1000000Y-11117157D01*
X-1074689Y-11124513D01*
X-1146508Y-11146299D01*
X-1212696Y-11181678D01*
X-1270711Y-11229289D01*
X-1318322Y-11287304D01*
X-1353701Y-11353492D01*
X-1375487Y-11425311D01*
X-1382843Y-11500000D01*
X-1382843Y-13119000D01*
X-31135078Y-13119000D01*
X-34038561Y-10215517D01*
X-33812994Y-9989950D01*
X-33616147Y-9750091D01*
X-33469877Y-9476439D01*
X-33379804Y-9179508D01*
X-33349390Y-8870711D01*
X-33379804Y-8561914D01*
X-33469877Y-8264983D01*
X-33616147Y-7991331D01*
X-33812994Y-7751472D01*
X-35651472Y-5912994D01*
X-35666005Y-5901067D01*
X-35727216Y-5839856D01*
X-35799193Y-5791763D01*
X-35891331Y-5716147D01*
X-35996452Y-5659959D01*
X-36182703Y-5535510D01*
X-36688812Y-5325872D01*
X-37226095Y-5219000D01*
X-37773905Y-5219000D01*
X-38311188Y-5325872D01*
X-38817297Y-5535510D01*
X-39272784Y-5839856D01*
X-39660144Y-6227216D01*
X-39964490Y-6682703D01*
X-40174128Y-7188812D01*
X-40281000Y-7726095D01*
X-40738124Y-7726095D01*
X-40717371Y658328D01*
X-25653484Y658328D01*
X-25653484Y-258328D01*
X-25474653Y-1157371D01*
X-25123864Y-2004251D01*
X-24614597Y-2766423D01*
X-23966423Y-3414597D01*
X-23204251Y-3923864D01*
X-22357371Y-4274653D01*
X-21458328Y-4453484D01*
X-20541672Y-4453484D01*
X-19642629Y-4274653D01*
X-18795749Y-3923864D01*
X-18191234Y-3519940D01*
X-6346000Y-3519940D01*
X-6344262Y-3537588D01*
X-6344305Y-3543779D01*
X-6343752Y-3549421D01*
X-6323351Y-3743518D01*
X-6315944Y-3779604D01*
X-6309056Y-3815708D01*
X-6307418Y-3821135D01*
X-6249706Y-4007573D01*
X-6235445Y-4041500D01*
X-6221662Y-4075613D01*
X-6219001Y-4080619D01*
X-6126176Y-4252296D01*
X-6105586Y-4282821D01*
X-6085449Y-4313594D01*
X-6081866Y-4317988D01*
X-5957462Y-4468365D01*
X-5931330Y-4494316D01*
X-5905606Y-4520584D01*
X-5901244Y-4524193D01*
X-5901238Y-4524199D01*
X-5901231Y-4524203D01*
X-5749996Y-4647548D01*
X-5719316Y-4667932D01*
X-5688984Y-4688701D01*
X-5684002Y-4691395D01*
X-5683998Y-4691398D01*
X-5683994Y-4691400D01*
X-5511675Y-4783023D01*
X-5477652Y-4797046D01*
X-5443832Y-4811541D01*
X-5438417Y-4813218D01*
X-5251580Y-4869627D01*
X-5215425Y-4876786D01*
X-5179491Y-4884424D01*
X-5173862Y-4885016D01*
X-5173852Y-4885018D01*
X-5173843Y-4885018D01*
X-4979620Y-4904062D01*
X-4979618Y-4904062D01*
X-4959941Y-4906000D01*
X5579941Y-4906000D01*
X5597589Y-4904262D01*
X5603779Y-4904305D01*
X5609421Y-4903752D01*
X5803518Y-4883351D01*
X5839604Y-4875944D01*
X5875708Y-4869056D01*
X5881133Y-4867419D01*
X5881139Y-4867417D01*
X6067573Y-4809706D01*
X6101500Y-4795445D01*
X6135613Y-4781662D01*
X6140619Y-4779001D01*
X6312296Y-4686176D01*
X6342821Y-4665586D01*
X6373594Y-4645449D01*
X6377988Y-4641866D01*
X6528365Y-4517462D01*
X6554316Y-4491330D01*
X6580584Y-4465606D01*
X6584193Y-4461244D01*
X6584199Y-4461238D01*
X6584203Y-4461231D01*
X6707548Y-4309996D01*
X6727932Y-4279316D01*
X6748701Y-4248984D01*
X6751395Y-4244002D01*
X6751398Y-4243998D01*
X6751400Y-4243994D01*
X6843023Y-4071675D01*
X6857046Y-4037652D01*
X6871541Y-4003832D01*
X6873218Y-3998417D01*
X6929627Y-3811580D01*
X6936786Y-3775425D01*
X6944424Y-3739491D01*
X6945016Y-3733862D01*
X6945018Y-3733852D01*
X6945018Y-3733843D01*
X6964062Y-3539620D01*
X6964062Y-3539618D01*
X6966000Y-3519941D01*
X6966000Y3519941D01*
X6964262Y3537589D01*
X6964305Y3543779D01*
X6963752Y3549421D01*
X6943351Y3743518D01*
X6935944Y3779604D01*
X6929056Y3815708D01*
X6927418Y3821135D01*
X6869706Y4007573D01*
X6855445Y4041500D01*
X6841662Y4075613D01*
X6839001Y4080619D01*
X6746176Y4252296D01*
X6725558Y4282863D01*
X6705448Y4313594D01*
X6701866Y4317988D01*
X6577462Y4468366D01*
X6551311Y4494336D01*
X6525606Y4520584D01*
X6521244Y4524193D01*
X6521238Y4524199D01*
X6521231Y4524203D01*
X6369996Y4647548D01*
X6339331Y4667922D01*
X6308984Y4688701D01*
X6304002Y4691395D01*
X6303998Y4691398D01*
X6303994Y4691400D01*
X6131675Y4783023D01*
X6097640Y4797051D01*
X6063832Y4811541D01*
X6058417Y4813218D01*
X5871581Y4869627D01*
X5835411Y4876789D01*
X5799491Y4884424D01*
X5793864Y4885016D01*
X5793853Y4885018D01*
X5793843Y4885018D01*
X5599619Y4904062D01*
X5599618Y4904062D01*
X5579941Y4906000D01*
X-4959941Y4906000D01*
X-4977589Y4904262D01*
X-4983779Y4904305D01*
X-4989421Y4903752D01*
X-5183518Y4883351D01*
X-5219604Y4875944D01*
X-5255708Y4869056D01*
X-5261133Y4867419D01*
X-5261139Y4867417D01*
X-5447573Y4809706D01*
X-5481500Y4795445D01*
X-5515613Y4781662D01*
X-5520619Y4779001D01*
X-5692296Y4686176D01*
X-5722863Y4665558D01*
X-5753594Y4645448D01*
X-5757988Y4641866D01*
X-5908366Y4517462D01*
X-5934336Y4491311D01*
X-5960584Y4465606D01*
X-5964193Y4461244D01*
X-5964199Y4461238D01*
X-5964203Y4461231D01*
X-6087548Y4309996D01*
X-6107922Y4279331D01*
X-6128701Y4248984D01*
X-6131395Y4244002D01*
X-6131398Y4243998D01*
X-6131398Y4243997D01*
X-6223023Y4071675D01*
X-6237051Y4037640D01*
X-6251541Y4003832D01*
X-6253218Y3998417D01*
X-6309627Y3811581D01*
X-6316789Y3775411D01*
X-6324424Y3739491D01*
X-6325016Y3733864D01*
X-6325018Y3733853D01*
X-6325018Y3733843D01*
X-6344062Y3539619D01*
X-6344062Y3539607D01*
X-6345999Y3519941D01*
X-6346000Y-3519940D01*
X-18191234Y-3519940D01*
X-18033577Y-3414597D01*
X-17385403Y-2766423D01*
X-16876136Y-2004251D01*
X-16525347Y-1157371D01*
X-16346516Y-258328D01*
X-16346516Y658328D01*
X-16525347Y1557371D01*
X-16876136Y2404251D01*
X-17385403Y3166423D01*
X-18033577Y3814597D01*
X-18795749Y4323864D01*
X-19642629Y4674653D01*
X-20541672Y4853484D01*
X-21458328Y4853484D01*
X-22357371Y4674653D01*
X-23204251Y4323864D01*
X-23966423Y3814597D01*
X-24614597Y3166423D01*
X-25123864Y2404251D01*
X-25474653Y1557371D01*
X-25653484Y658328D01*
X-40717371Y658328D01*
X-40698256Y8380211D01*
X-40695361Y8374795D01*
X-40616008Y8278104D01*
X-40281000Y7944068D01*
X-40281000Y7726095D01*
X-40174128Y7188812D01*
X-39964490Y6682703D01*
X-39660144Y6227216D01*
X-39272784Y5839856D01*
X-38817297Y5535510D01*
X-38311188Y5325872D01*
X-37773905Y5219000D01*
X-37555932Y5219000D01*
X-37221896Y4883992D01*
X-37125205Y4804639D01*
X-37014890Y4745675D01*
X-36895192Y4709365D01*
X-36770711Y4697105D01*
X-36646229Y4709365D01*
X-36526531Y4745675D01*
X-36416217Y4804639D01*
X-36319526Y4883992D01*
X-34755987Y6451875D01*
X-34755987Y6676382D01*
X-34955491Y6875886D01*
X-34850280Y7129885D01*
X-34576382Y6855987D01*
X-34351875Y6855987D01*
X-32783992Y8419526D01*
X-32704639Y8516217D01*
X-32645675Y8626531D01*
X-32609365Y8746229D01*
X-32597105Y8870711D01*
X-32609365Y8995192D01*
X-32645675Y9114890D01*
X-32704639Y9225205D01*
X-32783992Y9321896D01*
X-34281164Y10814724D01*
X-34505671Y10814724D01*
X-35443734Y9876662D01*
X-35623339Y10056267D01*
X-34685276Y10994329D01*
X-34685276Y11218836D01*
X-36178104Y12716008D01*
X-36274795Y12795361D01*
X-36385110Y12854325D01*
X-36504808Y12890635D01*
X-36629289Y12902895D01*
X-36753771Y12890635D01*
X-36873469Y12854325D01*
X-36983783Y12795361D01*
X-37080474Y12716008D01*
X-38644013Y11148125D01*
X-38644013Y10923618D01*
X-38370115Y10649720D01*
X-38624114Y10544509D01*
X-38823618Y10744013D01*
X-39048125Y10744013D01*
X-40616008Y9180474D01*
X-40695361Y9083783D01*
X-40696520Y9081615D01*
X-40633604Y34500000D01*
X-1638072Y34500000D01*
X-1635000Y32285750D01*
X-1476250Y32127000D01*
X-127000Y32127000D01*
X-127000Y34976250D01*
X127000Y34976250D01*
X127000Y32127000D01*
X1476250Y32127000D01*
X1635000Y32285750D01*
X1638072Y34500000D01*
X1625812Y34624482D01*
X1589502Y34744180D01*
X1530537Y34854494D01*
X1451185Y34951185D01*
X1354494Y35030537D01*
X1244180Y35089502D01*
X1124482Y35125812D01*
X1000000Y35138072D01*
X285750Y35135000D01*
X127000Y34976250D01*
X-127000Y34976250D01*
X-285750Y35135000D01*
X-1000000Y35138072D01*
X-1124482Y35125812D01*
X-1244180Y35089502D01*
X-1354494Y35030537D01*
X-1451185Y34951185D01*
X-1530537Y34854494D01*
X-1589502Y34744180D01*
X-1625812Y34624482D01*
X-1638072Y34500000D01*
X-40633604Y34500000D01*
X-40595004Y50094000D01*
X40844000Y50094000D01*
X40844001Y-50094000D01*
%TA.AperFunction,Conductor*%
D17*
G36*
X40844001Y-50094000D02*
G01*
X-40842994Y-50094000D01*
X-40804396Y-34500000D01*
X-1638072Y-34500000D01*
X-1625812Y-34624482D01*
X-1589502Y-34744180D01*
X-1530537Y-34854494D01*
X-1451185Y-34951185D01*
X-1354494Y-35030537D01*
X-1244180Y-35089502D01*
X-1124482Y-35125812D01*
X-1000000Y-35138072D01*
X-285750Y-35135000D01*
X-127000Y-34976250D01*
X-127000Y-32127000D01*
X127000Y-32127000D01*
X127000Y-34976250D01*
X285750Y-35135000D01*
X1000000Y-35138072D01*
X1124482Y-35125812D01*
X1244180Y-35089502D01*
X1354494Y-35030537D01*
X1451185Y-34951185D01*
X1530537Y-34854494D01*
X1589502Y-34744180D01*
X1625812Y-34624482D01*
X1638072Y-34500000D01*
X1635000Y-32285750D01*
X1476250Y-32127000D01*
X127000Y-32127000D01*
X-127000Y-32127000D01*
X-1476250Y-32127000D01*
X-1635000Y-32285750D01*
X-1638072Y-34500000D01*
X-40804396Y-34500000D01*
X-40738124Y-7726095D01*
X-40281000Y-7726095D01*
X-40281000Y-8273905D01*
X-40174128Y-8811188D01*
X-39964490Y-9317297D01*
X-39840041Y-9503548D01*
X-39783853Y-9608669D01*
X-39708237Y-9700807D01*
X-39660144Y-9772784D01*
X-39598933Y-9833995D01*
X-39587006Y-9848528D01*
X-37748528Y-11687006D01*
X-37508669Y-11883853D01*
X-37235017Y-12030123D01*
X-36938086Y-12120196D01*
X-36629289Y-12150610D01*
X-36320492Y-12120196D01*
X-36023561Y-12030123D01*
X-35749909Y-11883853D01*
X-35510050Y-11687006D01*
X-35284483Y-11461439D01*
X-32153561Y-14592361D01*
X-32125975Y-14625975D01*
X-32092363Y-14653559D01*
X-31991826Y-14736068D01*
X-31838775Y-14817875D01*
X-31672706Y-14868252D01*
X-31543273Y-14881000D01*
X-31543271Y-14881000D01*
X-31500001Y-14885262D01*
X-31456731Y-14881000D01*
X-1382843Y-14881000D01*
X-1382843Y-15972414D01*
X-1608342Y-16092946D01*
X-2047031Y-16452970D01*
X-2407054Y-16891659D01*
X-2674575Y-17392156D01*
X-2839314Y-17935226D01*
X-2881000Y-18358475D01*
X-2880999Y-27641526D01*
X-2839313Y-28064775D01*
X-2674574Y-28607845D01*
X-2407053Y-29108342D01*
X-2047030Y-29547031D01*
X-1637541Y-29883091D01*
X-1635000Y-31714250D01*
X-1476250Y-31873000D01*
X-127000Y-31873000D01*
X-127000Y-31853000D01*
X127000Y-31853000D01*
X127000Y-31873000D01*
X1476250Y-31873000D01*
X1635000Y-31714250D01*
X1637541Y-29883091D01*
X2047031Y-29547031D01*
X2407054Y-29108342D01*
X2674575Y-28607845D01*
X2839314Y-28064775D01*
X2881000Y-27641526D01*
X2881000Y-18358474D01*
X2839314Y-17935225D01*
X2674575Y-17392155D01*
X2407054Y-16891658D01*
X2047030Y-16452969D01*
X1608341Y-16092946D01*
X1382843Y-15972415D01*
X1382843Y-14881000D01*
X2259660Y-14881000D01*
X2302930Y-14885262D01*
X2346200Y-14881000D01*
X2346203Y-14881000D01*
X2475636Y-14868252D01*
X2641705Y-14817875D01*
X2794755Y-14736068D01*
X2928905Y-14625975D01*
X2956496Y-14592355D01*
X8842361Y-8706491D01*
X8875975Y-8678905D01*
X8936784Y-8604808D01*
X8986068Y-8544756D01*
X9067875Y-8391705D01*
X9100164Y-8285262D01*
X9118252Y-8225636D01*
X9131000Y-8096203D01*
X9131000Y-8096201D01*
X9135262Y-8052931D01*
X9131000Y-8009661D01*
X9131000Y-6431000D01*
X9485079Y-6431000D01*
X10819000Y-7764922D01*
X10819001Y-10717157D01*
X10700000Y-10717157D01*
X10625311Y-10724513D01*
X10553492Y-10746299D01*
X10487304Y-10781678D01*
X10429289Y-10829289D01*
X10381678Y-10887304D01*
X10346299Y-10953492D01*
X10324513Y-11025311D01*
X10317157Y-11100000D01*
X10317157Y-14900000D01*
X10324513Y-14974689D01*
X10346299Y-15046508D01*
X10381678Y-15112696D01*
X10429289Y-15170711D01*
X10487304Y-15218322D01*
X10553492Y-15253701D01*
X10625311Y-15275487D01*
X10700000Y-15282843D01*
X12700000Y-15282843D01*
X12774689Y-15275487D01*
X12846508Y-15253701D01*
X12912696Y-15218322D01*
X12970711Y-15170711D01*
X13018322Y-15112696D01*
X13053701Y-15046508D01*
X13075487Y-14974689D01*
X13082843Y-14900000D01*
X13661928Y-14900000D01*
X13674188Y-15024482D01*
X13710498Y-15144180D01*
X13769463Y-15254494D01*
X13848815Y-15351185D01*
X13945506Y-15430537D01*
X14055820Y-15489502D01*
X14175518Y-15525812D01*
X14300000Y-15538072D01*
X15014250Y-15535000D01*
X15173000Y-15376250D01*
X15173000Y-13127000D01*
X15427000Y-13127000D01*
X15427000Y-15376250D01*
X15585750Y-15535000D01*
X16300000Y-15538072D01*
X16424482Y-15525812D01*
X16544180Y-15489502D01*
X16654494Y-15430537D01*
X16751185Y-15351185D01*
X16830537Y-15254494D01*
X16889502Y-15144180D01*
X16925812Y-15024482D01*
X16938072Y-14900000D01*
X16935000Y-13285750D01*
X16776250Y-13127000D01*
X15427000Y-13127000D01*
X15173000Y-13127000D01*
X13823750Y-13127000D01*
X13665000Y-13285750D01*
X13661928Y-14900000D01*
X13082843Y-14900000D01*
X13082843Y-11100000D01*
X13661928Y-11100000D01*
X13665000Y-12714250D01*
X13823750Y-12873000D01*
X15173000Y-12873000D01*
X15173000Y-10623750D01*
X15427000Y-10623750D01*
X15427000Y-12873000D01*
X16776250Y-12873000D01*
X16935000Y-12714250D01*
X16938072Y-11100000D01*
X16925812Y-10975518D01*
X16889502Y-10855820D01*
X16830537Y-10745506D01*
X16751185Y-10648815D01*
X16654494Y-10569463D01*
X16544180Y-10510498D01*
X16424482Y-10474188D01*
X16300000Y-10461928D01*
X15585750Y-10465000D01*
X15427000Y-10623750D01*
X15173000Y-10623750D01*
X15014250Y-10465000D01*
X14300000Y-10461928D01*
X14175518Y-10474188D01*
X14055820Y-10510498D01*
X13945506Y-10569463D01*
X13848815Y-10648815D01*
X13769463Y-10745506D01*
X13710498Y-10855820D01*
X13674188Y-10975518D01*
X13661928Y-11100000D01*
X13082843Y-11100000D01*
X13075487Y-11025311D01*
X13053701Y-10953492D01*
X13018322Y-10887304D01*
X12970711Y-10829289D01*
X12912696Y-10781678D01*
X12846508Y-10746299D01*
X12774689Y-10724513D01*
X12700000Y-10717157D01*
X12581000Y-10717157D01*
X12581000Y-8870711D01*
X32597105Y-8870711D01*
X32609365Y-8995192D01*
X32645675Y-9114890D01*
X32704639Y-9225205D01*
X32783992Y-9321896D01*
X34281164Y-10814724D01*
X34505671Y-10814724D01*
X35443734Y-9876662D01*
X35623339Y-10056267D01*
X34685276Y-10994329D01*
X34685276Y-11218836D01*
X36178104Y-12716008D01*
X36274795Y-12795361D01*
X36385110Y-12854325D01*
X36504808Y-12890635D01*
X36629289Y-12902895D01*
X36753771Y-12890635D01*
X36873469Y-12854325D01*
X36983783Y-12795361D01*
X37080474Y-12716008D01*
X38644013Y-11148125D01*
X38644013Y-10923618D01*
X38370115Y-10649720D01*
X38624114Y-10544509D01*
X38823618Y-10744013D01*
X39048125Y-10744013D01*
X40616008Y-9180474D01*
X40695361Y-9083783D01*
X40754325Y-8973469D01*
X40790635Y-8853771D01*
X40802895Y-8729289D01*
X40790635Y-8604808D01*
X40754325Y-8485110D01*
X40695361Y-8374795D01*
X40616008Y-8278104D01*
X40281000Y-7944068D01*
X40281000Y-7726095D01*
X40174128Y-7188812D01*
X39964490Y-6682703D01*
X39660144Y-6227216D01*
X39272784Y-5839856D01*
X38817297Y-5535510D01*
X38311188Y-5325872D01*
X37773905Y-5219000D01*
X37555932Y-5219000D01*
X37221896Y-4883992D01*
X37125205Y-4804639D01*
X37014890Y-4745675D01*
X36895192Y-4709365D01*
X36770711Y-4697105D01*
X36646229Y-4709365D01*
X36526531Y-4745675D01*
X36416217Y-4804639D01*
X36319526Y-4883992D01*
X34755987Y-6451875D01*
X34755987Y-6676382D01*
X34955491Y-6875886D01*
X34850280Y-7129885D01*
X34576382Y-6855987D01*
X34351875Y-6855987D01*
X32783992Y-8419526D01*
X32704639Y-8516217D01*
X32645675Y-8626531D01*
X32609365Y-8746229D01*
X32597105Y-8870711D01*
X12581000Y-8870711D01*
X12581000Y-7443269D01*
X12585262Y-7399999D01*
X12581000Y-7356727D01*
X12568252Y-7227294D01*
X12517875Y-7061225D01*
X12436069Y-6908176D01*
X12436068Y-6908174D01*
X12353559Y-6807637D01*
X12325975Y-6774025D01*
X12292362Y-6746440D01*
X10503566Y-4957645D01*
X10475975Y-4924025D01*
X10341825Y-4813932D01*
X10188775Y-4732125D01*
X10022706Y-4681748D01*
X9893273Y-4669000D01*
X9893270Y-4669000D01*
X9850000Y-4664738D01*
X9806730Y-4669000D01*
X9131000Y-4669000D01*
X9131000Y-230060D01*
X17994000Y-230060D01*
X17994001Y-1769941D01*
X17995704Y-1787235D01*
X17995683Y-1790287D01*
X17996236Y-1795929D01*
X18006436Y-1892977D01*
X18013839Y-1929043D01*
X18020731Y-1965169D01*
X18022369Y-1970596D01*
X18051225Y-2063815D01*
X18065495Y-2097762D01*
X18079271Y-2131858D01*
X18081926Y-2136853D01*
X18081930Y-2136861D01*
X18081935Y-2136868D01*
X18128344Y-2222701D01*
X18148944Y-2253242D01*
X18169070Y-2283997D01*
X18172653Y-2288391D01*
X18234855Y-2363580D01*
X18261005Y-2389548D01*
X18286709Y-2415796D01*
X18291071Y-2419405D01*
X18291079Y-2419413D01*
X18291088Y-2419419D01*
X18366697Y-2481086D01*
X18397360Y-2501459D01*
X18427714Y-2522242D01*
X18432701Y-2524939D01*
X18518861Y-2570751D01*
X18552911Y-2584785D01*
X18586701Y-2599267D01*
X18592116Y-2600944D01*
X18685534Y-2629149D01*
X18721625Y-2636295D01*
X18757628Y-2643948D01*
X18763257Y-2644539D01*
X18763262Y-2644540D01*
X18763266Y-2644540D01*
X18860383Y-2654063D01*
X18860393Y-2654063D01*
X18880059Y-2656000D01*
X31919941Y-2656000D01*
X31937244Y-2654296D01*
X31940287Y-2654317D01*
X31945929Y-2653764D01*
X32042977Y-2643564D01*
X32079043Y-2636161D01*
X32115169Y-2629269D01*
X32120596Y-2627631D01*
X32213815Y-2598775D01*
X32247762Y-2584505D01*
X32281858Y-2570729D01*
X32286853Y-2568074D01*
X32286861Y-2568070D01*
X32286868Y-2568065D01*
X32372701Y-2521656D01*
X32403242Y-2501056D01*
X32433997Y-2480930D01*
X32438391Y-2477347D01*
X32513580Y-2415145D01*
X32539548Y-2388995D01*
X32565796Y-2363291D01*
X32569405Y-2358929D01*
X32569413Y-2358921D01*
X32569419Y-2358912D01*
X32631086Y-2283303D01*
X32651459Y-2252640D01*
X32672242Y-2222286D01*
X32674939Y-2217299D01*
X32720751Y-2131139D01*
X32734785Y-2097089D01*
X32749267Y-2063299D01*
X32750944Y-2057884D01*
X32779149Y-1964466D01*
X32786295Y-1928375D01*
X32793948Y-1892372D01*
X32794540Y-1886734D01*
X32804063Y-1789617D01*
X32804063Y-1789607D01*
X32806000Y-1769941D01*
X32806000Y-230059D01*
X32804296Y-212756D01*
X32804317Y-209714D01*
X32803764Y-204072D01*
X32793564Y-107023D01*
X32786161Y-70957D01*
X32779269Y-34831D01*
X32777631Y-29404D01*
X32748775Y63815D01*
X32734505Y97762D01*
X32720729Y131858D01*
X32718068Y136864D01*
X32671655Y222701D01*
X32651078Y253207D01*
X32630930Y283997D01*
X32627347Y288391D01*
X32565145Y363580D01*
X32538995Y389548D01*
X32513291Y415796D01*
X32508929Y419405D01*
X32508921Y419413D01*
X32508912Y419419D01*
X32433302Y481086D01*
X32402658Y501447D01*
X32372286Y522242D01*
X32367299Y524939D01*
X32281138Y570751D01*
X32247102Y584779D01*
X32213299Y599267D01*
X32207884Y600944D01*
X32114466Y629149D01*
X32078345Y636301D01*
X32042372Y643947D01*
X32036743Y644539D01*
X32036738Y644540D01*
X32036734Y644540D01*
X31939740Y654050D01*
X31919941Y656000D01*
X18880059Y656000D01*
X18862756Y654296D01*
X18859714Y654317D01*
X18854072Y653764D01*
X18757023Y643564D01*
X18720957Y636161D01*
X18684831Y629269D01*
X18679404Y627631D01*
X18586185Y598775D01*
X18552238Y584505D01*
X18518142Y570729D01*
X18513143Y568072D01*
X18513139Y568070D01*
X18513136Y568068D01*
X18427299Y521655D01*
X18396793Y501078D01*
X18366003Y480930D01*
X18361609Y477347D01*
X18286420Y415145D01*
X18260452Y388995D01*
X18234204Y363291D01*
X18230595Y358929D01*
X18230587Y358921D01*
X18230581Y358912D01*
X18168914Y283302D01*
X18148553Y252658D01*
X18127758Y222286D01*
X18125061Y217299D01*
X18079249Y131138D01*
X18065221Y97102D01*
X18050733Y63299D01*
X18049056Y57884D01*
X18020851Y-35534D01*
X18013699Y-71655D01*
X18006053Y-107628D01*
X18005460Y-113266D01*
X17995991Y-209845D01*
X17994000Y-230060D01*
X9131000Y-230060D01*
X9131000Y2584874D01*
X9133251Y2592294D01*
X9150262Y2764999D01*
X9133251Y2937705D01*
X9131000Y2945125D01*
X9131000Y13119000D01*
X31135079Y13119000D01*
X34038561Y10215517D01*
X33812994Y9989950D01*
X33616147Y9750091D01*
X33469877Y9476439D01*
X33379804Y9179508D01*
X33349390Y8870711D01*
X33379804Y8561914D01*
X33469877Y8264983D01*
X33616147Y7991331D01*
X33812994Y7751472D01*
X35651472Y5912994D01*
X35666005Y5901067D01*
X35727216Y5839856D01*
X35799193Y5791763D01*
X35891331Y5716147D01*
X35996452Y5659959D01*
X36182703Y5535510D01*
X36688812Y5325872D01*
X37226095Y5219000D01*
X37773905Y5219000D01*
X38311188Y5325872D01*
X38817297Y5535510D01*
X39272784Y5839856D01*
X39660144Y6227216D01*
X39964490Y6682703D01*
X40174128Y7188812D01*
X40281000Y7726095D01*
X40281000Y8273905D01*
X40174128Y8811188D01*
X39964490Y9317297D01*
X39840041Y9503548D01*
X39783853Y9608669D01*
X39708237Y9700807D01*
X39660144Y9772784D01*
X39598933Y9833995D01*
X39587006Y9848528D01*
X37748528Y11687006D01*
X37508669Y11883853D01*
X37235017Y12030123D01*
X36938086Y12120196D01*
X36629289Y12150610D01*
X36320492Y12120196D01*
X36023561Y12030123D01*
X35749909Y11883853D01*
X35510050Y11687006D01*
X35284483Y11461439D01*
X32153566Y14592355D01*
X32125975Y14625975D01*
X31991825Y14736068D01*
X31838775Y14817875D01*
X31672706Y14868252D01*
X31543273Y14881000D01*
X31543270Y14881000D01*
X31500000Y14885262D01*
X31456730Y14881000D01*
X8243270Y14881000D01*
X8200000Y14885262D01*
X8156730Y14881000D01*
X1382843Y14881000D01*
X1382843Y15972415D01*
X1608341Y16092946D01*
X2047030Y16452969D01*
X2407054Y16891658D01*
X2674575Y17392155D01*
X2839314Y17935225D01*
X2881000Y18358474D01*
X2881000Y27641526D01*
X2839314Y28064775D01*
X2674575Y28607845D01*
X2407054Y29108342D01*
X2047031Y29547031D01*
X1637541Y29883091D01*
X1635000Y31714250D01*
X1476250Y31873000D01*
X127000Y31873000D01*
X127000Y31853000D01*
X-127000Y31853000D01*
X-127000Y31873000D01*
X-1476250Y31873000D01*
X-1635000Y31714250D01*
X-1637541Y29883091D01*
X-2047030Y29547031D01*
X-2407053Y29108342D01*
X-2674574Y28607845D01*
X-2839313Y28064775D01*
X-2880999Y27641526D01*
X-2881000Y18358475D01*
X-2839314Y17935226D01*
X-2674575Y17392156D01*
X-2407054Y16891659D01*
X-2047031Y16452970D01*
X-1608342Y16092946D01*
X-1382843Y15972414D01*
X-1382843Y11500000D01*
X-1375487Y11425311D01*
X-1353701Y11353492D01*
X-1318322Y11287304D01*
X-1270711Y11229289D01*
X-1212696Y11181678D01*
X-1146508Y11146299D01*
X-1074689Y11124513D01*
X-1000000Y11117157D01*
X1000000Y11117157D01*
X1074689Y11124513D01*
X1146508Y11146299D01*
X1212696Y11181678D01*
X1270711Y11229289D01*
X1318322Y11287304D01*
X1353701Y11353492D01*
X1375487Y11425311D01*
X1382843Y11500000D01*
X1382843Y13119000D01*
X7369000Y13119000D01*
X7369001Y2793282D01*
X7369000Y2793273D01*
X7364738Y2750000D01*
X7369000Y2706730D01*
X7369001Y-5506717D01*
X7364738Y-5550000D01*
X7369000Y-5593273D01*
X7369001Y-6506719D01*
X7369000Y-6506728D01*
X7369001Y-7688007D01*
X1938009Y-13119000D01*
X1382843Y-13119000D01*
X1382843Y-11500000D01*
X1375487Y-11425311D01*
X1353701Y-11353492D01*
X1318322Y-11287304D01*
X1270711Y-11229289D01*
X1212696Y-11181678D01*
X1146508Y-11146299D01*
X1074689Y-11124513D01*
X1000000Y-11117157D01*
X-1000000Y-11117157D01*
X-1074689Y-11124513D01*
X-1146508Y-11146299D01*
X-1212696Y-11181678D01*
X-1270711Y-11229289D01*
X-1318322Y-11287304D01*
X-1353701Y-11353492D01*
X-1375487Y-11425311D01*
X-1382843Y-11500000D01*
X-1382843Y-13119000D01*
X-31135078Y-13119000D01*
X-34038561Y-10215517D01*
X-33812994Y-9989950D01*
X-33616147Y-9750091D01*
X-33469877Y-9476439D01*
X-33379804Y-9179508D01*
X-33349390Y-8870711D01*
X-33379804Y-8561914D01*
X-33469877Y-8264983D01*
X-33616147Y-7991331D01*
X-33812994Y-7751472D01*
X-35651472Y-5912994D01*
X-35666005Y-5901067D01*
X-35727216Y-5839856D01*
X-35799193Y-5791763D01*
X-35891331Y-5716147D01*
X-35996452Y-5659959D01*
X-36182703Y-5535510D01*
X-36688812Y-5325872D01*
X-37226095Y-5219000D01*
X-37773905Y-5219000D01*
X-38311188Y-5325872D01*
X-38817297Y-5535510D01*
X-39272784Y-5839856D01*
X-39660144Y-6227216D01*
X-39964490Y-6682703D01*
X-40174128Y-7188812D01*
X-40281000Y-7726095D01*
X-40738124Y-7726095D01*
X-40717371Y658328D01*
X-25653484Y658328D01*
X-25653484Y-258328D01*
X-25474653Y-1157371D01*
X-25123864Y-2004251D01*
X-24614597Y-2766423D01*
X-23966423Y-3414597D01*
X-23204251Y-3923864D01*
X-22357371Y-4274653D01*
X-21458328Y-4453484D01*
X-20541672Y-4453484D01*
X-19642629Y-4274653D01*
X-18795749Y-3923864D01*
X-18191234Y-3519940D01*
X-6346000Y-3519940D01*
X-6344262Y-3537588D01*
X-6344305Y-3543779D01*
X-6343752Y-3549421D01*
X-6323351Y-3743518D01*
X-6315944Y-3779604D01*
X-6309056Y-3815708D01*
X-6307418Y-3821135D01*
X-6249706Y-4007573D01*
X-6235445Y-4041500D01*
X-6221662Y-4075613D01*
X-6219001Y-4080619D01*
X-6126176Y-4252296D01*
X-6105586Y-4282821D01*
X-6085449Y-4313594D01*
X-6081866Y-4317988D01*
X-5957462Y-4468365D01*
X-5931330Y-4494316D01*
X-5905606Y-4520584D01*
X-5901244Y-4524193D01*
X-5901238Y-4524199D01*
X-5901231Y-4524203D01*
X-5749996Y-4647548D01*
X-5719316Y-4667932D01*
X-5688984Y-4688701D01*
X-5684002Y-4691395D01*
X-5683998Y-4691398D01*
X-5683994Y-4691400D01*
X-5511675Y-4783023D01*
X-5477652Y-4797046D01*
X-5443832Y-4811541D01*
X-5438417Y-4813218D01*
X-5251580Y-4869627D01*
X-5215425Y-4876786D01*
X-5179491Y-4884424D01*
X-5173862Y-4885016D01*
X-5173852Y-4885018D01*
X-5173843Y-4885018D01*
X-4979620Y-4904062D01*
X-4979618Y-4904062D01*
X-4959941Y-4906000D01*
X5579941Y-4906000D01*
X5597589Y-4904262D01*
X5603779Y-4904305D01*
X5609421Y-4903752D01*
X5803518Y-4883351D01*
X5839604Y-4875944D01*
X5875708Y-4869056D01*
X5881133Y-4867419D01*
X5881139Y-4867417D01*
X6067573Y-4809706D01*
X6101500Y-4795445D01*
X6135613Y-4781662D01*
X6140619Y-4779001D01*
X6312296Y-4686176D01*
X6342821Y-4665586D01*
X6373594Y-4645449D01*
X6377988Y-4641866D01*
X6528365Y-4517462D01*
X6554316Y-4491330D01*
X6580584Y-4465606D01*
X6584193Y-4461244D01*
X6584199Y-4461238D01*
X6584203Y-4461231D01*
X6707548Y-4309996D01*
X6727932Y-4279316D01*
X6748701Y-4248984D01*
X6751395Y-4244002D01*
X6751398Y-4243998D01*
X6751400Y-4243994D01*
X6843023Y-4071675D01*
X6857046Y-4037652D01*
X6871541Y-4003832D01*
X6873218Y-3998417D01*
X6929627Y-3811580D01*
X6936786Y-3775425D01*
X6944424Y-3739491D01*
X6945016Y-3733862D01*
X6945018Y-3733852D01*
X6945018Y-3733843D01*
X6964062Y-3539620D01*
X6964062Y-3539618D01*
X6966000Y-3519941D01*
X6966000Y3519941D01*
X6964262Y3537589D01*
X6964305Y3543779D01*
X6963752Y3549421D01*
X6943351Y3743518D01*
X6935944Y3779604D01*
X6929056Y3815708D01*
X6927418Y3821135D01*
X6869706Y4007573D01*
X6855445Y4041500D01*
X6841662Y4075613D01*
X6839001Y4080619D01*
X6746176Y4252296D01*
X6725558Y4282863D01*
X6705448Y4313594D01*
X6701866Y4317988D01*
X6577462Y4468366D01*
X6551311Y4494336D01*
X6525606Y4520584D01*
X6521244Y4524193D01*
X6521238Y4524199D01*
X6521231Y4524203D01*
X6369996Y4647548D01*
X6339331Y4667922D01*
X6308984Y4688701D01*
X6304002Y4691395D01*
X6303998Y4691398D01*
X6303994Y4691400D01*
X6131675Y4783023D01*
X6097640Y4797051D01*
X6063832Y4811541D01*
X6058417Y4813218D01*
X5871581Y4869627D01*
X5835411Y4876789D01*
X5799491Y4884424D01*
X5793864Y4885016D01*
X5793853Y4885018D01*
X5793843Y4885018D01*
X5599619Y4904062D01*
X5599618Y4904062D01*
X5579941Y4906000D01*
X-4959941Y4906000D01*
X-4977589Y4904262D01*
X-4983779Y4904305D01*
X-4989421Y4903752D01*
X-5183518Y4883351D01*
X-5219604Y4875944D01*
X-5255708Y4869056D01*
X-5261133Y4867419D01*
X-5261139Y4867417D01*
X-5447573Y4809706D01*
X-5481500Y4795445D01*
X-5515613Y4781662D01*
X-5520619Y4779001D01*
X-5692296Y4686176D01*
X-5722863Y4665558D01*
X-5753594Y4645448D01*
X-5757988Y4641866D01*
X-5908366Y4517462D01*
X-5934336Y4491311D01*
X-5960584Y4465606D01*
X-5964193Y4461244D01*
X-5964199Y4461238D01*
X-5964203Y4461231D01*
X-6087548Y4309996D01*
X-6107922Y4279331D01*
X-6128701Y4248984D01*
X-6131395Y4244002D01*
X-6131398Y4243998D01*
X-6131398Y4243997D01*
X-6223023Y4071675D01*
X-6237051Y4037640D01*
X-6251541Y4003832D01*
X-6253218Y3998417D01*
X-6309627Y3811581D01*
X-6316789Y3775411D01*
X-6324424Y3739491D01*
X-6325016Y3733864D01*
X-6325018Y3733853D01*
X-6325018Y3733843D01*
X-6344062Y3539619D01*
X-6344062Y3539607D01*
X-6345999Y3519941D01*
X-6346000Y-3519940D01*
X-18191234Y-3519940D01*
X-18033577Y-3414597D01*
X-17385403Y-2766423D01*
X-16876136Y-2004251D01*
X-16525347Y-1157371D01*
X-16346516Y-258328D01*
X-16346516Y658328D01*
X-16525347Y1557371D01*
X-16876136Y2404251D01*
X-17385403Y3166423D01*
X-18033577Y3814597D01*
X-18795749Y4323864D01*
X-19642629Y4674653D01*
X-20541672Y4853484D01*
X-21458328Y4853484D01*
X-22357371Y4674653D01*
X-23204251Y4323864D01*
X-23966423Y3814597D01*
X-24614597Y3166423D01*
X-25123864Y2404251D01*
X-25474653Y1557371D01*
X-25653484Y658328D01*
X-40717371Y658328D01*
X-40698256Y8380211D01*
X-40695361Y8374795D01*
X-40616008Y8278104D01*
X-40281000Y7944068D01*
X-40281000Y7726095D01*
X-40174128Y7188812D01*
X-39964490Y6682703D01*
X-39660144Y6227216D01*
X-39272784Y5839856D01*
X-38817297Y5535510D01*
X-38311188Y5325872D01*
X-37773905Y5219000D01*
X-37555932Y5219000D01*
X-37221896Y4883992D01*
X-37125205Y4804639D01*
X-37014890Y4745675D01*
X-36895192Y4709365D01*
X-36770711Y4697105D01*
X-36646229Y4709365D01*
X-36526531Y4745675D01*
X-36416217Y4804639D01*
X-36319526Y4883992D01*
X-34755987Y6451875D01*
X-34755987Y6676382D01*
X-34955491Y6875886D01*
X-34850280Y7129885D01*
X-34576382Y6855987D01*
X-34351875Y6855987D01*
X-32783992Y8419526D01*
X-32704639Y8516217D01*
X-32645675Y8626531D01*
X-32609365Y8746229D01*
X-32597105Y8870711D01*
X-32609365Y8995192D01*
X-32645675Y9114890D01*
X-32704639Y9225205D01*
X-32783992Y9321896D01*
X-34281164Y10814724D01*
X-34505671Y10814724D01*
X-35443734Y9876662D01*
X-35623339Y10056267D01*
X-34685276Y10994329D01*
X-34685276Y11218836D01*
X-36178104Y12716008D01*
X-36274795Y12795361D01*
X-36385110Y12854325D01*
X-36504808Y12890635D01*
X-36629289Y12902895D01*
X-36753771Y12890635D01*
X-36873469Y12854325D01*
X-36983783Y12795361D01*
X-37080474Y12716008D01*
X-38644013Y11148125D01*
X-38644013Y10923618D01*
X-38370115Y10649720D01*
X-38624114Y10544509D01*
X-38823618Y10744013D01*
X-39048125Y10744013D01*
X-40616008Y9180474D01*
X-40695361Y9083783D01*
X-40696520Y9081615D01*
X-40633604Y34500000D01*
X-1638072Y34500000D01*
X-1635000Y32285750D01*
X-1476250Y32127000D01*
X-127000Y32127000D01*
X-127000Y34976250D01*
X127000Y34976250D01*
X127000Y32127000D01*
X1476250Y32127000D01*
X1635000Y32285750D01*
X1638072Y34500000D01*
X1625812Y34624482D01*
X1589502Y34744180D01*
X1530537Y34854494D01*
X1451185Y34951185D01*
X1354494Y35030537D01*
X1244180Y35089502D01*
X1124482Y35125812D01*
X1000000Y35138072D01*
X285750Y35135000D01*
X127000Y34976250D01*
X-127000Y34976250D01*
X-285750Y35135000D01*
X-1000000Y35138072D01*
X-1124482Y35125812D01*
X-1244180Y35089502D01*
X-1354494Y35030537D01*
X-1451185Y34951185D01*
X-1530537Y34854494D01*
X-1589502Y34744180D01*
X-1625812Y34624482D01*
X-1638072Y34500000D01*
X-40633604Y34500000D01*
X-40595004Y50094000D01*
X40844000Y50094000D01*
X40844001Y-50094000D01*
G37*
%TD.AperFunction*%
%TD*%
M02*
