%TF.GenerationSoftware,KiCad,Pcbnew,(5.1.9)-1*%
%TF.CreationDate,2021-06-23T19:03:09+02:00*%
%TF.ProjectId,Demosat Solar Board KiCAD,44656d6f-7361-4742-9053-6f6c61722042,rev?*%
%TF.SameCoordinates,Original*%
%TF.FileFunction,Paste,Top*%
%TF.FilePolarity,Positive*%
%FSLAX46Y46*%
G04 Gerber Fmt 4.6, Leading zero omitted, Abs format (unit mm)*
G04 Created by KiCad (PCBNEW (5.1.9)-1) date 2021-06-23 19:03:09*
%MOMM*%
%LPD*%
G01*
G04 APERTURE LIST*
%ADD10R,3.500000X2.300000*%
G04 APERTURE END LIST*
D10*
%TO.C,D1*%
X-22950000Y30250000D03*
X-17550000Y30250000D03*
%TD*%
%TO.C,D3*%
X7450000Y30250000D03*
X2050000Y30250000D03*
%TD*%
%TO.C,D2*%
X7450000Y1500000D03*
X2050000Y1500000D03*
%TD*%
%TO.C,D4*%
X-22950000Y1500000D03*
X-17550000Y1500000D03*
%TD*%
M02*
