%TF.GenerationSoftware,KiCad,Pcbnew,(5.1.9)-1*%
%TF.CreationDate,2021-06-23T19:03:09+02:00*%
%TF.ProjectId,Demosat Solar Board KiCAD,44656d6f-7361-4742-9053-6f6c61722042,rev?*%
%TF.SameCoordinates,Original*%
%TF.FileFunction,Legend,Bot*%
%TF.FilePolarity,Positive*%
%FSLAX46Y46*%
G04 Gerber Fmt 4.6, Leading zero omitted, Abs format (unit mm)*
G04 Created by KiCad (PCBNEW (5.1.9)-1) date 2021-06-23 19:03:09*
%MOMM*%
%LPD*%
G01*
G04 APERTURE LIST*
%ADD10C,0.150000*%
G04 APERTURE END LIST*
D10*
X19295238Y-46761904D02*
X19295238Y-47333333D01*
X19333333Y-47447619D01*
X19409523Y-47523809D01*
X19523809Y-47561904D01*
X19600000Y-47561904D01*
X18533333Y-47561904D02*
X18914285Y-47561904D01*
X18914285Y-46761904D01*
X17809523Y-47485714D02*
X17847619Y-47523809D01*
X17961904Y-47561904D01*
X18038095Y-47561904D01*
X18152380Y-47523809D01*
X18228571Y-47447619D01*
X18266666Y-47371428D01*
X18304761Y-47219047D01*
X18304761Y-47104761D01*
X18266666Y-46952380D01*
X18228571Y-46876190D01*
X18152380Y-46800000D01*
X18038095Y-46761904D01*
X17961904Y-46761904D01*
X17847619Y-46800000D01*
X17809523Y-46838095D01*
X17238095Y-46761904D02*
X17238095Y-47333333D01*
X17276190Y-47447619D01*
X17352380Y-47523809D01*
X17466666Y-47561904D01*
X17542857Y-47561904D01*
X16476190Y-47561904D02*
X16857142Y-47561904D01*
X16857142Y-46761904D01*
X15752380Y-47485714D02*
X15790476Y-47523809D01*
X15904761Y-47561904D01*
X15980952Y-47561904D01*
X16095238Y-47523809D01*
X16171428Y-47447619D01*
X16209523Y-47371428D01*
X16247619Y-47219047D01*
X16247619Y-47104761D01*
X16209523Y-46952380D01*
X16171428Y-46876190D01*
X16095238Y-46800000D01*
X15980952Y-46761904D01*
X15904761Y-46761904D01*
X15790476Y-46800000D01*
X15752380Y-46838095D01*
X15180952Y-46761904D02*
X15180952Y-47333333D01*
X15219047Y-47447619D01*
X15295238Y-47523809D01*
X15409523Y-47561904D01*
X15485714Y-47561904D01*
X14419047Y-47561904D02*
X14800000Y-47561904D01*
X14800000Y-46761904D01*
X13695238Y-47485714D02*
X13733333Y-47523809D01*
X13847619Y-47561904D01*
X13923809Y-47561904D01*
X14038095Y-47523809D01*
X14114285Y-47447619D01*
X14152380Y-47371428D01*
X14190476Y-47219047D01*
X14190476Y-47104761D01*
X14152380Y-46952380D01*
X14114285Y-46876190D01*
X14038095Y-46800000D01*
X13923809Y-46761904D01*
X13847619Y-46761904D01*
X13733333Y-46800000D01*
X13695238Y-46838095D01*
X13123809Y-46761904D02*
X13123809Y-47333333D01*
X13161904Y-47447619D01*
X13238095Y-47523809D01*
X13352380Y-47561904D01*
X13428571Y-47561904D01*
X12361904Y-47561904D02*
X12742857Y-47561904D01*
X12742857Y-46761904D01*
X11638095Y-47485714D02*
X11676190Y-47523809D01*
X11790476Y-47561904D01*
X11866666Y-47561904D01*
X11980952Y-47523809D01*
X12057142Y-47447619D01*
X12095238Y-47371428D01*
X12133333Y-47219047D01*
X12133333Y-47104761D01*
X12095238Y-46952380D01*
X12057142Y-46876190D01*
X11980952Y-46800000D01*
X11866666Y-46761904D01*
X11790476Y-46761904D01*
X11676190Y-46800000D01*
X11638095Y-46838095D01*
M02*
