M48
; DRILL file {KiCad (5.1.9)-1} date 06/23/21 18:06:52
; FORMAT={-:-/ absolute / inch / decimal}
; #@! TF.CreationDate,2021-06-23T18:06:52+02:00
; #@! TF.GenerationSoftware,Kicad,Pcbnew,(5.1.9)-1
FMAT,2
INCH
T1C0.0157
T2C0.0276
T3C0.0300
T4C0.0315
T5C0.0354
T6C0.0394
T7C0.0402
T8C0.1260
%
G90
G05
T1
X3.6831Y-2.3124
X3.6831Y-2.7061
X3.6831Y-3.0998
X3.6831Y-3.4935
X3.6831Y-3.8872
X3.6831Y-4.2809
X3.6831Y-4.6746
X3.6831Y-5.0683
X3.8799Y-2.9029
X3.8799Y-3.2966
X3.8799Y-3.6903
X3.8799Y-4.084
X3.8799Y-4.4777
X3.8799Y-4.8714
X3.8799Y-5.2651
X3.8799Y-5.6588
X4.0768Y-2.3124
X4.0768Y-2.7061
X4.0768Y-3.4935
X4.0768Y-3.8872
X4.0768Y-4.2809
X4.0768Y-4.6746
X4.0768Y-5.0683
X4.0768Y-5.462
X4.2736Y-2.1155
X4.2736Y-2.5092
X4.2736Y-2.9029
X4.2736Y-3.2966
X4.2736Y-3.6903
X4.2736Y-4.084
X4.2736Y-4.4777
X4.2736Y-4.8714
X4.2736Y-5.2651
X4.2736Y-5.6588
X4.4705Y-2.7061
X4.4705Y-3.4935
X4.4705Y-3.8872
X4.4705Y-4.2809
X4.4705Y-5.0683
X4.4705Y-5.462
X4.6673Y-2.1155
X4.6673Y-2.5092
X4.6673Y-2.9029
X4.6673Y-3.2966
X4.6673Y-3.6903
X4.6673Y-4.084
X4.6673Y-4.4777
X4.6673Y-4.8714
X4.6673Y-5.2651
X4.6673Y-5.6588
X4.8642Y-2.7061
X4.8642Y-3.4935
X4.8642Y-3.8872
X4.8642Y-4.2809
X4.8642Y-5.0683
X4.8642Y-5.462
X4.9579Y-4.5572
X5.0579Y-4.5272
X5.061Y-4.8714
X5.061Y-5.2651
X5.2579Y-3.0998
X5.2579Y-3.4935
X5.2579Y-3.8872
X5.2579Y-4.2809
X5.2579Y-5.0683
X5.2579Y-5.462
X5.3079Y-3.7272
X5.4547Y-3.2966
X5.4547Y-3.6903
X5.4547Y-4.084
X5.4547Y-4.4777
X5.4547Y-5.2651
X5.6516Y-2.7061
X5.6516Y-3.0998
X5.6516Y-3.4935
X5.6516Y-3.8872
X5.6516Y-4.2809
X5.6516Y-5.0683
X5.6516Y-5.462
X5.6673Y-3.3179
X5.7283Y-3.3858
X5.8484Y-2.1155
X5.8484Y-2.5092
X5.8484Y-2.9029
X5.8484Y-4.084
X5.8484Y-4.4777
X5.8484Y-4.8714
X5.8484Y-5.2651
X5.8484Y-5.6588
X6.0453Y-3.4935
X6.0453Y-4.2809
X6.0453Y-4.6746
X6.0453Y-5.0683
X6.0453Y-5.462
X6.2421Y-2.1155
X6.2421Y-2.5092
X6.2421Y-3.2966
X6.2421Y-4.084
X6.2421Y-4.4777
X6.2421Y-4.8714
X6.2421Y-5.2651
X6.2421Y-5.6588
X6.439Y-2.3124
X6.439Y-2.7061
X6.439Y-3.0998
X6.439Y-3.8872
X6.439Y-4.2809
X6.439Y-4.6746
X6.439Y-4.6746
X6.439Y-5.0683
X6.439Y-5.462
X6.6358Y-2.5092
X6.6358Y-2.9029
X6.6358Y-3.6903
X6.6358Y-4.084
X6.6358Y-4.4777
X6.6358Y-4.8714
X6.6358Y-5.2651
X6.6358Y-5.6588
X6.8327Y-2.3124
X6.8327Y-2.7061
X6.8327Y-3.0998
X6.8327Y-4.2809
X6.8327Y-4.6746
X6.8327Y-5.0683
T2
X6.1279Y-2.6872
X6.2279Y-2.6872
T3
X4.9016Y-3.7372
X4.9016Y-3.8372
X4.9016Y-3.9372
X4.9016Y-4.0372
T4
X4.0705Y-2.5486
X4.0705Y-2.8242
X4.0705Y-3.0998
X4.4705Y-2.5486
X4.4705Y-2.8242
X4.4705Y-3.0998
X5.3079Y-3.0272
X5.7079Y-3.0272
X6.0079Y-2.6872
X6.0079Y-3.0872
T5
X3.7618Y-2.5486
X3.7618Y-2.8242
X3.7618Y-3.0998
X3.8618Y-2.5486
X3.8618Y-2.8242
X3.8618Y-3.0998
T6
X4.3079Y-2.2509
X4.3079Y-2.3509
X4.4079Y-2.2509
X4.4079Y-2.3509
X4.5079Y-2.2509
X4.5079Y-2.3509
X4.6079Y-2.2509
X4.6079Y-2.3509
X4.7079Y-2.2509
X4.7079Y-2.3509
X4.8079Y-2.2509
X4.8079Y-2.3509
X4.9079Y-2.2509
X4.9079Y-2.3509
X5.0079Y-2.2509
X5.0079Y-2.3509
X5.1079Y-2.2509
X5.1079Y-2.3509
X5.2079Y-2.2509
X5.2079Y-2.3509
X5.3079Y-2.2509
X5.3079Y-2.3509
X5.4079Y-2.2509
X5.4079Y-2.3509
X5.5079Y-2.2509
X5.5079Y-2.3509
X5.6079Y-2.2509
X5.6079Y-2.3509
X5.7079Y-2.2509
X5.7079Y-2.3509
X5.8079Y-2.2509
X5.8079Y-2.3509
X5.8642Y-3.2179
X5.8642Y-3.3179
X5.8642Y-3.4179
X5.8642Y-3.5179
X5.8642Y-3.6179
X5.8642Y-3.7179
X5.8642Y-3.8179
X5.8642Y-3.9179
X5.9079Y-2.2509
X5.9079Y-2.3509
X6.0079Y-2.2509
X6.0079Y-2.3509
X6.1079Y-2.2509
X6.1079Y-2.3509
X6.2079Y-2.2509
X6.2079Y-2.3509
X6.8642Y-3.2179
X6.8642Y-3.3179
X6.8642Y-3.4179
X6.8642Y-3.5179
X6.8642Y-3.6179
X6.8642Y-3.7179
X6.8642Y-3.8179
X6.8642Y-3.9179
T7
X4.2811Y-4.7183
X4.3811Y-4.7183
X4.4811Y-4.7183
X4.5811Y-4.7183
X4.9472Y-4.7183
X5.0472Y-4.7183
X5.1472Y-4.7183
X5.2472Y-4.7183
X5.3472Y-4.7183
X5.4472Y-4.7183
X5.5472Y-4.7183
X5.6472Y-4.7183
X5.9384Y-4.7183
X5.9384Y-4.8183
X5.9384Y-4.9183
X5.9384Y-5.0183
X5.9384Y-5.1183
T8
X3.6829Y-5.5748
X3.8329Y-2.1996
X6.7329Y-2.1996
X6.8329Y-5.5748
T0
M30
