%TF.GenerationSoftware,KiCad,Pcbnew,(5.1.9)-1*%
%TF.CreationDate,2021-03-12T16:28:10+01:00*%
%TF.ProjectId,Demosat RFM95 Board KiCAD,44656d6f-7361-4742-9052-464d39352042,rev?*%
%TF.SameCoordinates,Original*%
%TF.FileFunction,Profile,NP*%
%FSLAX46Y46*%
G04 Gerber Fmt 4.6, Leading zero omitted, Abs format (unit mm)*
G04 Created by KiCad (PCBNEW (5.1.9)-1) date 2021-03-12 16:28:10*
%MOMM*%
%LPD*%
G01*
G04 APERTURE LIST*
%TA.AperFunction,Profile*%
%ADD10C,0.050000*%
%TD*%
G04 APERTURE END LIST*
D10*
X133032500Y-65405000D02*
X159829500Y-65405000D01*
X160464500Y-97155000D02*
X160464500Y-66040000D01*
X133032500Y-97790000D02*
X159829500Y-97790000D01*
X132397500Y-66040000D02*
X132397500Y-97155000D01*
X133032500Y-97790000D02*
G75*
G02*
X132397500Y-97155000I0J635000D01*
G01*
X160464500Y-97155000D02*
G75*
G02*
X159829500Y-97790000I-635000J0D01*
G01*
X159829500Y-65405000D02*
G75*
G02*
X160464500Y-66040000I0J-635000D01*
G01*
X132397500Y-66040000D02*
G75*
G02*
X133032500Y-65405000I635000J0D01*
G01*
M02*
