G04 #@! TF.GenerationSoftware,KiCad,Pcbnew,(5.1.9)-1*
G04 #@! TF.CreationDate,2021-06-23T18:37:25+02:00*
G04 #@! TF.ProjectId,Demosat_SMD_Power_Board,44656d6f-7361-4745-9f53-4d445f506f77,1.0*
G04 #@! TF.SameCoordinates,Original*
G04 #@! TF.FileFunction,Soldermask,Bot*
G04 #@! TF.FilePolarity,Negative*
%FSLAX46Y46*%
G04 Gerber Fmt 4.6, Leading zero omitted, Abs format (unit mm)*
G04 Created by KiCad (PCBNEW (5.1.9)-1) date 2021-06-23 18:37:25*
%MOMM*%
%LPD*%
G01*
G04 APERTURE LIST*
%ADD10C,2.390000*%
%ADD11C,3.450000*%
%ADD12O,1.700000X1.700000*%
%ADD13R,1.700000X1.700000*%
%ADD14C,5.600000*%
%ADD15O,1.700000X2.000000*%
%ADD16C,1.524000*%
G04 APERTURE END LIST*
D10*
X110070000Y-63500000D03*
D11*
X118400000Y-79500000D03*
X173600000Y-63500000D03*
D10*
X110070000Y-105500000D03*
D11*
X118400000Y-121500000D03*
X173600000Y-105500000D03*
D12*
X132000000Y-95040000D03*
D13*
X132000000Y-92500000D03*
D12*
X151080000Y-58210000D03*
D13*
X148540000Y-58210000D03*
D12*
X140920000Y-58210000D03*
D13*
X143460000Y-58210000D03*
D12*
X170130000Y-53500000D03*
X170130000Y-50960000D03*
X167590000Y-53500000D03*
X167590000Y-50960000D03*
X165050000Y-53500000D03*
X165050000Y-50960000D03*
X162510000Y-53500000D03*
X162510000Y-50960000D03*
X159970000Y-53500000D03*
X159970000Y-50960000D03*
X157430000Y-53500000D03*
X157430000Y-50960000D03*
X154890000Y-53500000D03*
X154890000Y-50960000D03*
X152350000Y-53500000D03*
X152350000Y-50960000D03*
X149810000Y-53500000D03*
X149810000Y-50960000D03*
X147270000Y-53500000D03*
X147270000Y-50960000D03*
X144730000Y-53500000D03*
X144730000Y-50960000D03*
X142190000Y-53500000D03*
X142190000Y-50960000D03*
X139650000Y-53500000D03*
X139650000Y-50960000D03*
X137110000Y-53500000D03*
X137110000Y-50960000D03*
X134570000Y-53500000D03*
X134570000Y-50960000D03*
X132030000Y-53500000D03*
X132030000Y-50960000D03*
X129490000Y-53500000D03*
X129490000Y-50960000D03*
X126950000Y-53500000D03*
X126950000Y-50960000D03*
X124410000Y-53500000D03*
X124410000Y-50960000D03*
X121870000Y-53500000D03*
D13*
X121870000Y-50960000D03*
D14*
X109805000Y-49635000D03*
X186005000Y-135365000D03*
X105995000Y-135365000D03*
X183465000Y-49635000D03*
D15*
X106500000Y-55800000D03*
G36*
G01*
X103150000Y-56550000D02*
X103150000Y-55050000D01*
G75*
G02*
X103400000Y-54800000I250000J0D01*
G01*
X104600000Y-54800000D01*
G75*
G02*
X104850000Y-55050000I0J-250000D01*
G01*
X104850000Y-56550000D01*
G75*
G02*
X104600000Y-56800000I-250000J0D01*
G01*
X103400000Y-56800000D01*
G75*
G02*
X103150000Y-56550000I0J250000D01*
G01*
G37*
D16*
X128320000Y-99500000D03*
X128320000Y-85500000D03*
X105320000Y-85500000D03*
X105320000Y-88500000D03*
X105320000Y-96500000D03*
X105320000Y-99500000D03*
M02*
