G04 #@! TF.GenerationSoftware,KiCad,Pcbnew,(5.1.9)-1*
G04 #@! TF.CreationDate,2021-06-23T18:37:24+02:00*
G04 #@! TF.ProjectId,Demosat_SMD_Power_Board,44656d6f-7361-4745-9f53-4d445f506f77,1.0*
G04 #@! TF.SameCoordinates,Original*
G04 #@! TF.FileFunction,Paste,Top*
G04 #@! TF.FilePolarity,Positive*
%FSLAX46Y46*%
G04 Gerber Fmt 4.6, Leading zero omitted, Abs format (unit mm)*
G04 Created by KiCad (PCBNEW (5.1.9)-1) date 2021-06-23 18:37:24*
%MOMM*%
%LPD*%
G01*
G04 APERTURE LIST*
%ADD10R,7.340000X6.350000*%
G04 APERTURE END LIST*
D10*
X185330000Y-71500000D03*
X106670000Y-71500000D03*
X185330000Y-113500000D03*
X106670000Y-113500000D03*
G36*
G01*
X133500000Y-98270000D02*
X133500000Y-97270000D01*
G75*
G02*
X134000000Y-96770000I500000J0D01*
G01*
X136000000Y-96770000D01*
G75*
G02*
X136500000Y-97270000I0J-500000D01*
G01*
X136500000Y-98270000D01*
G75*
G02*
X136000000Y-98770000I-500000J0D01*
G01*
X134000000Y-98770000D01*
G75*
G02*
X133500000Y-98270000I0J500000D01*
G01*
G37*
G36*
G01*
X152500000Y-87730000D02*
X152500000Y-86730000D01*
G75*
G02*
X153000000Y-86230000I500000J0D01*
G01*
X155000000Y-86230000D01*
G75*
G02*
X155500000Y-86730000I0J-500000D01*
G01*
X155500000Y-87730000D01*
G75*
G02*
X155000000Y-88230000I-500000J0D01*
G01*
X153000000Y-88230000D01*
G75*
G02*
X152500000Y-87730000I0J500000D01*
G01*
G37*
G36*
G01*
X152500000Y-90270000D02*
X152500000Y-89270000D01*
G75*
G02*
X153000000Y-88770000I500000J0D01*
G01*
X155000000Y-88770000D01*
G75*
G02*
X155500000Y-89270000I0J-500000D01*
G01*
X155500000Y-90270000D01*
G75*
G02*
X155000000Y-90770000I-500000J0D01*
G01*
X153000000Y-90770000D01*
G75*
G02*
X152500000Y-90270000I0J500000D01*
G01*
G37*
G36*
G01*
X133500000Y-90270000D02*
X133500000Y-89270000D01*
G75*
G02*
X134000000Y-88770000I500000J0D01*
G01*
X136000000Y-88770000D01*
G75*
G02*
X136500000Y-89270000I0J-500000D01*
G01*
X136500000Y-90270000D01*
G75*
G02*
X136000000Y-90770000I-500000J0D01*
G01*
X134000000Y-90770000D01*
G75*
G02*
X133500000Y-90270000I0J500000D01*
G01*
G37*
G36*
G01*
X152500000Y-98270000D02*
X152500000Y-97270000D01*
G75*
G02*
X153000000Y-96770000I500000J0D01*
G01*
X155000000Y-96770000D01*
G75*
G02*
X155500000Y-97270000I0J-500000D01*
G01*
X155500000Y-98270000D01*
G75*
G02*
X155000000Y-98770000I-500000J0D01*
G01*
X153000000Y-98770000D01*
G75*
G02*
X152500000Y-98270000I0J500000D01*
G01*
G37*
G36*
G01*
X156000000Y-98270000D02*
X156000000Y-97270000D01*
G75*
G02*
X156500000Y-96770000I500000J0D01*
G01*
X158500000Y-96770000D01*
G75*
G02*
X159000000Y-97270000I0J-500000D01*
G01*
X159000000Y-98270000D01*
G75*
G02*
X158500000Y-98770000I-500000J0D01*
G01*
X156500000Y-98770000D01*
G75*
G02*
X156000000Y-98270000I0J500000D01*
G01*
G37*
G36*
G01*
X175000000Y-87730000D02*
X175000000Y-86730000D01*
G75*
G02*
X175500000Y-86230000I500000J0D01*
G01*
X177500000Y-86230000D01*
G75*
G02*
X178000000Y-86730000I0J-500000D01*
G01*
X178000000Y-87730000D01*
G75*
G02*
X177500000Y-88230000I-500000J0D01*
G01*
X175500000Y-88230000D01*
G75*
G02*
X175000000Y-87730000I0J500000D01*
G01*
G37*
G36*
G01*
X175000000Y-90270000D02*
X175000000Y-89270000D01*
G75*
G02*
X175500000Y-88770000I500000J0D01*
G01*
X177500000Y-88770000D01*
G75*
G02*
X178000000Y-89270000I0J-500000D01*
G01*
X178000000Y-90270000D01*
G75*
G02*
X177500000Y-90770000I-500000J0D01*
G01*
X175500000Y-90770000D01*
G75*
G02*
X175000000Y-90270000I0J500000D01*
G01*
G37*
G36*
G01*
X156000000Y-90270000D02*
X156000000Y-89270000D01*
G75*
G02*
X156500000Y-88770000I500000J0D01*
G01*
X158500000Y-88770000D01*
G75*
G02*
X159000000Y-89270000I0J-500000D01*
G01*
X159000000Y-90270000D01*
G75*
G02*
X158500000Y-90770000I-500000J0D01*
G01*
X156500000Y-90770000D01*
G75*
G02*
X156000000Y-90270000I0J500000D01*
G01*
G37*
G36*
G01*
X175000000Y-98270000D02*
X175000000Y-97270000D01*
G75*
G02*
X175500000Y-96770000I500000J0D01*
G01*
X177500000Y-96770000D01*
G75*
G02*
X178000000Y-97270000I0J-500000D01*
G01*
X178000000Y-98270000D01*
G75*
G02*
X177500000Y-98770000I-500000J0D01*
G01*
X175500000Y-98770000D01*
G75*
G02*
X175000000Y-98270000I0J500000D01*
G01*
G37*
G36*
G01*
X103020999Y-107918000D02*
X105921001Y-107918000D01*
G75*
G02*
X106171000Y-108167999I0J-249999D01*
G01*
X106171000Y-108968001D01*
G75*
G02*
X105921001Y-109218000I-249999J0D01*
G01*
X103020999Y-109218000D01*
G75*
G02*
X102771000Y-108968001I0J249999D01*
G01*
X102771000Y-108167999D01*
G75*
G02*
X103020999Y-107918000I249999J0D01*
G01*
G37*
G36*
G01*
X103020999Y-103468000D02*
X105921001Y-103468000D01*
G75*
G02*
X106171000Y-103717999I0J-249999D01*
G01*
X106171000Y-104518001D01*
G75*
G02*
X105921001Y-104768000I-249999J0D01*
G01*
X103020999Y-104768000D01*
G75*
G02*
X102771000Y-104518001I0J249999D01*
G01*
X102771000Y-103717999D01*
G75*
G02*
X103020999Y-103468000I249999J0D01*
G01*
G37*
G36*
G01*
X105921001Y-77082000D02*
X103020999Y-77082000D01*
G75*
G02*
X102771000Y-76832001I0J249999D01*
G01*
X102771000Y-76031999D01*
G75*
G02*
X103020999Y-75782000I249999J0D01*
G01*
X105921001Y-75782000D01*
G75*
G02*
X106171000Y-76031999I0J-249999D01*
G01*
X106171000Y-76832001D01*
G75*
G02*
X105921001Y-77082000I-249999J0D01*
G01*
G37*
G36*
G01*
X105921001Y-81532000D02*
X103020999Y-81532000D01*
G75*
G02*
X102771000Y-81282001I0J249999D01*
G01*
X102771000Y-80481999D01*
G75*
G02*
X103020999Y-80232000I249999J0D01*
G01*
X105921001Y-80232000D01*
G75*
G02*
X106171000Y-80481999I0J-249999D01*
G01*
X106171000Y-81282001D01*
G75*
G02*
X105921001Y-81532000I-249999J0D01*
G01*
G37*
M02*
